
<svg xmlns="http://www.w3.org/2000/svg" version="1.1" xmlns:xlink="http://www.w3.org/1999/xlink" preserveAspectRatio="none" x="0px" y="0px" width="320px" height="480px" viewBox="0 0 320 480">
<defs>
<g id="METSP16_IAB_320x480___CROPPED_psd_Asset_Group_1_copy_02_Frame_In_stores_now_0_Layer0_0_MEMBER_0_FILL">
<path fill="#FFFFFF" stroke="none" d="
M 3.5 1.05
Q 3.5 0 2.5 0 2.05 0 1.75 0.3 1.45 0.6 1.45 1.05
L 1.45 10.55
Q 1.45 10.95 1.75 11.3 2.05 11.6 2.5 11.6 2.95 11.6 3.25 11.3 3.5 11 3.5 10.55
L 3.5 1.05 Z"/>
</g>

<g id="METSP16_IAB_320x480___CROPPED_psd_Asset_Group_1_copy_02_Frame_In_stores_now_0_Layer0_0_MEMBER_1_FILL">
<path fill="#FFFFFF" stroke="none" d="
M 13 4.85
Q 12.2 3.85 10.8 3.85 9.35 3.85 8.6 5.1
L 8.6 5
Q 8.6 3.95 7.6 3.95 6.6 3.95 6.6 5
L 6.6 10.55
Q 6.6 11 6.9 11.3 7.2 11.6 7.6 11.6 8 11.6 8.3 11.3 8.6 11 8.6 10.55
L 8.6 7.5
Q 8.6 6.75 9 6.25 9.45 5.7 10.2 5.7 11.75 5.7 11.75 7.5
L 11.75 10.55
Q 11.75 11 12.05 11.3 12.35 11.6 12.8 11.6 13.2 11.6 13.5 11.3 13.8 11 13.8 10.55
L 13.8 7.4
Q 13.8 5.85 13 4.85 Z"/>
</g>

<g id="METSP16_IAB_320x480___CROPPED_psd_Asset_Group_1_copy_02_Frame_In_stores_now_0_Layer0_0_MEMBER_2_FILL">
<path fill="#FFFFFF" stroke="none" d="
M 26.85 6.1
Q 27.6 6.1 27.6 5.35 27.6 4.75 26.6 4.25 25.65 3.85 24.75 3.85 23.3 3.85 22.45 4.5 21.7 5.1 21.7 6.1 21.7 7.95 24.5 8.7 25.85 9.05 25.85 9.55 25.85 10.15 24.8 10.15 24.05 10.15 23.15 9.65 22.75 9.35 22.35 9.35 21.6 9.35 21.6 10.05 21.6 10.55 22.05 10.9 23.15 11.65 24.75 11.65 26.15 11.65 27 11.05 27.8 10.4 27.8 9.4 27.8 8.35 27.05 7.75 26.45 7.35 25.05 6.95 24.2 6.7 23.95 6.55 23.65 6.4 23.65 6.05 23.65 5.5 24.7 5.5 25.3 5.5 25.95 5.8
L 26.85 6.1 Z"/>
</g>

<g id="METSP16_IAB_320x480___CROPPED_psd_Asset_Group_1_copy_02_Frame_In_stores_now_0_Layer0_0_MEMBER_3_FILL">
<path fill="#FFFFFF" stroke="none" d="
M 32.75 1.25
Q 32.45 0.95 32 0.95 31.6 0.95 31.3 1.25 31 1.55 31 1.95
L 31 4.1 29.85 4.1
Q 29.05 4.1 29.05 4.95 29.05 5.3 29.3 5.55 29.5 5.8 29.85 5.8
L 31 5.8 31 10.55
Q 31 11 31.3 11.3 31.6 11.6 32 11.6 32.45 11.6 32.75 11.3 33.05 11 33.05 10.55
L 33.05 5.8 34.35 5.8
Q 35.2 5.8 35.2 4.95 35.2 4.1 34.35 4.1
L 33.05 4.1 33.05 1.95
Q 33.05 1.55 32.75 1.25 Z"/>
</g>

<g id="METSP16_IAB_320x480___CROPPED_psd_Asset_Group_1_copy_02_Frame_In_stores_now_0_Layer0_0_MEMBER_4_FILL">
<path fill="#FFFFFF" stroke="none" d="
M 42.9 10.5
Q 44 9.4 44 7.75 44 6.15 42.9 5 41.8 3.85 40.15 3.85 38.45 3.85 37.35 5 36.25 6.15 36.25 7.75 36.25 9.4 37.35 10.5 38.45 11.65 40.15 11.65 41.8 11.65 42.9 10.5
M 41.5 6.3
Q 42 6.9 42 7.75 42 8.65 41.5 9.25 41 9.9 40.15 9.9 39.3 9.9 38.75 9.25 38.25 8.65 38.25 7.75 38.25 6.9 38.75 6.3 39.3 5.65 40.15 5.65 41 5.65 41.5 6.3 Z"/>
</g>

<g id="METSP16_IAB_320x480___CROPPED_psd_Asset_Group_1_copy_02_Frame_In_stores_now_0_Layer0_0_MEMBER_5_FILL">
<path fill="#FFFFFF" stroke="none" d="
M 50.4 3.85
Q 48.95 3.85 48.4 5.15
L 48.4 5
Q 48.4 4.55 48.1 4.25 47.8 3.95 47.4 3.95 46.35 3.95 46.35 5
L 46.35 10.55
Q 46.35 11 46.65 11.3 47 11.6 47.4 11.6 47.8 11.6 48.1 11.3 48.4 11 48.4 10.55
L 48.4 7.9
Q 48.4 6.9 48.95 6.3 49.5 5.7 50.4 5.7 51.3 5.7 51.3 4.8 51.3 3.85 50.4 3.85 Z"/>
</g>

<g id="METSP16_IAB_320x480___CROPPED_psd_Asset_Group_1_copy_02_Frame_In_stores_now_0_Layer0_0_MEMBER_6_FILL">
<path fill="#FFFFFF" stroke="none" d="
M 58.85 5
Q 57.85 3.85 56.25 3.85 54.6 3.85 53.5 4.95 52.4 6.05 52.4 7.75 52.4 9.45 53.4 10.5 54.45 11.65 56.3 11.65 57.75 11.65 58.75 11 59.5 10.55 59.5 9.95 59.5 9.2 58.7 9.2 58.4 9.2 57.95 9.55 57.3 10.05 56.4 10.05 54.75 10.05 54.55 8.45
L 59.05 8.45
Q 59.8 8.45 59.8 7.75 59.8 6.05 58.85 5
M 56.25 5.5
Q 57.55 5.5 57.85 7
L 54.6 7
Q 54.75 5.5 56.25 5.5 Z"/>
</g>

<g id="METSP16_IAB_320x480___CROPPED_psd_Asset_Group_1_copy_02_Frame_In_stores_now_0_Layer0_0_MEMBER_7_FILL">
<path fill="#FFFFFF" stroke="none" d="
M 67.1 6.1
Q 67.85 6.1 67.85 5.35 67.85 4.75 66.85 4.25 65.9 3.85 65 3.85 63.55 3.85 62.7 4.5 61.95 5.1 61.95 6.1 61.95 7.95 64.7 8.7 66.1 9.05 66.1 9.55 66.1 10.15 65.05 10.15 64.3 10.15 63.4 9.65 63 9.35 62.6 9.35 61.85 9.35 61.85 10.05 61.85 10.55 62.3 10.9 63.4 11.65 65 11.65 66.4 11.65 67.25 11.05 68.05 10.4 68.05 9.4 68.05 8.35 67.3 7.75 66.7 7.35 65.3 6.95 64.45 6.7 64.15 6.55 63.85 6.4 63.85 6.05 63.85 5.5 64.95 5.5 65.55 5.5 66.2 5.8
L 67.1 6.1 Z"/>
</g>

<g id="METSP16_IAB_320x480___CROPPED_psd_Asset_Group_1_copy_02_Frame_In_stores_now_0_Layer0_0_MEMBER_8_FILL">
<path fill="#FFFFFF" stroke="none" d="
M 82.95 7.4
Q 82.95 5.85 82.15 4.85 81.35 3.85 79.95 3.85 78.4 3.85 77.75 5.1
L 77.75 5
Q 77.75 3.95 76.7 3.95 75.7 3.95 75.7 5
L 75.7 10.55
Q 75.7 11 76 11.3 76.3 11.6 76.7 11.6 77.15 11.6 77.45 11.3 77.75 11 77.75 10.55
L 77.75 7.5
Q 77.75 5.7 79.35 5.7 80.9 5.7 80.9 7.5
L 80.9 10.55
Q 80.9 11 81.2 11.3 81.5 11.6 81.9 11.6 82.3 11.6 82.65 11.3 82.95 11 82.95 10.55
L 82.95 7.4 Z"/>
</g>

<g id="METSP16_IAB_320x480___CROPPED_psd_Asset_Group_1_copy_02_Frame_In_stores_now_0_Layer0_0_MEMBER_9_FILL">
<path fill="#FFFFFF" stroke="none" d="
M 91.85 10.5
Q 92.95 9.4 92.95 7.75 92.95 6.15 91.85 5 90.75 3.85 89.05 3.85 87.35 3.85 86.25 5 85.15 6.15 85.15 7.75 85.15 9.4 86.25 10.5 87.35 11.65 89.05 11.65 90.75 11.65 91.85 10.5
M 90.45 6.3
Q 90.95 6.9 90.95 7.75 90.95 8.65 90.45 9.25 89.9 9.9 89.05 9.9 88.2 9.9 87.7 9.25 87.2 8.65 87.2 7.75 87.2 6.9 87.7 6.3 88.2 5.65 89.05 5.65 89.9 5.65 90.45 6.3 Z"/>
</g>

<g id="METSP16_IAB_320x480___CROPPED_psd_Asset_Group_1_copy_02_Frame_In_stores_now_0_Layer0_0_MEMBER_10_FILL">
<path fill="#FFFFFF" stroke="none" d="
M 102.85 11
L 104.9 4.85
Q 104.9 3.95 103.95 3.95 103.3 3.95 103.15 4.5
L 101.95 8.45 100.55 4.55
Q 100.3 3.95 99.7 3.95 99.05 3.95 98.9 4.55
L 97.5 8.45 96.3 4.5
Q 96.05 3.95 95.5 3.95 94.55 3.95 94.55 4.85
L 94.6 5.15 96.55 11
Q 96.8 11.6 97.45 11.6 98.05 11.6 98.3 11
L 99.7 6.85 101.15 11
Q 101.4 11.6 102 11.6 102.7 11.6 102.85 11 Z"/>
</g>

<g id="METSP16_IAB_320x480___CROPPED_psd_Asset_Group_1_copy_02_Frame_ooh__gimme__0_Layer0_0_MEMBER_0_FILL">
<path fill="#FFFFFF" stroke="none" d="
M 22.5 3.5
Q 22.5 2 21.55 1 20.55 -0.05 19.05 -0.05 17.55 -0.05 16.55 1 15.6 2 15.6 3.5 15.6 4.95 16.55 5.95 17.55 7 19.05 7 20.55 7 21.55 5.95 22.5 4.95 22.5 3.5
M 20.9 1.65
Q 21.5 2.4 21.5 3.5 21.5 4.6 20.9 5.35 20.2 6.1 19.05 6.1 17.9 6.1 17.25 5.35 16.6 4.6 16.6 3.5 16.6 2.4 17.25 1.65 17.9 0.85 19.05 0.85 20.2 0.85 20.9 1.65 Z"/>
</g>

<g id="METSP16_IAB_320x480___CROPPED_psd_Asset_Group_1_copy_02_Frame_ooh__gimme__0_Layer0_0_MEMBER_1_FILL">
<path fill="#FFFFFF" stroke="none" d="
M 24.8 1
Q 23.85 2 23.85 3.5 23.85 4.95 24.8 5.95 25.8 7 27.3 7 28.85 7 29.8 5.95 30.75 4.95 30.75 3.5 30.75 2 29.8 1 28.85 -0.05 27.3 -0.05 25.8 -0.05 24.8 1
M 29.15 1.65
Q 29.8 2.4 29.8 3.5 29.8 4.6 29.15 5.35 28.45 6.1 27.3 6.1 26.2 6.1 25.5 5.35 24.85 4.6 24.85 3.5 24.85 2.4 25.5 1.65 26.2 0.85 27.3 0.85 28.45 0.85 29.15 1.65 Z"/>
</g>

<g id="METSP16_IAB_320x480___CROPPED_psd_Asset_Group_1_copy_02_Frame_ooh__gimme__0_Layer0_0_MEMBER_2_FILL">
<path fill="#FFFFFF" stroke="none" d="
M 38.1 0.5
Q 38.1 0 37.65 0 37.15 0 37.15 0.5
L 37.15 2.95 33.5 2.95 33.5 0.5
Q 33.5 0 33 0 32.5 0 32.5 0.5
L 32.5 6.45
Q 32.5 6.95 33 6.95 33.5 6.95 33.5 6.45
L 33.5 3.85 37.15 3.85 37.15 6.45
Q 37.15 6.95 37.65 6.95 38.1 6.95 38.1 6.45
L 38.1 0.5 Z"/>
</g>

<g id="METSP16_IAB_320x480___CROPPED_psd_Asset_Group_1_copy_02_Frame_ooh__gimme__0_Layer0_0_MEMBER_3_FILL">
<path fill="#FFFFFF" stroke="none" d="
M 40.55 8.25
Q 40.9 7.6 40.9 6.55
L 40.9 6.15
Q 40.9 5.7 40.5 5.7 40.1 5.7 40.1 6.15
L 40.1 6.7
Q 40.1 7.35 39.8 7.95
L 39.7 8.25
Q 39.7 8.6 40.15 8.6 40.3 8.6 40.55 8.25 Z"/>
</g>

<g id="METSP16_IAB_320x480___CROPPED_psd_Asset_Group_1_copy_02_Frame_ooh__gimme__0_Layer0_0_MEMBER_4_FILL">
<path fill="#FFFFFF" stroke="none" d="
M 51.8 5.9
Q 51.9 5.8 51.9 5.6
L 51.9 3.9
Q 51.9 3.4 51.4 3.4
L 49.3 3.4
Q 48.9 3.4 48.9 3.85 48.9 4.3 49.3 4.3
L 50.95 4.3 50.95 5.55
Q 50.3 6.15 49.05 6.15 47.9 6.15 47.25 5.35 46.6 4.65 46.6 3.5 46.6 2.4 47.25 1.65 47.95 0.85 49.05 0.85 50 0.85 50.7 1.5
L 51.05 1.6
Q 51.5 1.6 51.5 1.15 51.5 0.95 51.35 0.85 50.5 -0.05 49.05 -0.05 47.55 -0.05 46.6 0.95 45.6 1.95 45.6 3.5 45.6 5 46.55 6 47.55 7 49.05 7 50.85 7 51.8 5.9 Z"/>
</g>

<g id="METSP16_IAB_320x480___CROPPED_psd_Asset_Group_1_copy_02_Frame_ooh__gimme__0_Layer0_0_MEMBER_5_FILL">
<path fill="#FFFFFF" stroke="none" d="
M 54.25 6.95
Q 54.75 6.95 54.75 6.45
L 54.75 0.5
Q 54.75 0 54.25 0 53.75 0 53.75 0.5
L 53.75 6.45
Q 53.75 6.95 54.25 6.95 Z"/>
</g>

<g id="METSP16_IAB_320x480___CROPPED_psd_Asset_Group_1_copy_02_Frame_ooh__gimme__0_Layer0_0_MEMBER_6_FILL">
<path fill="#FFFFFF" stroke="none" d="
M 63.4 0
Q 63.1 0 62.95 0.3
L 60.35 5.6 57.8 0.3
Q 57.65 0 57.35 0 56.9 0 56.9 0.45
L 56.9 6.5
Q 56.9 6.95 57.35 6.95 57.8 6.95 57.8 6.5
L 57.8 2.35 59.95 6.65
Q 60.05 6.95 60.35 6.95 60.65 6.95 60.8 6.65
L 62.9 2.35 62.9 6.5
Q 62.9 6.95 63.4 6.95 63.85 6.95 63.85 6.5
L 63.85 0.45
Q 63.85 0 63.4 0 Z"/>
</g>

<g id="METSP16_IAB_320x480___CROPPED_psd_Asset_Group_1_copy_02_Frame_ooh__gimme__0_Layer0_0_MEMBER_7_FILL">
<path fill="#FFFFFF" stroke="none" d="
M 72.4 0
Q 72.1 0 72 0.3
L 69.4 5.6 66.8 0.3
Q 66.75 0 66.4 0 65.95 0 65.95 0.45
L 65.95 6.5
Q 65.95 6.95 66.4 6.95 66.85 6.95 66.85 6.5
L 66.85 2.35 69 6.65
Q 69.1 6.95 69.4 6.95 69.7 6.95 69.85 6.65
L 71.95 2.35 71.95 6.5
Q 71.95 6.95 72.4 6.95 72.9 6.95 72.9 6.5
L 72.9 0.45
Q 72.9 0 72.4 0 Z"/>
</g>

<g id="METSP16_IAB_320x480___CROPPED_psd_Asset_Group_1_copy_02_Frame_ooh__gimme__0_Layer0_0_MEMBER_8_FILL">
<path fill="#FFFFFF" stroke="none" d="
M 79.7 0.55
Q 79.7 0.1 79.25 0.1
L 75.45 0.1
Q 74.95 0.1 74.95 0.55
L 74.95 6.4
Q 74.95 6.85 75.45 6.85
L 79.4 6.85
Q 79.85 6.85 79.85 6.4 79.85 6 79.4 6
L 75.95 6 75.95 3.85 77.8 3.85
Q 78.25 3.85 78.25 3.4 78.25 2.95 77.8 2.95
L 75.95 2.95 75.95 1 79.25 1
Q 79.7 1 79.7 0.55 Z"/>
</g>

<g id="METSP16_IAB_320x480___CROPPED_psd_Asset_Group_1_copy_02_Frame_ooh__gimme__0_Layer0_0_MEMBER_9_FILL">
<path fill="#FFFFFF" stroke="none" d="
M 82 6.95
Q 82.6 6.95 82.6 6.35 82.6 5.75 82 5.75 81.4 5.75 81.4 6.35 81.4 6.95 82 6.95
M 82.5 3.1
L 82.5 0.5
Q 82.5 0 82 0 81.55 0 81.55 0.5
L 81.55 3.1 81.75 4.9
Q 81.85 5.1 82 5.1 82.15 5.1 82.25 4.9
L 82.5 3.1 Z"/>
</g>

<g id="METSP16_IAB_320x480___CROPPED_psd_Asset_Group_1_copy_02_Frame_the_2016_Spring_collection_0_Layer0_0_MEMBER_0_FILL">
<path fill="#FFFFFF" stroke="none" d="
M 11.65 2.1
Q 12 1.8 12 1.3 12 0.85 11.65 0.5 11.35 0.15 10.85 0.15
L 1.55 0.15
Q 1.05 0.15 0.75 0.5 0.4 0.85 0.4 1.3 0.4 1.8 0.75 2.1 1.05 2.45 1.55 2.45
L 5 2.45 5 12.4
Q 5 12.95 5.35 13.3 5.7 13.65 6.2 13.65 6.75 13.65 7.1 13.3 7.45 12.95 7.45 12.4
L 7.45 2.45 10.85 2.45
Q 11.35 2.45 11.65 2.1 Z"/>
</g>

<g id="METSP16_IAB_320x480___CROPPED_psd_Asset_Group_1_copy_02_Frame_the_2016_Spring_collection_0_Layer0_0_MEMBER_1_FILL">
<path fill="#FFFFFF" stroke="none" d="
M 23.3 1.25
L 23.3 5.5 16.95 5.5 16.95 1.25
Q 16.95 0.7 16.6 0.35 16.25 0 15.75 0 15.25 0 14.9 0.35 14.5 0.75 14.5 1.25
L 14.5 12.4
Q 14.5 12.9 14.9 13.3 15.25 13.65 15.75 13.65 16.25 13.65 16.6 13.3 16.95 12.95 16.95 12.4
L 16.95 7.75 23.3 7.75 23.3 12.4
Q 23.3 12.95 23.65 13.3 24 13.65 24.5 13.65 25 13.65 25.35 13.3 25.7 12.95 25.7 12.4
L 25.7 1.25
Q 25.7 0.7 25.35 0.35 25 0 24.5 0 24 0 23.65 0.35 23.3 0.7 23.3 1.25 Z"/>
</g>

<g id="METSP16_IAB_320x480___CROPPED_psd_Asset_Group_1_copy_02_Frame_the_2016_Spring_collection_0_Layer0_0_MEMBER_2_FILL">
<path fill="#FFFFFF" stroke="none" d="
M 38.65 0.5
Q 38.35 0.15 37.85 0.15
L 30.65 0.15
Q 30.15 0.15 29.8 0.5 29.4 0.9 29.4 1.4
L 29.4 12.25
Q 29.4 12.75 29.8 13.15 30.15 13.5 30.65 13.5
L 38.15 13.5
Q 38.65 13.5 38.95 13.15 39.3 12.85 39.3 12.35 39.3 11.85 38.95 11.55 38.65 11.2 38.15 11.2
L 31.85 11.2 31.85 7.85 35.15 7.85
Q 35.65 7.85 35.95 7.55 36.3 7.25 36.3 6.75 36.3 6.25 35.95 5.95 35.65 5.6 35.15 5.6
L 31.85 5.6 31.85 2.4 37.85 2.4
Q 38.35 2.4 38.65 2.1 39 1.75 39 1.3 39 0.8 38.65 0.5 Z"/>
</g>

<g id="METSP16_IAB_320x480___CROPPED_psd_Asset_Group_1_copy_02_Frame_the_2016_Spring_collection_0_Layer0_0_MEMBER_3_FILL">
<path fill="#FFFFFF" stroke="none" d="
M 10.9 21.45
Q 7.95 21.45 5.5 22.4 2.2 23.75 2.2 25.4 2.2 26.1 2.7 26.55 3.2 27.05 4 27.05 4.4 27.05 4.9 26.8 6.45 25.8 7.7 25.45 8.9 25.1 10.7 25.1 15.35 25.1 15.35 27.95 15.35 29.5 13.85 30.65 12.9 31.3 9.25 33.05 5.8 34.75 4.05 36.65 1.75 39.2 1.75 42.6 1.75 43.35 2.3 43.95 2.8 44.5 3.55 44.5
L 17.85 44.5
Q 18.6 44.5 19.15 43.95 19.65 43.4 19.65 42.65 19.65 41.9 19.15 41.35 18.6 40.8 17.85 40.8
L 6.45 40.8
Q 6.45 39.3 8.25 38 9.4 37.1 12.8 35.45 16.25 33.75 17.7 32.2 19.45 30.4 19.45 27.9 19.45 24.85 17.05 23.1 14.75 21.45 10.9 21.45 Z"/>
</g>

<g id="METSP16_IAB_320x480___CROPPED_psd_Asset_Group_1_copy_02_Frame_the_2016_Spring_collection_0_Layer0_0_MEMBER_4_FILL">
<path fill="#FFFFFF" stroke="none" d="
M 40.8 41.35
Q 43.35 38.1 43.35 33.15 43.35 28.25 40.8 25 38 21.45 33.4 21.45 28.85 21.45 26.05 25 23.5 28.25 23.5 33.15 23.5 38.1 26.05 41.35 28.8 44.9 33.4 44.9 38 44.9 40.8 41.35
M 37.6 27.3
Q 39.25 29.55 39.25 33.15 39.25 36.75 37.6 39 35.95 41.2 33.4 41.2 30.9 41.2 29.25 39 27.55 36.75 27.55 33.15 27.55 29.55 29.25 27.3 30.9 25.1 33.4 25.1 35.95 25.1 37.6 27.3 Z"/>
</g>

<g id="METSP16_IAB_320x480___CROPPED_psd_Asset_Group_1_copy_02_Frame_the_2016_Spring_collection_0_Layer0_0_MEMBER_5_FILL">
<path fill="#FFFFFF" stroke="none" d="
M 53.3 21.7
L 47.4 23.45
Q 46.05 23.9 46.05 25.25 46.05 26.05 46.65 26.6 47.25 27.15 48 27.15
L 51.95 26 51.95 42.7
Q 51.95 43.55 52.55 44.15 53.15 44.75 54 44.75 54.85 44.75 55.45 44.15 56.05 43.55 56.05 42.7
L 56.05 23.65
Q 56.05 22.7 55.45 22.1 54.85 21.55 54 21.55
L 53.3 21.7 Z"/>
</g>

<g id="METSP16_IAB_320x480___CROPPED_psd_Asset_Group_1_copy_02_Frame_the_2016_Spring_collection_0_Layer0_0_MEMBER_6_FILL">
<path fill="#FFFFFF" stroke="none" d="
M 75.6 24.05
Q 76.15 23.55 76.15 22.85 76.15 21.45 74.5 21.45 72.05 21.45 69.35 23.2 61.65 28.05 61.65 36.4 61.65 40.15 64 42.45 66.55 44.9 71 44.9 74.8 44.9 77.35 42.8 79.85 40.7 79.85 37.5 79.85 34.4 77.75 32.45 75.55 30.35 71.95 30.35 70.2 30.35 68.6 30.95 66.85 31.55 65.95 32.7 67.55 27.95 73.9 24.95 75.15 24.4 75.6 24.05
M 71.1 33.75
Q 73.35 33.75 74.55 34.85 75.75 35.85 75.75 37.55 75.75 39.35 74.3 40.45 72.95 41.45 70.95 41.45 68.8 41.45 67.55 40.45 66.25 39.4 66.25 37.6 66.25 35.9 67.65 34.8 69 33.75 71.1 33.75 Z"/>
</g>

<g id="METSP16_IAB_320x480___CROPPED_psd_Asset_Group_1_copy_02_Frame_the_2016_Spring_collection_0_Layer0_0_MEMBER_7_FILL">
<path fill="#FFFFFF" stroke="none" d="
M 15.45 53.05
Q 13.2 52.45 11.1 52.45 6.95 52.45 4.6 54.05 2.1 55.75 2.1 58.8 2.1 61.4 3.8 62.95 5.6 64.6 10.1 65.8 13.2 66.65 14.35 67.4 15.5 68.15 15.5 69.4 15.5 70.65 14.45 71.4 13.25 72.25 10.95 72.25 8.85 72.25 7.3 71.6 6.55 71.3 4.65 70.05 4.15 69.75 3.6 69.75 2.8 69.75 2.35 70.25 1.85 70.75 1.85 71.55 1.85 72.55 3.05 73.5 4.45 74.65 6.7 75.3 8.75 75.9 10.9 75.9 15.1 75.9 17.45 74 19.65 72.2 19.65 69.15 19.65 66.2 17.4 64.5 15.85 63.35 11.7 62.1 8.45 61.2 7.45 60.6 6.25 59.9 6.25 58.7 6.25 56.1 11.1 56.1 13.45 56.1 16.45 57.55 16.9 57.7 17.25 57.7 18.1 57.7 18.55 57.1 18.95 56.6 18.95 55.85 18.95 54.05 15.45 53.05 Z"/>
</g>

<g id="METSP16_IAB_320x480___CROPPED_psd_Asset_Group_1_copy_02_Frame_the_2016_Spring_collection_0_Layer0_0_MEMBER_8_FILL">
<path fill="#FFFFFF" stroke="none" d="
M 25.4 53.45
Q 24.8 54.05 24.8 54.9
L 24.8 73.7
Q 24.8 74.55 25.4 75.15 26 75.75 26.85 75.75 27.7 75.75 28.35 75.15 28.95 74.55 28.95 73.7
L 28.95 66.7 35.45 66.7
Q 39.45 66.7 41.6 64.7 43.5 62.85 43.5 59.8 43.5 56.75 41.6 54.9 39.45 52.85 35.45 52.85
L 26.85 52.85
Q 26 52.85 25.4 53.45
M 38.5 57.65
Q 39.3 58.55 39.3 59.8 39.3 61.05 38.5 61.9 37.6 62.85 36 62.85
L 28.95 62.85 28.95 56.65 36 56.65
Q 37.6 56.65 38.5 57.65 Z"/>
</g>

<g id="METSP16_IAB_320x480___CROPPED_psd_Asset_Group_1_copy_02_Frame_the_2016_Spring_collection_0_Layer0_0_MEMBER_9_FILL">
<path fill="#FFFFFF" stroke="none" d="
M 66.75 73.7
Q 66.75 73.2 66.5 72.8
L 63 65.7
Q 66.75 64.05 66.75 59.65 66.75 56.5 64.85 54.75 62.8 52.85 58.7 52.85
L 49.95 52.85
Q 49.1 52.85 48.45 53.45 47.85 54.05 47.85 54.9
L 47.85 73.7
Q 47.85 74.55 48.45 75.15 49.1 75.75 49.95 75.75 50.8 75.75 51.4 75.15 52 74.55 52 73.7
L 52 66.45 58.85 66.45 62.85 74.65
Q 63.3 75.75 64.65 75.75 65.55 75.75 66.15 75.1 66.75 74.5 66.75 73.7
M 61.75 57.6
Q 62.55 58.45 62.55 59.65 62.55 60.95 61.75 61.85 60.85 62.85 59.25 62.85
L 52 62.85 52 56.65 59.25 56.65
Q 60.85 56.65 61.75 57.6 Z"/>
</g>

<g id="METSP16_IAB_320x480___CROPPED_psd_Asset_Group_1_copy_02_Frame_the_2016_Spring_collection_0_Layer0_0_MEMBER_10_FILL">
<path fill="#FFFFFF" stroke="none" d="
M 76.55 73.65
L 76.55 54.65
Q 76.55 53.8 75.95 53.15 75.35 52.55 74.5 52.55 73.65 52.55 73 53.15 72.4 53.8 72.4 54.65
L 72.4 73.65
Q 72.4 74.5 73 75.15 73.65 75.75 74.5 75.75 75.35 75.75 75.95 75.15 76.55 74.5 76.55 73.65 Z"/>
</g>

<g id="METSP16_IAB_320x480___CROPPED_psd_Asset_Group_1_copy_02_Frame_the_2016_Spring_collection_0_Layer0_0_MEMBER_11_FILL">
<path fill="#FFFFFF" stroke="none" d="
M 102.1 73.8
L 102.1 54.55
Q 102.1 53.75 101.55 53.15 101 52.55 100.15 52.55 99.3 52.55 98.75 53.15 98.2 53.75 98.2 54.55
L 98.2 68.1 86.45 53.3
Q 85.95 52.55 85.05 52.55 84.1 52.55 83.55 53.15 83 53.7 83 54.55
L 83 73.8
Q 83 74.6 83.6 75.15 84.15 75.75 84.95 75.75 85.75 75.75 86.3 75.2 86.9 74.6 86.9 73.8
L 86.9 60.2 98.65 75.05
Q 99.2 75.75 100.15 75.75 101 75.75 101.55 75.15 102.1 74.6 102.1 73.8 Z"/>
</g>

<g id="METSP16_IAB_320x480___CROPPED_psd_Asset_Group_1_copy_02_Frame_the_2016_Spring_collection_0_Layer0_0_MEMBER_12_FILL">
<path fill="#FFFFFF" stroke="none" d="
M 113.25 58.5
Q 115.3 56.25 118.6 56.25 121.15 56.25 123.6 58.15 124.3 58.6 124.95 58.6 125.8 58.6 126.3 58.05 126.8 57.5 126.8 56.7 126.8 55.95 126.15 55.3 123.45 52.45 118.6 52.45 113.6 52.45 110.35 55.75 107.05 59.05 107.05 64.15 107.05 69.15 110.15 72.45 113.35 75.9 118.65 75.9 121.3 75.9 123.75 74.9 126.35 73.8 127.95 71.8 128.4 71.2 128.4 70.5
L 128.4 65.1
Q 128.4 64.2 127.8 63.6 127.2 62.95 126.3 62.95
L 119.9 62.95
Q 119.15 62.95 118.6 63.5 118 64.05 118 64.85 118 65.65 118.6 66.15 119.15 66.7 119.9 66.7
L 124.35 66.7 124.35 70.2
Q 122.15 72.25 118.65 72.25 115.2 72.25 113.15 69.95 111.2 67.7 111.2 64.15 111.2 60.75 113.25 58.5 Z"/>
</g>

<g id="METSP16_IAB_320x480___CROPPED_psd_Asset_Group_1_copy_02_Frame_the_2016_Spring_collection_0_Layer0_0_MEMBER_13_FILL">
<path fill="#FFFFFF" stroke="none" d="
M 12.45 84.45
Q 12.45 84 12.05 83.6 10.35 81.9 7.6 81.9 4.65 81.9 2.75 83.8 0.8 85.7 0.8 88.8 0.8 91.9 2.75 93.85 4.65 95.7 7.6 95.7 10.4 95.7 12.05 94 12.45 93.7 12.45 93.2 12.45 92.75 12.15 92.45 11.85 92.1 11.35 92.1 10.95 92.1 10.55 92.35 9.2 93.45 7.6 93.45 5.65 93.45 4.45 92.15 3.25 90.85 3.25 88.8 3.25 86.8 4.45 85.5 5.65 84.2 7.6 84.2 9.2 84.2 10.55 85.3 10.95 85.55 11.35 85.55 11.85 85.55 12.15 85.25 12.45 84.9 12.45 84.45 Z"/>
</g>

<g id="METSP16_IAB_320x480___CROPPED_psd_Asset_Group_1_copy_02_Frame_the_2016_Spring_collection_0_Layer0_0_MEMBER_14_FILL">
<path fill="#FFFFFF" stroke="none" d="
M 16.6 83.9
Q 14.65 85.9 14.65 88.8 14.65 91.75 16.6 93.7 18.55 95.7 21.5 95.7 24.4 95.7 26.35 93.7 28.3 91.75 28.3 88.8 28.3 85.9 26.35 83.9 24.4 81.9 21.5 81.9 18.55 81.9 16.6 83.9
M 17.1 88.8
Q 17.1 86.85 18.25 85.5 19.5 84.1 21.5 84.1 23.45 84.1 24.7 85.5 25.85 86.85 25.85 88.8 25.85 90.8 24.7 92.1 23.45 93.5 21.5 93.5 19.5 93.5 18.25 92.1 17.1 90.8 17.1 88.8 Z"/>
</g>

<g id="METSP16_IAB_320x480___CROPPED_psd_Asset_Group_1_copy_02_Frame_the_2016_Spring_collection_0_Layer0_0_MEMBER_15_FILL">
<path fill="#FFFFFF" stroke="none" d="
M 31.7 82.35
Q 31.3 82.75 31.3 83.25
L 31.3 94.25
Q 31.3 94.75 31.7 95.1 32.05 95.5 32.55 95.5
L 39.6 95.5
Q 40.05 95.45 40.4 95.15 40.75 94.8 40.75 94.3 40.75 93.85 40.4 93.55 40.05 93.2 39.6 93.2
L 33.75 93.2 33.75 83.25
Q 33.75 82.7 33.4 82.35 33.05 82 32.55 82 32.05 82 31.7 82.35 Z"/>
</g>

<g id="METSP16_IAB_320x480___CROPPED_psd_Asset_Group_1_copy_02_Frame_the_2016_Spring_collection_0_Layer0_0_MEMBER_16_FILL">
<path fill="#FFFFFF" stroke="none" d="
M 43.65 82.35
Q 43.3 82.75 43.3 83.25
L 43.3 94.25
Q 43.3 94.75 43.65 95.1 44.05 95.5 44.55 95.5
L 51.6 95.5
Q 52.05 95.45 52.4 95.15 52.7 94.8 52.7 94.3 52.7 93.85 52.4 93.55 52.05 93.2 51.6 93.2
L 45.75 93.2 45.75 83.25
Q 45.75 82.75 45.4 82.35 45.05 82 44.55 82 44.05 82 43.65 82.35 Z"/>
</g>

<g id="METSP16_IAB_320x480___CROPPED_psd_Asset_Group_1_copy_02_Frame_the_2016_Spring_collection_0_Layer0_0_MEMBER_17_FILL">
<path fill="#FFFFFF" stroke="none" d="
M 55.65 95.15
Q 56 95.5 56.5 95.5
L 64 95.5
Q 64.5 95.5 64.85 95.15 65.2 94.85 65.2 94.35 65.2 93.85 64.85 93.55 64.5 93.2 64 93.2
L 57.7 93.2 57.7 89.85 61 89.85
Q 61.5 89.85 61.8 89.55 62.15 89.25 62.15 88.75 62.15 88.25 61.8 87.95 61.5 87.6 61 87.6
L 57.7 87.6 57.7 84.4 63.7 84.4
Q 64.2 84.4 64.55 84.1 64.9 83.75 64.9 83.3 64.9 82.8 64.55 82.5 64.2 82.15 63.7 82.15
L 56.5 82.15
Q 56 82.15 55.65 82.5 55.3 82.9 55.3 83.4
L 55.3 94.25
Q 55.3 94.75 55.65 95.15 Z"/>
</g>

<g id="METSP16_IAB_320x480___CROPPED_psd_Asset_Group_1_copy_02_Frame_the_2016_Spring_collection_0_Layer0_0_MEMBER_18_FILL">
<path fill="#FFFFFF" stroke="none" d="
M 77.7 83.6
Q 76 81.9 73.2 81.9 70.25 81.9 68.35 83.8 66.4 85.7 66.4 88.8 66.4 91.9 68.35 93.85 70.25 95.7 73.2 95.7 76.05 95.7 77.7 94 78.05 93.65 78.05 93.2 78.05 92.1 76.95 92.1 76.55 92.1 76.15 92.35 74.8 93.45 73.2 93.45 71.25 93.45 70.1 92.15 68.9 90.85 68.9 88.8 68.9 86.8 70.1 85.5 71.25 84.2 73.2 84.2 74.8 84.2 76.15 85.3 76.55 85.55 76.95 85.55 78.05 85.55 78.05 84.45 78.05 84.05 77.7 83.6 Z"/>
</g>

<g id="METSP16_IAB_320x480___CROPPED_psd_Asset_Group_1_copy_02_Frame_the_2016_Spring_collection_0_Layer0_0_MEMBER_19_FILL">
<path fill="#FFFFFF" stroke="none" d="
M 90.3 84.45
Q 90.8 84.45 91.1 84.1 91.45 83.8 91.45 83.3 91.45 82.85 91.1 82.5 90.75 82.15 90.3 82.15
L 81 82.15
Q 80.5 82.15 80.15 82.5 79.8 82.85 79.8 83.3 79.8 83.8 80.15 84.1 80.5 84.45 81 84.45
L 84.4 84.45 84.4 94.4
Q 84.4 94.9 84.75 95.3 85.1 95.65 85.6 95.65 86.15 95.65 86.5 95.3 86.85 94.95 86.85 94.4
L 86.85 84.45 90.3 84.45 Z"/>
</g>

<g id="METSP16_IAB_320x480___CROPPED_psd_Asset_Group_1_copy_02_Frame_the_2016_Spring_collection_0_Layer0_0_MEMBER_20_FILL">
<path fill="#FFFFFF" stroke="none" d="
M 94.4 82.35
Q 94.05 82.75 94.05 83.25
L 94.05 94.4
Q 94.05 94.95 94.4 95.3 94.8 95.65 95.3 95.65 95.8 95.65 96.15 95.3 96.5 94.9 96.5 94.4
L 96.5 83.25
Q 96.5 82.75 96.15 82.35 95.8 82 95.3 82 94.8 82 94.4 82.35 Z"/>
</g>

<g id="METSP16_IAB_320x480___CROPPED_psd_Asset_Group_1_copy_02_Frame_the_2016_Spring_collection_0_Layer0_0_MEMBER_21_FILL">
<path fill="#FFFFFF" stroke="none" d="
M 106.4 81.9
Q 103.5 81.9 101.55 83.9 99.6 85.9 99.6 88.8 99.6 91.75 101.55 93.7 103.5 95.7 106.4 95.7 109.35 95.7 111.3 93.7 113.25 91.75 113.25 88.8 113.25 85.9 111.3 83.9 109.35 81.9 106.4 81.9
M 106.4 84.1
Q 108.4 84.1 109.65 85.5 110.8 86.85 110.8 88.8 110.8 90.8 109.65 92.1 108.4 93.5 106.4 93.5 104.45 93.5 103.2 92.1 102.05 90.8 102.05 88.8 102.05 86.85 103.2 85.5 104.45 84.1 106.4 84.1 Z"/>
</g>

<g id="METSP16_IAB_320x480___CROPPED_psd_Asset_Group_1_copy_02_Frame_the_2016_Spring_collection_0_Layer0_0_MEMBER_22_FILL">
<path fill="#FFFFFF" stroke="none" d="
M 116.55 82.35
Q 116.25 82.7 116.25 83.15
L 116.25 94.5
Q 116.25 94.95 116.6 95.3 116.95 95.65 117.4 95.65 117.9 95.65 118.2 95.3 118.55 95 118.55 94.5
L 118.55 86.5 125.45 95.2
Q 125.85 95.65 126.35 95.65 126.85 95.65 127.15 95.3 127.5 94.95 127.5 94.5
L 127.5 83.15
Q 127.5 82.7 127.15 82.35 126.85 82 126.35 82 125.85 82 125.5 82.35 125.2 82.7 125.2 83.15
L 125.2 91.15 118.3 82.4
Q 117.9 82 117.45 82 116.9 82 116.55 82.35 Z"/>
</g>
</defs>

<g transform="matrix( 1, 0, 0, 1, -99,-31) ">
<g transform="matrix( 1, 0, 0, 1, 119,226) ">
<g transform="matrix( 1.4708709716796875, 0, 0, 1.4717864990234375, -2.2,0) ">
<use xlink:href="#METSP16_IAB_320x480___CROPPED_psd_Asset_Group_1_copy_02_Frame_In_stores_now_0_Layer0_0_MEMBER_0_FILL"/>
</g>

<g transform="matrix( 1.4708709716796875, 0, 0, 1.4717864990234375, -2.2,0) ">
<use xlink:href="#METSP16_IAB_320x480___CROPPED_psd_Asset_Group_1_copy_02_Frame_In_stores_now_0_Layer0_0_MEMBER_1_FILL"/>
</g>

<g transform="matrix( 1.4708709716796875, 0, 0, 1.4717864990234375, -2.2,0) ">
<use xlink:href="#METSP16_IAB_320x480___CROPPED_psd_Asset_Group_1_copy_02_Frame_In_stores_now_0_Layer0_0_MEMBER_2_FILL"/>
</g>

<g transform="matrix( 1.4708709716796875, 0, 0, 1.4717864990234375, -2.2,0) ">
<use xlink:href="#METSP16_IAB_320x480___CROPPED_psd_Asset_Group_1_copy_02_Frame_In_stores_now_0_Layer0_0_MEMBER_3_FILL"/>
</g>

<g transform="matrix( 1.4708709716796875, 0, 0, 1.4717864990234375, -2.2,0) ">
<use xlink:href="#METSP16_IAB_320x480___CROPPED_psd_Asset_Group_1_copy_02_Frame_In_stores_now_0_Layer0_0_MEMBER_4_FILL"/>
</g>

<g transform="matrix( 1.4708709716796875, 0, 0, 1.4717864990234375, -2.2,0) ">
<use xlink:href="#METSP16_IAB_320x480___CROPPED_psd_Asset_Group_1_copy_02_Frame_In_stores_now_0_Layer0_0_MEMBER_5_FILL"/>
</g>

<g transform="matrix( 1.4708709716796875, 0, 0, 1.4717864990234375, -2.2,0) ">
<use xlink:href="#METSP16_IAB_320x480___CROPPED_psd_Asset_Group_1_copy_02_Frame_In_stores_now_0_Layer0_0_MEMBER_6_FILL"/>
</g>

<g transform="matrix( 1.4708709716796875, 0, 0, 1.4717864990234375, -2.2,0) ">
<use xlink:href="#METSP16_IAB_320x480___CROPPED_psd_Asset_Group_1_copy_02_Frame_In_stores_now_0_Layer0_0_MEMBER_7_FILL"/>
</g>

<g transform="matrix( 1.4708709716796875, 0, 0, 1.4717864990234375, -2.2,0) ">
<use xlink:href="#METSP16_IAB_320x480___CROPPED_psd_Asset_Group_1_copy_02_Frame_In_stores_now_0_Layer0_0_MEMBER_8_FILL"/>
</g>

<g transform="matrix( 1.4708709716796875, 0, 0, 1.4717864990234375, -2.2,0) ">
<use xlink:href="#METSP16_IAB_320x480___CROPPED_psd_Asset_Group_1_copy_02_Frame_In_stores_now_0_Layer0_0_MEMBER_9_FILL"/>
</g>

<g transform="matrix( 1.4708709716796875, 0, 0, 1.4717864990234375, -2.2,0) ">
<use xlink:href="#METSP16_IAB_320x480___CROPPED_psd_Asset_Group_1_copy_02_Frame_In_stores_now_0_Layer0_0_MEMBER_10_FILL"/>
</g>
</g>

<g transform="matrix( 1, 0, 0, 1, 140,278) ">
<g transform="matrix( 1.4708709716796875, 0, 0, 1.4717864990234375, -23,0.1) ">
<use xlink:href="#METSP16_IAB_320x480___CROPPED_psd_Asset_Group_1_copy_02_Frame_ooh__gimme__0_Layer0_0_MEMBER_0_FILL"/>
</g>

<g transform="matrix( 1.4708709716796875, 0, 0, 1.4717864990234375, -23,0.1) ">
<use xlink:href="#METSP16_IAB_320x480___CROPPED_psd_Asset_Group_1_copy_02_Frame_ooh__gimme__0_Layer0_0_MEMBER_1_FILL"/>
</g>

<g transform="matrix( 1.4708709716796875, 0, 0, 1.4717864990234375, -23,0.1) ">
<use xlink:href="#METSP16_IAB_320x480___CROPPED_psd_Asset_Group_1_copy_02_Frame_ooh__gimme__0_Layer0_0_MEMBER_2_FILL"/>
</g>

<g transform="matrix( 1.4708709716796875, 0, 0, 1.4717864990234375, -23,0.1) ">
<use xlink:href="#METSP16_IAB_320x480___CROPPED_psd_Asset_Group_1_copy_02_Frame_ooh__gimme__0_Layer0_0_MEMBER_3_FILL"/>
</g>

<g transform="matrix( 1.4708709716796875, 0, 0, 1.4717864990234375, -23,0.1) ">
<use xlink:href="#METSP16_IAB_320x480___CROPPED_psd_Asset_Group_1_copy_02_Frame_ooh__gimme__0_Layer0_0_MEMBER_4_FILL"/>
</g>

<g transform="matrix( 1.4708709716796875, 0, 0, 1.4717864990234375, -23,0.1) ">
<use xlink:href="#METSP16_IAB_320x480___CROPPED_psd_Asset_Group_1_copy_02_Frame_ooh__gimme__0_Layer0_0_MEMBER_5_FILL"/>
</g>

<g transform="matrix( 1.4708709716796875, 0, 0, 1.4717864990234375, -23,0.1) ">
<use xlink:href="#METSP16_IAB_320x480___CROPPED_psd_Asset_Group_1_copy_02_Frame_ooh__gimme__0_Layer0_0_MEMBER_6_FILL"/>
</g>

<g transform="matrix( 1.4708709716796875, 0, 0, 1.4717864990234375, -23,0.1) ">
<use xlink:href="#METSP16_IAB_320x480___CROPPED_psd_Asset_Group_1_copy_02_Frame_ooh__gimme__0_Layer0_0_MEMBER_7_FILL"/>
</g>

<g transform="matrix( 1.4708709716796875, 0, 0, 1.4717864990234375, -23,0.1) ">
<use xlink:href="#METSP16_IAB_320x480___CROPPED_psd_Asset_Group_1_copy_02_Frame_ooh__gimme__0_Layer0_0_MEMBER_8_FILL"/>
</g>

<g transform="matrix( 1.4708709716796875, 0, 0, 1.4717864990234375, -23,0.1) ">
<use xlink:href="#METSP16_IAB_320x480___CROPPED_psd_Asset_Group_1_copy_02_Frame_ooh__gimme__0_Layer0_0_MEMBER_9_FILL"/>
</g>
</g>

<g transform="matrix( 1, 0, 0, 1, 117,65) ">
<g transform="matrix( 1.4708709716796875, 0, 0, 1.4717864990234375, -0.2,-0.05) ">
<use xlink:href="#METSP16_IAB_320x480___CROPPED_psd_Asset_Group_1_copy_02_Frame_the_2016_Spring_collection_0_Layer0_0_MEMBER_0_FILL"/>
</g>

<g transform="matrix( 1.4708709716796875, 0, 0, 1.4717864990234375, -0.2,-0.05) ">
<use xlink:href="#METSP16_IAB_320x480___CROPPED_psd_Asset_Group_1_copy_02_Frame_the_2016_Spring_collection_0_Layer0_0_MEMBER_1_FILL"/>
</g>

<g transform="matrix( 1.4708709716796875, 0, 0, 1.4717864990234375, -0.2,-0.05) ">
<use xlink:href="#METSP16_IAB_320x480___CROPPED_psd_Asset_Group_1_copy_02_Frame_the_2016_Spring_collection_0_Layer0_0_MEMBER_2_FILL"/>
</g>

<g transform="matrix( 1.4708709716796875, 0, 0, 1.4717864990234375, -0.2,-0.05) ">
<use xlink:href="#METSP16_IAB_320x480___CROPPED_psd_Asset_Group_1_copy_02_Frame_the_2016_Spring_collection_0_Layer0_0_MEMBER_3_FILL"/>
</g>

<g transform="matrix( 1.4708709716796875, 0, 0, 1.4717864990234375, -0.2,-0.05) ">
<use xlink:href="#METSP16_IAB_320x480___CROPPED_psd_Asset_Group_1_copy_02_Frame_the_2016_Spring_collection_0_Layer0_0_MEMBER_4_FILL"/>
</g>

<g transform="matrix( 1.4708709716796875, 0, 0, 1.4717864990234375, -0.2,-0.05) ">
<use xlink:href="#METSP16_IAB_320x480___CROPPED_psd_Asset_Group_1_copy_02_Frame_the_2016_Spring_collection_0_Layer0_0_MEMBER_5_FILL"/>
</g>

<g transform="matrix( 1.4708709716796875, 0, 0, 1.4717864990234375, -0.2,-0.05) ">
<use xlink:href="#METSP16_IAB_320x480___CROPPED_psd_Asset_Group_1_copy_02_Frame_the_2016_Spring_collection_0_Layer0_0_MEMBER_6_FILL"/>
</g>

<g transform="matrix( 1.4708709716796875, 0, 0, 1.4717864990234375, -0.2,-0.05) ">
<use xlink:href="#METSP16_IAB_320x480___CROPPED_psd_Asset_Group_1_copy_02_Frame_the_2016_Spring_collection_0_Layer0_0_MEMBER_7_FILL"/>
</g>

<g transform="matrix( 1.4708709716796875, 0, 0, 1.4717864990234375, -0.2,-0.05) ">
<use xlink:href="#METSP16_IAB_320x480___CROPPED_psd_Asset_Group_1_copy_02_Frame_the_2016_Spring_collection_0_Layer0_0_MEMBER_8_FILL"/>
</g>

<g transform="matrix( 1.4708709716796875, 0, 0, 1.4717864990234375, -0.2,-0.05) ">
<use xlink:href="#METSP16_IAB_320x480___CROPPED_psd_Asset_Group_1_copy_02_Frame_the_2016_Spring_collection_0_Layer0_0_MEMBER_9_FILL"/>
</g>

<g transform="matrix( 1.4708709716796875, 0, 0, 1.4717864990234375, -0.2,-0.05) ">
<use xlink:href="#METSP16_IAB_320x480___CROPPED_psd_Asset_Group_1_copy_02_Frame_the_2016_Spring_collection_0_Layer0_0_MEMBER_10_FILL"/>
</g>

<g transform="matrix( 1.4708709716796875, 0, 0, 1.4717864990234375, -0.2,-0.05) ">
<use xlink:href="#METSP16_IAB_320x480___CROPPED_psd_Asset_Group_1_copy_02_Frame_the_2016_Spring_collection_0_Layer0_0_MEMBER_11_FILL"/>
</g>

<g transform="matrix( 1.4708709716796875, 0, 0, 1.4717864990234375, -0.2,-0.05) ">
<use xlink:href="#METSP16_IAB_320x480___CROPPED_psd_Asset_Group_1_copy_02_Frame_the_2016_Spring_collection_0_Layer0_0_MEMBER_12_FILL"/>
</g>

<g transform="matrix( 1.4708709716796875, 0, 0, 1.4717864990234375, -0.2,-0.05) ">
<use xlink:href="#METSP16_IAB_320x480___CROPPED_psd_Asset_Group_1_copy_02_Frame_the_2016_Spring_collection_0_Layer0_0_MEMBER_13_FILL"/>
</g>

<g transform="matrix( 1.4708709716796875, 0, 0, 1.4717864990234375, -0.2,-0.05) ">
<use xlink:href="#METSP16_IAB_320x480___CROPPED_psd_Asset_Group_1_copy_02_Frame_the_2016_Spring_collection_0_Layer0_0_MEMBER_14_FILL"/>
</g>

<g transform="matrix( 1.4708709716796875, 0, 0, 1.4717864990234375, -0.2,-0.05) ">
<use xlink:href="#METSP16_IAB_320x480___CROPPED_psd_Asset_Group_1_copy_02_Frame_the_2016_Spring_collection_0_Layer0_0_MEMBER_15_FILL"/>
</g>

<g transform="matrix( 1.4708709716796875, 0, 0, 1.4717864990234375, -0.2,-0.05) ">
<use xlink:href="#METSP16_IAB_320x480___CROPPED_psd_Asset_Group_1_copy_02_Frame_the_2016_Spring_collection_0_Layer0_0_MEMBER_16_FILL"/>
</g>

<g transform="matrix( 1.4708709716796875, 0, 0, 1.4717864990234375, -0.2,-0.05) ">
<use xlink:href="#METSP16_IAB_320x480___CROPPED_psd_Asset_Group_1_copy_02_Frame_the_2016_Spring_collection_0_Layer0_0_MEMBER_17_FILL"/>
</g>

<g transform="matrix( 1.4708709716796875, 0, 0, 1.4717864990234375, -0.2,-0.05) ">
<use xlink:href="#METSP16_IAB_320x480___CROPPED_psd_Asset_Group_1_copy_02_Frame_the_2016_Spring_collection_0_Layer0_0_MEMBER_18_FILL"/>
</g>

<g transform="matrix( 1.4708709716796875, 0, 0, 1.4717864990234375, -0.2,-0.05) ">
<use xlink:href="#METSP16_IAB_320x480___CROPPED_psd_Asset_Group_1_copy_02_Frame_the_2016_Spring_collection_0_Layer0_0_MEMBER_19_FILL"/>
</g>

<g transform="matrix( 1.4708709716796875, 0, 0, 1.4717864990234375, -0.2,-0.05) ">
<use xlink:href="#METSP16_IAB_320x480___CROPPED_psd_Asset_Group_1_copy_02_Frame_the_2016_Spring_collection_0_Layer0_0_MEMBER_20_FILL"/>
</g>

<g transform="matrix( 1.4708709716796875, 0, 0, 1.4717864990234375, -0.2,-0.05) ">
<use xlink:href="#METSP16_IAB_320x480___CROPPED_psd_Asset_Group_1_copy_02_Frame_the_2016_Spring_collection_0_Layer0_0_MEMBER_21_FILL"/>
</g>

<g transform="matrix( 1.4708709716796875, 0, 0, 1.4717864990234375, -0.2,-0.05) ">
<use xlink:href="#METSP16_IAB_320x480___CROPPED_psd_Asset_Group_1_copy_02_Frame_the_2016_Spring_collection_0_Layer0_0_MEMBER_22_FILL"/>
</g>
</g>
</g>
</svg>
