
<svg xmlns="http://www.w3.org/2000/svg" version="1.1" xmlns:xlink="http://www.w3.org/1999/xlink" preserveAspectRatio="none" x="0px" y="0px" width="320px" height="480px" viewBox="0 0 320 480">
<defs>
<g id="Mask_flash0_ai_Assets_Layer_1__Clip_Group__0_2_MASK_0_FILL">
<path fill="#FFFFFF" stroke="none" d="
M 0 0
L 0 219.9 295.9 219.9 295.9 0 0 0 Z"/>
</g>

<g id="flash0_ai_Assets_Layer_1__Clip_Group__0_Layer2_0_FILL">
<path fill="#FFFFFF" stroke="none" d="
M 118 156.75
Q 116.65 155.45 114.85 154.95 113.35 154.55 110.9 154.55
L 103.45 154.75
Q 100.95 154.75 98.95 154.55 99.25 160.35 99.25 166.9 99.25 175.4 98.85 185.55 100.85 185.25 101.95 185.25 102.3 185.25 105 185.55
L 104.8 170.8 105.9 170.8
Q 111.1 178.15 113.45 181.8
L 115.8 185.55
Q 117.85 185.25 119.45 185.25 120.95 185.25 123.45 185.55 119.6 180.7 115.85 175.35
L 112.2 170.15
Q 115.6 169.55 117.65 167.6 120.05 165.35 120.05 161.8 120.05 158.75 118 156.75
M 104.8 157
Q 105.5 156.95 108 156.75 110.65 156.75 112.2 157.9 114.1 159.25 114.1 162.6 114.1 165.1 112.7 166.8 111.05 168.8 107.9 168.8
L 104.8 168.7 104.8 157
M 62.25 157.65
Q 62 157.05 62 156 62 155.45 62.25 154.55 54.15 154.8 53.95 154.8 51.25 154.8 45.75 154.55 46.15 160.55 46.15 169.65
L 45.75 185.55
Q 50.1 185.25 54.2 185.25 58.45 185.25 62.5 185.55 62.3 184.9 62.3 183.9 62.3 182.95 62.5 182.4 55.75 182.75 51.7 182.75
L 51.7 170.5 58 170.6
Q 59.15 170.6 61.45 170.8 61.25 170.2 61.25 169.25 61.25 168.65 61.45 167.65 58.65 167.95 51.7 167.95
L 51.7 157.35
Q 56.3 157.35 58 157.45
L 62.25 157.65
M 75.5 157.55
L 77.8 157.55 77.9 175.2
Q 77.9 177.8 77.45 185.55 79.95 185.25 80.55 185.25
L 83.85 185.55
Q 83.5 182.5 83.5 179.35
L 83.6 157.55
Q 89.5 157.55 92.6 157.9 92.4 156.9 92.4 156.25 92.4 155.55 92.6 154.55 87.15 154.8 80.55 154.8 72.95 154.8 68.5 154.55 68.7 155.65 68.7 156.2 68.7 156.8 68.5 157.9 71.7 157.55 75.5 157.55
M 32.55 154.65
Q 31.9 154.65 31.55 154.55 25.95 165.75 20.7 174.95
L 19.05 177.9 16.6 173.55
Q 11.75 164.9 8.05 157.4
L 6.65 154.55 5.65 154.65
Q 5 154.65 4.65 154.55 4.2 158.7 2.7 169.2 1.1 180.1 0.3 184.15
L 0 185.55
Q 1.2 185.25 1.9 185.25 2.8 185.25 4 185.55 4.35 177.85 5.9 165.45 6.55 166.65 10.4 173.65 13.8 180.2 16.65 185.55
L 17.5 185.45 18.4 185.55
Q 22.15 177.05 29.15 165 29.3 166.9 30.6 178.1
L 31.15 185.55
Q 33.25 185.25 34.25 185.25 35.3 185.25 37.5 185.55 37.05 183.55 35.65 174 34.5 164.95 33.85 158.3
L 33.5 154.55
Q 33.2 154.65 32.55 154.65
M 235.9 160.4
Q 236.05 164.45 236.05 166.85
L 235.75 185.55
Q 240.7 185.25 244.35 185.25 246.1 185.25 253 185.55 252.75 184.8 252.75 184 252.75 183.05 253 182.2 250.35 182.6 242.5 182.6
L 241.7 182.6
Q 241.55 175.1 241.55 174 241.55 164.75 242 154.55 240.15 154.8 238.85 154.8 237.15 154.8 235.75 154.55
L 235.9 160.4
M 187 206.1
L 187 203.75 182.85 203.75 182.85 199.15 179.9 200.1 179.9 203.75 176.35 203.75 176.35 206.1 179.9 206.1 179.9 215.3
Q 179.9 219.9 184.8 219.9 185.8 219.9 187.25 219.45
L 187.25 216.95
Q 186.35 217.55 185.25 217.55 184.25 217.55 183.55 216.8 182.85 216.05 182.85 214.7
L 182.85 206.1 187 206.1
M 204.65 217.45
Q 206.9 215.05 206.9 211.6 206.9 208 204.7 205.7 202.45 203.35 198.9 203.35 195.3 203.35 193.05 205.7 190.85 208 190.85 211.6 190.85 215.1 193.1 217.45 195.35 219.9 198.9 219.9 202.35 219.9 204.65 217.45
M 203.8 211.6
Q 203.8 214 202.65 215.65 201.3 217.55 198.9 217.55 196.5 217.55 195.15 215.65 193.95 214 193.95 211.6 193.95 209.2 195.25 207.55 196.65 205.7 198.9 205.7 201.1 205.7 202.5 207.55 203.8 209.2 203.8 211.6
M 227.65 216.8
L 227.6 216.8 223.65 203.75 220.2 203.75 216.15 216.8 216.1 216.8 212.5 203.75 209.3 203.75 214.4 219.5 217.75 219.5 221.75 206.25 221.8 206.25 225.9 219.5 229.25 219.5 234.35 203.75 231.5 203.75 227.65 216.8
M 246.1 205.7
Q 247.95 205.8 248.75 207.2 249.45 208.5 249.45 211.35
L 249.45 219.5 252.35 219.5 252.35 210.15
Q 252.35 203.35 246.45 203.35 244.75 203.35 243.35 204.15 241.95 204.9 241.3 206.25
L 241.25 206.25 241.25 203.75 238.4 203.75 238.4 219.5 241.3 219.5 241.3 212.2
Q 241.3 209.2 242.45 207.5 243.7 205.7 246.1 205.7
M 53.55 206.75
Q 54.4 207.7 54.4 209.85 53.25 209.75 51.3 209.75 48.55 209.75 46.5 210.85 43.95 212.3 43.95 214.95 43.95 217.45 45.6 218.7 47.1 219.9 49.75 219.9 52.95 219.9 54.65 217.45
L 54.7 217.45 54.7 219.5 57.4 219.5
Q 57.3 218.6 57.3 216.4
L 57.3 209.9
Q 57.3 206.6 55.8 205 54.25 203.35 50.95 203.35 48.3 203.35 45.75 204.85
L 45.9 207.3
Q 47.9 205.7 50.5 205.7 52.6 205.7 53.55 206.75
M 48 216.9
Q 47.05 216.15 47.05 214.95 47.05 211.95 52.55 211.95
L 54.4 212 54.4 213.4
Q 54.4 215.25 53.3 216.35 52.1 217.55 50 217.55 48.9 217.55 48 216.9
M 71.2 206.1
L 71.2 203.75 67.05 203.75 67.05 199.15 64.15 200.1 64.15 203.75 60.6 203.75 60.6 206.1 64.15 206.1 64.15 215.3
Q 64.15 219.9 69 219.9 70 219.9 71.45 219.45
L 71.45 216.95
Q 70.65 217.55 69.5 217.55 68.45 217.55 67.75 216.8 67.05 216.05 67.05 214.7
L 67.05 206.1 71.2 206.1
M 101.6 205.7
Q 104.4 205.7 104.4 210.1
L 104.4 219.5 107.3 219.5 107.3 209.4
Q 107.3 203.35 101.85 203.35 100.55 203.35 99.25 204.05 97.7 204.85 96.95 206.4 95.7 203.35 92.45 203.35 89.05 203.35 87.45 206
L 87.4 206 87.4 203.75 84.7 203.75 84.7 219.5 87.6 219.5 87.6 211.55
Q 87.6 209.1 88.55 207.5 89.65 205.7 91.75 205.7 94.55 205.7 94.55 210.1
L 94.55 219.5 97.45 219.5 97.45 211.55
Q 97.45 209.1 98.4 207.5 99.55 205.7 101.6 205.7
M 125.55 218.85
L 125.55 215.95
Q 124.95 216.5 123.6 217 122 217.55 120.7 217.55 118.6 217.55 117.05 216.1 115.5 214.55 115.5 212.25
L 126.75 212.25
Q 126.75 203.35 119.8 203.35 116.5 203.35 114.45 205.6 112.4 207.8 112.4 211.35 112.4 215.35 114.4 217.55 116.45 219.9 120.55 219.9 122.2 219.9 123.6 219.55 123.95 219.45 125.55 218.85
M 122.65 207
Q 123.65 208.2 123.65 210.1
L 115.5 210.1
Q 115.7 208.3 116.65 207.15 117.75 205.7 119.7 205.7 121.55 205.7 122.65 207
M 140.25 206.1
L 140.25 203.75 136.1 203.75 136.1 199.15 133.2 200.1 133.2 203.75 129.6 203.75 129.6 206.1 133.2 206.1 133.2 215.3
Q 133.2 219.9 138.05 219.9 139.05 219.9 140.5 219.45
L 140.5 216.95
Q 139.7 217.55 138.55 217.55 137.5 217.55 136.8 216.8 136.1 216.05 136.1 214.7
L 136.1 206.1 140.25 206.1
M 157.45 211.6
Q 157.45 215.1 159.65 217.45 161.95 219.9 165.45 219.9 168.95 219.9 171.25 217.45 173.5 215.1 173.5 211.6 173.5 208 171.3 205.7 169 203.35 165.45 203.35 161.9 203.35 159.65 205.7 157.45 208 157.45 211.6
M 161.7 215.65
Q 160.5 213.95 160.5 211.6 160.5 209.25 161.8 207.55 163.2 205.7 165.45 205.7 167.7 205.7 169.1 207.55 170.4 209.25 170.4 211.6 170.4 214 169.2 215.65 167.85 217.55 165.45 217.55 163.05 217.55 161.7 215.65
M 153 205.9
Q 153.95 205.9 154.6 206.2
L 154.6 203.6
Q 153.5 203.35 152.65 203.35 151.45 203.35 150.3 204.15 149.15 204.95 148.55 206.2
L 148.5 206.2 148.5 203.75 145.75 203.75 145.75 219.5 148.7 219.5 148.7 212.35
Q 148.7 209.35 149.9 207.65 151.05 205.9 153 205.9
M 154.85 84.2
L 127.3 125.7 198.05 125.7 154.85 84.2
M 160.8 169.65
Q 160.8 162 155.6 157.85 151 154.15 144.05 154.15 136.7 154.15 132.15 158.15 127.1 162.55 127.1 170.7 127.1 177.9 132 182.15 136.65 186.15 143.95 186.15 151.5 186.15 156.15 181.65 160.8 177.15 160.8 169.65
M 152.25 160.55
Q 154.6 164.1 154.6 170.15 154.6 175.7 152.15 179.45 149.25 183.85 143.95 183.85 138.5 183.85 135.7 179.55 133.25 175.85 133.25 170.15 133.25 164.8 135.7 161 138.6 156.5 143.95 156.5 149.5 156.5 152.25 160.55
M 118.8 0.05
L 152.5 51.2 173.25 0.05 118.8 0.05
M 143 67.55
L 99.05 16.3 99.05 129.8 116.5 129.8 143 67.55
M 277.75 167.9
Q 279.05 169.8 282.25 171.2
L 286.9 173.1
Q 290.6 174.65 290.6 178.3 290.6 180.75 289 182.35 287.3 183.95 284.65 183.95 282.4 183.95 280.95 183.05 279.1 181.85 277.65 178.75
L 277.05 178.75
Q 276.7 181.6 276 183.85 280.6 186.15 284.45 186.15 290.15 186.15 293.25 182.95 295.9 180.2 295.9 176.25 295.9 172.7 293.7 170.3 292.8 169.3 291.45 168.6 290.55 168.15 287.55 167 284 165.6 282.95 164.8 281.3 163.5 281.3 161.25 281.3 159.15 282.6 157.85 284.05 156.4 286.6 156.4 288.8 156.4 290.4 157.4 292.05 158.45 292.55 160.3
L 293.15 160.3
Q 293.6 158.35 294.55 156.05 292.4 155.1 291.2 154.75 289.25 154.15 287.05 154.15 281.5 154.15 278.75 157.2 276.55 159.6 276.55 163.2 276.55 166.1 277.75 167.9
M 266.9 170.25
Q 266.9 157.9 267.4 154.55 264.8 154.8 264.2 154.8
L 261 154.55
Q 261.45 158.9 261.45 164.95 261.45 180.15 260.95 185.55 261.95 185.5 264.2 185.25 265.25 185.25 267.35 185.55 266.9 180.8 266.9 170.25
M 199.1 158.15
Q 194.05 162.55 194.05 170.7 194.05 177.9 198.95 182.15 203.6 186.15 210.9 186.15 218.45 186.15 223.1 181.65 227.75 177.15 227.75 169.65 227.75 162 222.55 157.85 218 154.15 211.05 154.15 203.7 154.15 199.1 158.15
M 202.65 161
Q 205.55 156.5 210.9 156.5 216.45 156.5 219.2 160.55 221.55 164.1 221.55 170.15 221.55 175.7 219.1 179.45 216.2 183.85 210.9 183.85 205.45 183.85 202.65 179.55 200.25 175.85 200.25 170.15 200.25 164.8 202.65 161
M 185.95 168.85
Q 188.35 166.4 188.35 162.6 188.35 158.45 185.25 156.25 182.95 154.55 178.65 154.55
L 172.5 154.75
Q 170.05 154.75 167.95 154.55
L 168.2 160.25
Q 168.3 162.1 168.3 167.95
L 168.2 179
Q 168.2 180.1 167.9 185.55 169.35 185.25 171 185.25 172.6 185.25 174.15 185.55 173.85 182.55 173.85 178.45
L 173.85 171.65
Q 175.95 171.85 176.95 171.85 182.95 171.85 185.95 168.85
M 173.85 156.95
Q 175.95 156.75 177 156.75 179.7 156.75 181.15 158.5 182.5 160.1 182.5 162.9 182.5 165.35 181.25 167.2 179.6 169.65 176.25 169.65 175.45 169.65 173.85 169.45
L 173.85 156.95
M 195.85 20.15
L 166 68.25 195.85 119.35 195.85 20.15 Z"/>
</g>

<g id="METSP16_IAB_320x480___CROPPED_psd_Asset_1_Group_1_copy_01_Frame_BCIT_Take_a_study_break_and_catch_the_130_bus_to_Metropolis__0_Layer0_0_MEMBER_0_FILL">
<path fill="#FFFFFF" stroke="none" d="
M 17.85 3.25
Q 18.35 2.7 18.35 2 18.35 1.3 17.85 0.75 17.3 0.25 16.55 0.25
L 2.4 0.25
Q 1.65 0.25 1.1 0.75 0.6 1.3 0.6 2 0.6 2.7 1.15 3.25 1.65 3.75 2.4 3.75
L 7.65 3.75 7.65 18.9
Q 7.65 19.7 8.15 20.25 8.65 20.8 9.45 20.8 10.25 20.8 10.8 20.25 11.35 19.7 11.35 18.9
L 11.35 3.75 16.55 3.75
Q 17.3 3.75 17.85 3.25 Z"/>
</g>

<g id="METSP16_IAB_320x480___CROPPED_psd_Asset_1_Group_1_copy_01_Frame_BCIT_Take_a_study_break_and_catch_the_130_bus_to_Metropolis__0_Layer0_0_MEMBER_1_FILL">
<path fill="#FFFFFF" stroke="none" d="
M 27.6 8.45
Q 25.95 6.95 22.8 6.95 21 6.95 19.55 7.35 17.3 7.95 17.3 9.25 17.3 9.9 17.75 10.3 18.2 10.75 18.85 10.75 19.15 10.75 20.35 10.4 21.5 10.05 22.5 10.05 24.25 10.05 24.95 10.75 25.6 11.45 25.6 13
L 25.6 13.95
Q 24.2 12.55 21.9 12.55 19.7 12.55 18.4 13.6 16.95 14.75 16.95 16.75 16.95 18.6 18.25 19.75 19.55 20.95 21.7 20.95 24.4 20.95 25.65 18.9
L 25.65 19
Q 25.65 19.75 26.15 20.3 26.65 20.8 27.45 20.8 28.25 20.8 28.75 20.3 29.25 19.75 29.25 19
L 29.25 12.75
Q 29.25 9.9 27.6 8.45
M 23.05 15
Q 24.1 15 24.85 15.5 25.6 16.05 25.6 16.75 25.6 17.5 24.85 18 24.1 18.5 23.05 18.5 22 18.5 21.3 18 20.6 17.55 20.6 16.75 20.6 15.95 21.25 15.5 21.95 15 23.05 15 Z"/>
</g>

<g id="METSP16_IAB_320x480___CROPPED_psd_Asset_1_Group_1_copy_01_Frame_BCIT_Take_a_study_break_and_catch_the_130_bus_to_Metropolis__0_Layer0_0_MEMBER_2_FILL">
<path fill="#FFFFFF" stroke="none" d="
M 43.5 7.1
Q 42.85 7.1 42.45 7.45
L 36.9 11.75 36.9 1.85
Q 36.9 1.1 36.35 0.55 35.8 0 35.05 0 34.3 0 33.75 0.55 33.2 1.1 33.2 1.85
L 33.2 19
Q 33.2 19.75 33.75 20.3 34.3 20.8 35.05 20.8 35.8 20.8 36.35 20.3 36.9 19.75 36.9 19
L 36.9 15.9 38.45 14.65 42.45 20.1
Q 42.9 20.8 43.7 20.8 44.5 20.8 44.95 20.3 45.4 19.8 45.4 19.05 45.4 18.45 45.1 18.1
L 41.05 12.65 44.45 10
Q 45.25 9.3 45.25 8.8 45.25 8.1 44.75 7.6 44.3 7.1 43.5 7.1 Z"/>
</g>

<g id="METSP16_IAB_320x480___CROPPED_psd_Asset_1_Group_1_copy_01_Frame_BCIT_Take_a_study_break_and_catch_the_130_bus_to_Metropolis__0_Layer0_0_MEMBER_3_FILL">
<path fill="#FFFFFF" stroke="none" d="
M 59.1 8.95
Q 57.3 6.95 54.5 6.95 51.5 6.95 49.55 8.95 47.6 10.9 47.6 13.95 47.6 16.95 49.35 18.9 51.25 20.95 54.55 20.95 57.1 20.95 59 19.7 60.3 18.9 60.3 17.9 60.3 16.55 58.85 16.55 58.25 16.55 57.5 17.15 56.35 18.05 54.7 18.05 53.2 18.05 52.35 17.2 51.55 16.4 51.4 15.15
L 59.5 15.15
Q 60.15 15.15 60.55 14.75 60.85 14.4 60.85 13.95 60.85 10.9 59.1 8.95
M 54.5 9.9
Q 55.65 9.9 56.45 10.7 57.15 11.45 57.35 12.55
L 51.45 12.55
Q 51.6 11.35 52.4 10.65 53.25 9.9 54.5 9.9 Z"/>
</g>

<g id="METSP16_IAB_320x480___CROPPED_psd_Asset_1_Group_1_copy_01_Frame_BCIT_Take_a_study_break_and_catch_the_130_bus_to_Metropolis__0_Layer0_0_MEMBER_4_FILL">
<path fill="#FFFFFF" stroke="none" d="
M 81.4 18.9
L 81.4 19
Q 81.4 19.75 81.95 20.3 82.45 20.8 83.2 20.8 84 20.8 84.5 20.3 85 19.75 85 19
L 85 12.75
Q 85 6.95 78.6 6.95 76.75 6.95 75.3 7.35 73.05 7.95 73.05 9.25 73.05 9.9 73.5 10.3 73.95 10.75 74.6 10.75 74.9 10.75 76.1 10.4 77.25 10.05 78.25 10.05 80 10.05 80.7 10.75 81.35 11.4 81.35 13
L 81.35 13.95
Q 80.05 12.55 77.65 12.55 75.45 12.55 74.15 13.6 72.75 14.7 72.75 16.75 72.75 18.6 74 19.75 75.35 20.95 77.5 20.95 80.15 20.95 81.4 18.9
M 78.8 15
Q 79.9 15 80.6 15.5 81.35 16.05 81.35 16.75 81.35 17.5 80.6 18 79.9 18.5 78.8 18.5 77.75 18.5 77.05 18 76.35 17.55 76.35 16.75 76.35 15.95 77 15.5 77.7 15 78.8 15 Z"/>
</g>

<g id="METSP16_IAB_320x480___CROPPED_psd_Asset_1_Group_1_copy_01_Frame_BCIT_Take_a_study_break_and_catch_the_130_bus_to_Metropolis__0_Layer0_0_MEMBER_5_FILL">
<path fill="#FFFFFF" stroke="none" d="
M 7.15 39.9
Q 8.25 39.9 9.45 40.4 10.65 40.95 11.05 40.95 12.45 40.95 12.45 39.6 12.45 38.55 10.6 37.65 8.95 36.95 7.25 36.95 4.65 36.95 3.2 38.1 1.8 39.2 1.8 40.95 1.8 42.6 2.85 43.7 4.05 44.9 6.8 45.65 8.25 46 8.75 46.3 9.3 46.6 9.3 47.15 9.3 48.25 7.4 48.25 5.9 48.25 4.45 47.35 3.7 46.8 3 46.8 2.45 46.8 2.1 47.15 1.7 47.5 1.7 48 1.7 49 2.45 49.55 4.45 50.95 7.3 50.95 9.85 50.95 11.35 49.8 12.8 48.7 12.8 46.85 12.8 45 11.4 43.95 10.35 43.15 7.8 42.45 6.3 42.05 5.8 41.75 5.3 41.45 5.3 40.9 5.3 39.9 7.15 39.9 Z"/>
</g>

<g id="METSP16_IAB_320x480___CROPPED_psd_Asset_1_Group_1_copy_01_Frame_BCIT_Take_a_study_break_and_catch_the_130_bus_to_Metropolis__0_Layer0_0_MEMBER_6_FILL">
<path fill="#FFFFFF" stroke="none" d="
M 19.6 31.7
Q 18.85 31.7 18.3 32.25 17.75 32.8 17.75 33.55
L 17.75 37.35 15.7 37.35
Q 15.05 37.35 14.65 37.8 14.2 38.2 14.2 38.85 14.2 39.5 14.65 39.95 15.05 40.4 15.7 40.4
L 17.75 40.4 17.75 49
Q 17.75 49.75 18.3 50.3 18.85 50.8 19.6 50.8 20.35 50.8 20.9 50.3 21.4 49.75 21.4 49
L 21.4 40.4 23.8 40.4
Q 24.45 40.4 24.85 39.95 25.3 39.5 25.3 38.85 25.3 38.2 24.85 37.8 24.45 37.35 23.8 37.35
L 21.4 37.35 21.4 33.55
Q 21.4 32.8 20.9 32.25 20.35 31.7 19.6 31.7 Z"/>
</g>

<g id="METSP16_IAB_320x480___CROPPED_psd_Asset_1_Group_1_copy_01_Frame_BCIT_Take_a_study_break_and_catch_the_130_bus_to_Metropolis__0_Layer0_0_MEMBER_7_FILL">
<path fill="#FFFFFF" stroke="none" d="
M 27.4 44.65
Q 27.4 47.45 28.8 49.15 30.25 50.95 32.75 50.95 35.45 50.95 36.7 48.7
L 36.7 48.95
Q 36.7 49.8 37.25 50.3 37.75 50.8 38.55 50.8 39.3 50.8 39.85 50.3 40.35 49.8 40.35 48.95
L 40.35 38.9
Q 40.35 38.15 39.85 37.65 39.3 37.1 38.55 37.1 37.75 37.1 37.25 37.65 36.7 38.15 36.7 38.9
L 36.7 44.45
Q 36.7 45.8 36.05 46.65 35.3 47.65 33.85 47.65 32.5 47.65 31.75 46.75 31.05 45.85 31.05 44.45
L 31.05 38.9
Q 31.05 38.15 30.55 37.65 30 37.1 29.25 37.1 28.45 37.1 27.95 37.65 27.4 38.15 27.4 38.9
L 27.4 44.65 Z"/>
</g>

<g id="METSP16_IAB_320x480___CROPPED_psd_Asset_1_Group_1_copy_01_Frame_BCIT_Take_a_study_break_and_catch_the_130_bus_to_Metropolis__0_Layer0_0_MEMBER_8_FILL">
<path fill="#FFFFFF" stroke="none" d="
M 54.5 30.55
Q 53.95 31.1 53.95 31.85
L 53.95 39.15
Q 52.65 36.95 49.9 36.95 47.05 36.95 45.3 39.1 43.7 41.1 43.7 43.95 43.7 46.85 45.3 48.8 47 50.95 49.9 50.95 52.65 50.95 54.1 48.75
L 54.1 48.95
Q 54.1 49.7 54.6 50.25 55.1 50.8 55.85 50.8 56.65 50.8 57.15 50.3 57.65 49.75 57.65 49
L 57.65 31.85
Q 57.65 31.1 57.1 30.55 56.55 30 55.8 30 55.05 30 54.5 30.55
M 48.25 46.7
Q 47.4 45.6 47.4 43.95 47.4 42.3 48.25 41.2 49.15 40.1 50.7 40.1 52.2 40.1 53.1 41.25 53.95 42.35 53.95 43.95 53.95 45.55 53.1 46.65 52.2 47.8 50.7 47.8 49.15 47.8 48.25 46.7 Z"/>
</g>

<g id="METSP16_IAB_320x480___CROPPED_psd_Asset_1_Group_1_copy_01_Frame_BCIT_Take_a_study_break_and_catch_the_130_bus_to_Metropolis__0_Layer0_0_MEMBER_9_FILL">
<path fill="#FFFFFF" stroke="none" d="
M 67.25 46.85
L 63.85 38.05
Q 63.45 37.1 62.35 37.1 61.6 37.1 61.15 37.6 60.7 38.05 60.7 38.75 60.7 39.1 60.85 39.45
L 65.2 50.2
Q 64.4 52 62.5 53.5 61.6 54.2 61.6 55 61.6 55.6 62.1 56.05 62.6 56.5 63.25 56.5 63.7 56.5 64.05 56.3 67.5 54.25 69.75 48.7 71.7 43.9 73.15 39.45 73.3 39 73.3 38.75 73.3 38.05 72.85 37.6 72.4 37.1 71.65 37.1 70.4 37.1 70.15 38.05
L 67.25 46.85 Z"/>
</g>

<g id="METSP16_IAB_320x480___CROPPED_psd_Asset_1_Group_1_copy_01_Frame_BCIT_Take_a_study_break_and_catch_the_130_bus_to_Metropolis__0_Layer0_0_MEMBER_10_FILL">
<path fill="#FFFFFF" stroke="none" d="
M 85.6 30.55
Q 85.05 31.1 85.05 31.85
L 85.05 49
Q 85.05 49.75 85.55 50.3 86.05 50.8 86.8 50.8 87.6 50.8 88.1 50.25 88.6 49.75 88.6 48.95
L 88.6 48.75
Q 90.05 50.95 92.75 50.95 95.65 50.95 97.4 48.8 98.95 46.85 98.95 43.95 98.95 41.05 97.35 39.1 95.65 36.95 92.75 36.95 90.1 36.95 88.7 39.15
L 88.7 31.85
Q 88.7 31.1 88.2 30.55 87.65 30 86.9 30 86.15 30 85.6 30.55
M 88.7 43.95
Q 88.7 42.35 89.55 41.25 90.5 40.1 92 40.1 93.55 40.1 94.45 41.2 95.3 42.3 95.3 43.95 95.3 45.6 94.45 46.7 93.55 47.8 92 47.8 90.45 47.8 89.55 46.65 88.7 45.55 88.7 43.95 Z"/>
</g>

<g id="METSP16_IAB_320x480___CROPPED_psd_Asset_1_Group_1_copy_01_Frame_BCIT_Take_a_study_break_and_catch_the_130_bus_to_Metropolis__0_Layer0_0_MEMBER_11_FILL">
<path fill="#FFFFFF" stroke="none" d="
M 110.8 39.8
Q 111.25 39.3 111.25 38.6 111.25 37.9 110.8 37.45 110.35 36.95 109.6 36.95 107 36.95 106 39.3
L 106 38.95
Q 106 38.2 105.5 37.65 104.95 37.1 104.2 37.1 103.35 37.1 102.85 37.6 102.3 38.15 102.3 38.95
L 102.3 49
Q 102.3 49.75 102.85 50.3 103.4 50.8 104.2 50.8 104.95 50.8 105.5 50.3 106 49.75 106 49
L 106 44.2
Q 106 42.35 107 41.3 107.95 40.25 109.6 40.25 110.3 40.25 110.8 39.8 Z"/>
</g>

<g id="METSP16_IAB_320x480___CROPPED_psd_Asset_1_Group_1_copy_01_Frame_BCIT_Take_a_study_break_and_catch_the_130_bus_to_Metropolis__0_Layer0_0_MEMBER_12_FILL">
<path fill="#FFFFFF" stroke="none" d="
M 124.4 45.15
Q 125.7 45.15 125.7 43.95 125.7 40.9 123.95 38.95 122.15 36.95 119.35 36.95 116.35 36.95 114.4 38.95 112.45 40.9 112.45 43.95 112.45 46.95 114.2 48.9 116.1 50.95 119.4 50.95 121.95 50.95 123.85 49.7 125.15 48.9 125.15 47.9 125.15 46.55 123.7 46.55 123.1 46.55 122.35 47.15 121.2 48.05 119.55 48.05 116.6 48.05 116.25 45.15
L 124.4 45.15
M 119.35 39.9
Q 120.5 39.9 121.3 40.7 122 41.45 122.2 42.55
L 116.3 42.55
Q 116.45 41.35 117.25 40.65 118.1 39.9 119.35 39.9 Z"/>
</g>

<g id="METSP16_IAB_320x480___CROPPED_psd_Asset_1_Group_1_copy_01_Frame_BCIT_Take_a_study_break_and_catch_the_130_bus_to_Metropolis__0_Layer0_0_MEMBER_13_FILL">
<path fill="#FFFFFF" stroke="none" d="
M 130.1 43.65
Q 128.65 44.75 128.65 46.75 128.65 48.6 129.95 49.75 131.25 50.95 133.4 50.95 136.1 50.95 137.35 48.9
L 137.35 49
Q 137.35 49.75 137.85 50.3 138.35 50.8 139.15 50.8 139.95 50.8 140.45 50.3 140.95 49.75 140.95 49
L 140.95 42.75
Q 140.95 39.95 139.3 38.45 137.6 36.95 134.5 36.95 132.7 36.95 131.2 37.35 129 37.95 129 39.25 129 39.9 129.45 40.3 129.9 40.75 130.55 40.75 130.85 40.75 132 40.45 133.2 40.1 134.15 40.1 135.9 40.1 136.65 40.8 137.3 41.45 137.3 43
L 137.3 44
Q 136 42.6 133.6 42.6 131.4 42.6 130.1 43.65
M 134.7 45
Q 135.8 45 136.55 45.5 137.3 46.05 137.3 46.75 137.3 47.5 136.55 48 135.8 48.5 134.7 48.5 133.65 48.5 133 48 132.3 47.55 132.3 46.75 132.3 45.95 132.95 45.5 133.6 45 134.7 45 Z"/>
</g>

<g id="METSP16_IAB_320x480___CROPPED_psd_Asset_1_Group_1_copy_01_Frame_BCIT_Take_a_study_break_and_catch_the_130_bus_to_Metropolis__0_Layer0_0_MEMBER_14_FILL">
<path fill="#FFFFFF" stroke="none" d="
M 145.45 30.55
Q 144.9 31.1 144.9 31.85
L 144.9 49
Q 144.9 49.75 145.45 50.3 146 50.8 146.75 50.8 147.5 50.8 148.05 50.3 148.55 49.75 148.55 49
L 148.55 45.9 150.1 44.7 154.15 50.1
Q 154.6 50.8 155.4 50.8 156.15 50.8 156.65 50.3 157.1 49.8 157.1 49.05 157.1 48.55 156.8 48.15
L 152.75 42.65 156.15 40
Q 156.95 39.4 156.95 38.8 156.95 38.1 156.45 37.6 156 37.1 155.2 37.1 154.55 37.1 154.15 37.45
L 148.55 41.75 148.55 31.85
Q 148.55 31.1 148.05 30.55 147.5 30 146.75 30 146 30 145.45 30.55 Z"/>
</g>

<g id="METSP16_IAB_320x480___CROPPED_psd_Asset_1_Group_1_copy_01_Frame_BCIT_Take_a_study_break_and_catch_the_130_bus_to_Metropolis__0_Layer0_0_MEMBER_15_FILL">
<path fill="#FFFFFF" stroke="none" d="
M 6.6 72.6
Q 4.4 72.6 3.1 73.65 1.7 74.75 1.7 76.75 1.7 78.6 2.95 79.75 4.3 80.95 6.45 80.95 9.1 80.95 10.35 78.95
L 10.35 79
Q 10.35 79.75 10.9 80.3 11.4 80.8 12.15 80.8 12.95 80.8 13.45 80.3 13.95 79.75 13.95 79
L 13.95 72.75
Q 13.95 69.95 12.3 68.45 10.65 66.95 7.55 66.95 5.75 66.95 4.25 67.35 2 68 2 69.25 2 69.9 2.45 70.3 2.9 70.75 3.55 70.75 3.85 70.75 5.05 70.45 6.2 70.1 7.2 70.1 8.95 70.1 9.65 70.8 10.3 71.4 10.3 73
L 10.3 74
Q 9.05 72.6 6.6 72.6
M 7.75 75
Q 8.85 75 9.55 75.5 10.3 76.05 10.3 76.75 10.3 77.5 9.55 78 8.85 78.5 7.75 78.5 6.7 78.5 6 78.05 5.3 77.55 5.3 76.75 5.3 75.95 5.95 75.5 6.65 75 7.75 75 Z"/>
</g>

<g id="METSP16_IAB_320x480___CROPPED_psd_Asset_1_Group_1_copy_01_Frame_BCIT_Take_a_study_break_and_catch_the_130_bus_to_Metropolis__0_Layer0_0_MEMBER_16_FILL">
<path fill="#FFFFFF" stroke="none" d="
M 25.55 66.95
Q 22.85 66.95 21.6 69.2
L 21.6 68.95
Q 21.6 68.1 21.05 67.6 20.55 67.1 19.75 67.1 19 67.1 18.5 67.6 17.95 68.1 17.95 68.95
L 17.95 79
Q 17.95 79.75 18.5 80.3 19 80.8 19.75 80.8 20.5 80.8 21.05 80.3 21.6 79.75 21.6 79
L 21.6 73.45
Q 21.6 72.1 22.25 71.25 23 70.25 24.45 70.25 25.8 70.25 26.55 71.2 27.25 72.05 27.25 73.45
L 27.25 79
Q 27.25 79.75 27.8 80.3 28.3 80.8 29.05 80.8 29.85 80.8 30.35 80.3 30.9 79.75 30.9 79
L 30.9 73.25
Q 30.9 70.45 29.5 68.75 28.05 66.95 25.55 66.95 Z"/>
</g>

<g id="METSP16_IAB_320x480___CROPPED_psd_Asset_1_Group_1_copy_01_Frame_BCIT_Take_a_study_break_and_catch_the_130_bus_to_Metropolis__0_Layer0_0_MEMBER_17_FILL">
<path fill="#FFFFFF" stroke="none" d="
M 35.7 78.8
Q 37.4 80.95 40.3 80.95 43 80.95 44.5 78.8
L 44.5 78.95
Q 44.5 79.7 45 80.25 45.5 80.8 46.25 80.8 47.05 80.8 47.5 80.3 48 79.75 48 79
L 48 61.85
Q 48 61.1 47.5 60.55 46.95 60 46.2 60 45.45 60 44.9 60.55 44.35 61.1 44.35 61.85
L 44.35 69.15
Q 43.05 66.95 40.3 66.95 37.4 66.95 35.7 69.1 34.1 71.05 34.1 73.95 34.1 76.85 35.7 78.8
M 38.65 76.7
Q 37.75 75.6 37.75 73.95 37.75 72.3 38.65 71.2 39.55 70.1 41.1 70.1 42.6 70.1 43.5 71.25 44.35 72.35 44.35 73.95 44.35 75.6 43.5 76.65 42.6 77.85 41.1 77.85 39.55 77.85 38.65 76.7 Z"/>
</g>

<g id="METSP16_IAB_320x480___CROPPED_psd_Asset_1_Group_1_copy_01_Frame_BCIT_Take_a_study_break_and_catch_the_130_bus_to_Metropolis__0_Layer0_0_MEMBER_18_FILL">
<path fill="#FFFFFF" stroke="none" d="
M 67.4 66.95
Q 64.15 66.95 62.15 69 60.2 70.95 60.2 73.95 60.2 76.95 62.15 78.9 64.15 80.95 67.4 80.95 70.5 80.95 72.1 79.15 72.65 78.6 72.65 77.9 72.65 77.25 72.25 76.9 71.85 76.5 71.2 76.5 70.55 76.5 70.05 76.85 68.75 77.85 67.45 77.85 65.75 77.85 64.8 76.65 63.9 75.6 63.9 73.95 63.9 72.3 64.8 71.25 65.75 70.1 67.45 70.1 68.85 70.1 70.05 71.05 70.6 71.45 71.2 71.45 71.85 71.45 72.25 71.05 72.65 70.65 72.65 70 72.65 69.4 72.1 68.75 70.5 66.95 67.4 66.95 Z"/>
</g>

<g id="METSP16_IAB_320x480___CROPPED_psd_Asset_1_Group_1_copy_01_Frame_BCIT_Take_a_study_break_and_catch_the_130_bus_to_Metropolis__0_Layer0_0_MEMBER_19_FILL">
<path fill="#FFFFFF" stroke="none" d="
M 87.75 72.75
Q 87.75 69.95 86.1 68.45 84.4 66.95 81.3 66.95 79.5 66.95 78 67.35 75.8 68 75.8 69.25 75.8 69.9 76.25 70.3 76.7 70.75 77.35 70.75 77.65 70.75 78.8 70.45 80 70.1 80.95 70.1 82.7 70.1 83.45 70.8 84.1 71.45 84.1 73
L 84.1 74
Q 82.8 72.6 80.4 72.6 78.2 72.6 76.9 73.65 75.45 74.75 75.45 76.75 75.45 78.6 76.7 79.75 78.05 80.95 80.2 80.95 82.9 80.95 84.15 78.95
L 84.15 79
Q 84.15 79.75 84.65 80.3 85.15 80.8 85.95 80.8 86.75 80.8 87.25 80.3 87.75 79.75 87.75 79
L 87.75 72.75
M 83.35 75.5
Q 84.1 76.05 84.1 76.75 84.1 77.5 83.35 78 82.6 78.5 81.5 78.5 80.45 78.5 79.75 78.05 79.05 77.55 79.05 76.75 79.05 75.95 79.7 75.5 80.4 75 81.5 75 82.6 75 83.35 75.5 Z"/>
</g>

<g id="METSP16_IAB_320x480___CROPPED_psd_Asset_1_Group_1_copy_01_Frame_BCIT_Take_a_study_break_and_catch_the_130_bus_to_Metropolis__0_Layer0_0_MEMBER_20_FILL">
<path fill="#FFFFFF" stroke="none" d="
M 89.8 68.85
Q 89.8 69.5 90.2 69.95 90.65 70.4 91.3 70.4
L 93.3 70.4 93.3 79
Q 93.3 79.75 93.85 80.3 94.4 80.8 95.15 80.8 95.9 80.8 96.45 80.3 97 79.75 97 79
L 97 70.4 99.35 70.4
Q 100 70.4 100.45 69.95 100.9 69.5 100.9 68.85 100.9 68.2 100.45 67.8 100 67.35 99.35 67.35
L 97 67.35 97 63.55
Q 97 62.8 96.45 62.3 95.9 61.75 95.15 61.75 94.4 61.75 93.85 62.3 93.3 62.8 93.3 63.55
L 93.3 67.35 91.3 67.35
Q 90.65 67.35 90.2 67.8 89.8 68.2 89.8 68.85 Z"/>
</g>

<g id="METSP16_IAB_320x480___CROPPED_psd_Asset_1_Group_1_copy_01_Frame_BCIT_Take_a_study_break_and_catch_the_130_bus_to_Metropolis__0_Layer0_0_MEMBER_21_FILL">
<path fill="#FFFFFF" stroke="none" d="
M 103.85 69
Q 101.9 70.95 101.9 73.95 101.9 76.95 103.85 78.9 105.85 80.95 109.1 80.95 112.1 80.95 113.8 79.15 114.3 78.55 114.3 77.9 114.3 76.5 112.85 76.5 112.25 76.5 111.75 76.85 110.3 77.85 109.1 77.85 107.4 77.85 106.45 76.65 105.55 75.6 105.55 73.95 105.55 72.3 106.45 71.25 107.4 70.1 109.1 70.1 110.4 70.1 111.75 71.05 112.3 71.45 112.85 71.45 113.5 71.45 113.9 71.05 114.3 70.65 114.3 70 114.3 69.4 113.8 68.75 112.1 66.95 109.1 66.95 105.85 66.95 103.85 69 Z"/>
</g>

<g id="METSP16_IAB_320x480___CROPPED_psd_Asset_1_Group_1_copy_01_Frame_BCIT_Take_a_study_break_and_catch_the_130_bus_to_Metropolis__0_Layer0_0_MEMBER_22_FILL">
<path fill="#FFFFFF" stroke="none" d="
M 121.25 69.2
L 121.25 61.85
Q 121.25 61.1 120.7 60.55 120.15 60 119.4 60 118.65 60 118.1 60.55 117.55 61.1 117.55 61.85
L 117.55 79
Q 117.55 79.75 118.1 80.3 118.65 80.8 119.4 80.8 120.15 80.8 120.7 80.3 121.25 79.75 121.25 79
L 121.25 73.45
Q 121.25 72.1 121.9 71.25 122.65 70.25 124.1 70.25 125.45 70.25 126.2 71.2 126.9 72.05 126.9 73.45
L 126.9 79
Q 126.9 79.75 127.45 80.3 127.95 80.8 128.7 80.8 129.45 80.8 130 80.3 130.55 79.75 130.55 79
L 130.55 73.25
Q 130.55 70.45 129.15 68.75 127.7 66.95 125.15 66.95 122.4 66.95 121.25 69.2 Z"/>
</g>

<g id="METSP16_IAB_320x480___CROPPED_psd_Asset_1_Group_1_copy_01_Frame_BCIT_Take_a_study_break_and_catch_the_130_bus_to_Metropolis__0_Layer0_0_MEMBER_23_FILL">
<path fill="#FFFFFF" stroke="none" d="
M 6.95 92.3
Q 6.45 91.75 5.65 91.75 4.9 91.75 4.4 92.3 3.85 92.8 3.85 93.55
L 3.85 97.35 1.8 97.35
Q 1.15 97.35 0.75 97.8 0.3 98.2 0.3 98.85 0.3 99.5 0.75 99.95 1.15 100.4 1.8 100.4
L 3.85 100.4 3.85 109
Q 3.85 109.75 4.4 110.3 4.9 110.85 5.65 110.85 6.45 110.85 6.95 110.3 7.5 109.75 7.5 109
L 7.5 100.4 9.9 100.4
Q 10.55 100.4 10.95 99.95 11.4 99.5 11.4 98.85 11.4 98.2 10.95 97.8 10.55 97.35 9.9 97.35
L 7.5 97.35 7.5 93.55
Q 7.5 92.8 6.95 92.3 Z"/>
</g>

<g id="METSP16_IAB_320x480___CROPPED_psd_Asset_1_Group_1_copy_01_Frame_BCIT_Take_a_study_break_and_catch_the_130_bus_to_Metropolis__0_Layer0_0_MEMBER_24_FILL">
<path fill="#FFFFFF" stroke="none" d="
M 25.25 98.75
Q 23.8 97 21.3 97 18.55 97 17.35 99.2
L 17.35 91.85
Q 17.35 91.1 16.85 90.55 16.3 90 15.55 90 14.75 90 14.25 90.55 13.7 91.1 13.7 91.85
L 13.7 109
Q 13.7 109.75 14.25 110.3 14.75 110.85 15.55 110.85 16.3 110.85 16.85 110.3 17.35 109.75 17.35 109
L 17.35 103.45
Q 17.35 102.15 18.05 101.25 18.8 100.25 20.2 100.25 21.55 100.25 22.3 101.2 23 102.05 23 103.45
L 23 109
Q 23 109.75 23.55 110.3 24.05 110.85 24.85 110.85 25.6 110.85 26.15 110.3 26.65 109.75 26.65 109
L 26.65 103.25
Q 26.65 100.45 25.25 98.75 Z"/>
</g>

<g id="METSP16_IAB_320x480___CROPPED_psd_Asset_1_Group_1_copy_01_Frame_BCIT_Take_a_study_break_and_catch_the_130_bus_to_Metropolis__0_Layer0_0_MEMBER_25_FILL">
<path fill="#FFFFFF" stroke="none" d="
M 41.8 105.15
Q 43.1 105.15 43.1 103.95 43.1 100.9 41.35 99 39.6 97 36.75 97 33.75 97 31.8 99 29.85 100.95 29.85 103.95 29.85 106.95 31.6 108.9 33.5 110.95 36.8 110.95 39.25 110.95 41.25 109.75 42.6 108.9 42.6 107.9 42.6 107.3 42.2 106.95 41.8 106.55 41.1 106.55 40.6 106.55 39.8 107.15 38.65 108.05 36.95 108.05 35.45 108.05 34.6 107.2 33.8 106.45 33.7 105.15
L 41.8 105.15
M 36.75 99.9
Q 37.9 99.9 38.7 100.7 39.4 101.4 39.65 102.55
L 33.75 102.55
Q 33.85 101.4 34.7 100.65 35.5 99.9 36.75 99.9 Z"/>
</g>

<g id="METSP16_IAB_320x480___CROPPED_psd_Asset_1_Group_1_copy_01_Frame_BCIT_Take_a_study_break_and_catch_the_130_bus_to_Metropolis__0_Layer0_0_MEMBER_26_FILL">
<path fill="#FFFFFF" stroke="none" d="
M 55.5 95.05
L 59.05 94 59.05 109
Q 59.05 109.75 59.6 110.3 60.15 110.85 60.9 110.85 61.65 110.85 62.2 110.3 62.7 109.75 62.7 109
L 62.7 91.9
Q 62.7 91.05 62.2 90.5 61.7 90 60.9 90 60.75 90 60.3 90.15
L 54.95 91.75
Q 53.8 92.15 53.8 93.3 53.8 94.05 54.35 94.55 54.85 95.05 55.5 95.05 Z"/>
</g>

<g id="METSP16_IAB_320x480___CROPPED_psd_Asset_1_Group_1_copy_01_Frame_BCIT_Take_a_study_break_and_catch_the_130_bus_to_Metropolis__0_Layer0_0_MEMBER_27_FILL">
<path fill="#FFFFFF" stroke="none" d="
M 68.75 93.85
Q 69.15 94.25 69.85 94.25 70.35 94.25 71.55 93.7 72.95 93 74.75 93 78 93 78 95.4 78 98.25 74.05 98.25
L 72.75 98.25
Q 72.05 98.25 71.6 98.7 71.15 99.15 71.15 99.85 71.15 100.5 71.6 100.95 72.05 101.45 72.75 101.45
L 74.45 101.45
Q 79.4 101.45 79.4 104.5 79.4 106.1 78.15 107 76.95 107.85 74.9 107.85 73 107.85 71.55 107.2 70.55 106.75 69.1 105.65 68.65 105.35 68.2 105.35 67.5 105.35 67.05 105.75 66.55 106.2 66.55 107 66.55 107.75 67.2 108.3 70.05 110.95 74.9 110.95 78.5 110.95 80.7 109.3 83.05 107.6 83.05 104.65 83.05 100.75 78.9 99.45 81.65 98.1 81.65 95.15 81.65 92.65 79.9 91.25 78.15 89.9 75.1 89.9 72.9 89.9 71 90.5 69.8 91 69.3 91.3 68.35 91.95 68.35 92.85 68.35 93.45 68.75 93.85 Z"/>
</g>

<g id="METSP16_IAB_320x480___CROPPED_psd_Asset_1_Group_1_copy_01_Frame_BCIT_Take_a_study_break_and_catch_the_130_bus_to_Metropolis__0_Layer0_0_MEMBER_28_FILL">
<path fill="#FFFFFF" stroke="none" d="
M 94.85 89.9
Q 90.75 89.9 88.25 93.1 85.95 96.05 85.95 100.45 85.95 104.85 88.25 107.8 90.75 110.95 94.85 110.95 99 110.95 101.5 107.8 103.8 104.85 103.8 100.45 103.8 96.05 101.5 93.1 99 89.9 94.85 89.9
M 94.85 93.2
Q 97.15 93.2 98.6 95.2 100.1 97.2 100.1 100.45 100.1 103.65 98.6 105.7 97.15 107.65 94.85 107.65 92.6 107.65 91.15 105.7 89.65 103.65 89.65 100.45 89.65 97.2 91.15 95.2 92.6 93.2 94.85 93.2 Z"/>
</g>

<g id="METSP16_IAB_320x480___CROPPED_psd_Asset_1_Group_1_copy_01_Frame_BCIT_Take_a_study_break_and_catch_the_130_bus_to_Metropolis__0_Layer0_0_MEMBER_29_FILL">
<path fill="#FFFFFF" stroke="none" d="
M 116.7 90.55
Q 116.15 91.1 116.15 91.85
L 116.15 109
Q 116.15 109.75 116.65 110.3 117.15 110.85 117.9 110.85 118.7 110.85 119.2 110.3 119.7 109.75 119.7 108.95
L 119.7 108.8
Q 121.05 110.95 123.85 110.95 126.75 110.95 128.45 108.8 130.05 106.85 130.05 103.95 130.05 101.1 128.45 99.15 126.75 97 123.85 97 121.1 97 119.8 99.15
L 119.8 91.85
Q 119.8 91.1 119.25 90.55 118.75 90 117.95 90 117.2 90 116.7 90.55
M 125.5 101.25
Q 126.4 102.3 126.4 103.95 126.4 105.6 125.5 106.7 124.6 107.85 123.05 107.85 121.55 107.85 120.65 106.65 119.8 105.6 119.8 103.95 119.8 102.35 120.65 101.25 121.55 100.1 123.05 100.1 124.6 100.1 125.5 101.25 Z"/>
</g>

<g id="METSP16_IAB_320x480___CROPPED_psd_Asset_1_Group_1_copy_01_Frame_BCIT_Take_a_study_break_and_catch_the_130_bus_to_Metropolis__0_Layer0_0_MEMBER_30_FILL">
<path fill="#FFFFFF" stroke="none" d="
M 143.05 97.65
Q 142.5 98.15 142.5 98.95
L 142.5 104.5
Q 142.5 105.8 141.85 106.7 141.05 107.65 139.65 107.65 138.3 107.65 137.55 106.75 136.85 105.9 136.85 104.5
L 136.85 98.95
Q 136.85 98.15 136.3 97.65 135.8 97.1 135 97.1 134.25 97.1 133.75 97.65 133.2 98.15 133.2 98.95
L 133.2 104.65
Q 133.2 107.5 134.6 109.2 136.05 110.95 138.55 110.95 141.25 110.95 142.5 108.7
L 142.5 108.95
Q 142.5 109.85 143.05 110.35 143.55 110.85 144.35 110.85 145.15 110.85 145.65 110.35 146.15 109.85 146.15 108.95
L 146.15 98.95
Q 146.15 98.15 145.65 97.65 145.1 97.1 144.35 97.1 143.55 97.1 143.05 97.65 Z"/>
</g>

<g id="METSP16_IAB_320x480___CROPPED_psd_Asset_1_Group_1_copy_01_Frame_BCIT_Take_a_study_break_and_catch_the_130_bus_to_Metropolis__0_Layer0_0_MEMBER_31_FILL">
<path fill="#FFFFFF" stroke="none" d="
M 155.55 97
Q 152.95 97 151.5 98.15 150.1 99.2 150.1 100.95 150.1 102.65 151.15 103.7 152.3 104.9 155.1 105.65 156.55 106.05 157.05 106.35 157.6 106.65 157.6 107.15 157.6 108.25 155.7 108.25 154.2 108.25 152.75 107.35 151.85 106.85 151.3 106.85 150.75 106.85 150.35 107.15 149.95 107.5 149.95 108 149.95 108.95 150.75 109.6 152.6 110.95 155.6 110.95 158.15 110.95 159.6 109.8 161.05 108.7 161.05 106.85 161.05 105 159.65 103.95 158.6 103.15 156.1 102.45 154.55 102.05 154.1 101.8 153.55 101.5 153.55 100.9 153.55 99.9 155.45 99.9 156.55 99.9 157.7 100.4 159.15 101 159.35 101 160.75 101 160.75 99.65 160.75 98.5 158.9 97.7 157.45 97 155.55 97 Z"/>
</g>

<g id="METSP16_IAB_320x480___CROPPED_psd_Asset_1_Group_1_copy_01_Frame_BCIT_Take_a_study_break_and_catch_the_130_bus_to_Metropolis__0_Layer0_0_MEMBER_32_FILL">
<path fill="#FFFFFF" stroke="none" d="
M 4.4 122.3
Q 3.85 122.8 3.85 123.55
L 3.85 127.35 1.8 127.35
Q 1.15 127.35 0.75 127.8 0.3 128.25 0.3 128.9 0.3 129.55 0.75 129.95 1.15 130.4 1.8 130.4
L 3.85 130.4 3.85 139
Q 3.85 139.75 4.4 140.3 4.9 140.85 5.65 140.85 6.45 140.85 6.95 140.3 7.5 139.75 7.5 139
L 7.5 130.4 9.9 130.4
Q 10.55 130.4 10.95 129.95 11.4 129.55 11.4 128.9 11.4 128.25 10.95 127.8 10.55 127.35 9.9 127.35
L 7.5 127.35 7.5 123.55
Q 7.5 122.8 6.95 122.3 6.45 121.75 5.65 121.75 4.9 121.75 4.4 122.3 Z"/>
</g>

<g id="METSP16_IAB_320x480___CROPPED_psd_Asset_1_Group_1_copy_01_Frame_BCIT_Take_a_study_break_and_catch_the_130_bus_to_Metropolis__0_Layer0_0_MEMBER_33_FILL">
<path fill="#FFFFFF" stroke="none" d="
M 19.45 127
Q 16.45 127 14.45 129.05 12.5 131.05 12.5 133.95 12.5 136.9 14.45 138.9 16.4 140.95 19.45 140.95 22.5 140.95 24.5 138.9 26.45 136.9 26.45 133.95 26.45 131.05 24.5 129.05 22.5 127 19.45 127
M 17 131.3
Q 17.95 130.15 19.45 130.15 20.95 130.15 21.95 131.3 22.85 132.4 22.85 133.95 22.85 135.55 21.95 136.65 21 137.8 19.45 137.8 17.95 137.8 17 136.65 16.1 135.55 16.1 133.95 16.1 132.4 17 131.3 Z"/>
</g>

<g id="METSP16_IAB_320x480___CROPPED_psd_Asset_1_Group_1_copy_01_Frame_BCIT_Take_a_study_break_and_catch_the_130_bus_to_Metropolis__0_Layer0_0_MEMBER_34_FILL">
<path fill="#FFFFFF" stroke="none" d="
M 59.5 121.8
Q 59.5 121 59.05 120.55 58.55 120.05 57.75 120.05 56.65 120.05 56.15 121.15
L 49.3 135.45 42.4 121.15
Q 41.8 120.05 40.75 120.05 40 120.05 39.5 120.55 39 121.05 39 121.75
L 39 139.05
Q 39 139.75 39.5 140.3 40.05 140.85 40.75 140.85 41.5 140.85 42.05 140.3 42.55 139.75 42.55 139.05
L 42.55 128.95 47.75 139.85
Q 48.25 140.85 49.3 140.85 50.35 140.85 50.8 139.85
L 56 128.95 56 139.1
Q 56 139.8 56.5 140.35 57 140.85 57.75 140.85 58.5 140.85 59 140.35 59.5 139.85 59.5 139.1
L 59.5 121.8 Z"/>
</g>

<g id="METSP16_IAB_320x480___CROPPED_psd_Asset_1_Group_1_copy_01_Frame_BCIT_Take_a_study_break_and_catch_the_130_bus_to_Metropolis__0_Layer0_0_MEMBER_35_FILL">
<path fill="#FFFFFF" stroke="none" d="
M 75.1 135.15
Q 76.4 135.15 76.4 133.95 76.4 130.95 74.65 129 72.9 127 70.05 127 67.1 127 65.15 129 63.2 130.95 63.2 133.95 63.2 137 64.95 138.9 66.85 140.95 70.15 140.95 72.75 140.95 74.6 139.75 75.9 138.95 75.9 137.9 75.9 137.3 75.5 136.95 75.1 136.55 74.45 136.55 73.9 136.55 73.1 137.15 71.95 138.05 70.3 138.05 67.35 138.05 67 135.15
L 75.1 135.15
M 72 130.7
Q 72.7 131.4 72.95 132.55
L 67.05 132.55
Q 67.2 131.35 68 130.65 68.85 129.9 70.05 129.9 71.2 129.9 72 130.7 Z"/>
</g>

<g id="METSP16_IAB_320x480___CROPPED_psd_Asset_1_Group_1_copy_01_Frame_BCIT_Take_a_study_break_and_catch_the_130_bus_to_Metropolis__0_Layer0_0_MEMBER_36_FILL">
<path fill="#FFFFFF" stroke="none" d="
M 78.4 129.95
Q 78.8 130.4 79.45 130.4
L 81.5 130.4 81.5 139
Q 81.5 139.75 82.05 140.3 82.55 140.85 83.3 140.85 84.05 140.85 84.6 140.3 85.15 139.75 85.15 139
L 85.15 130.4 87.5 130.4
Q 88.15 130.4 88.6 129.95 89.05 129.55 89.05 128.9 89.05 128.25 88.6 127.8 88.2 127.35 87.5 127.35
L 85.15 127.35 85.15 123.55
Q 85.15 122.8 84.6 122.3 84.05 121.75 83.3 121.75 82.55 121.75 82.05 122.3 81.5 122.8 81.5 123.55
L 81.5 127.35 79.45 127.35
Q 78.8 127.35 78.4 127.8 77.95 128.25 77.95 128.9 77.95 129.55 78.4 129.95 Z"/>
</g>

<g id="METSP16_IAB_320x480___CROPPED_psd_Asset_1_Group_1_copy_01_Frame_BCIT_Take_a_study_break_and_catch_the_130_bus_to_Metropolis__0_Layer0_0_MEMBER_37_FILL">
<path fill="#FFFFFF" stroke="none" d="
M 99.8 129.8
Q 100.25 129.35 100.25 128.65 100.25 127.9 99.8 127.45 99.35 127 98.6 127 96 127 95.05 129.3
L 95.05 128.95
Q 95.05 128.2 94.5 127.65 93.95 127.1 93.2 127.1 92.4 127.1 91.85 127.6 91.35 128.15 91.35 128.95
L 91.35 139
Q 91.35 139.75 91.9 140.3 92.45 140.85 93.2 140.85 93.95 140.85 94.5 140.3 95.05 139.75 95.05 139
L 95.05 134.25
Q 95.05 132.4 96 131.35 97 130.3 98.6 130.3 99.3 130.3 99.8 129.8 Z"/>
</g>

<g id="METSP16_IAB_320x480___CROPPED_psd_Asset_1_Group_1_copy_01_Frame_BCIT_Take_a_study_break_and_catch_the_130_bus_to_Metropolis__0_Layer0_0_MEMBER_38_FILL">
<path fill="#FFFFFF" stroke="none" d="
M 115.45 133.95
Q 115.45 131.05 113.5 129.05 111.5 127 108.45 127 105.4 127 103.4 129.05 101.45 131.05 101.45 133.95 101.45 136.9 103.4 138.9 105.4 140.95 108.45 140.95 111.5 140.95 113.5 138.9 115.45 136.9 115.45 133.95
M 108.45 130.15
Q 109.95 130.15 110.95 131.3 111.85 132.4 111.85 133.95 111.85 135.55 110.95 136.65 110 137.8 108.45 137.8 106.95 137.8 105.95 136.65 105.05 135.55 105.05 133.95 105.05 132.4 105.95 131.3 106.95 130.15 108.45 130.15 Z"/>
</g>

<g id="METSP16_IAB_320x480___CROPPED_psd_Asset_1_Group_1_copy_01_Frame_BCIT_Take_a_study_break_and_catch_the_130_bus_to_Metropolis__0_Layer0_0_MEMBER_39_FILL">
<path fill="#FFFFFF" stroke="none" d="
M 122.4 128.95
Q 122.4 128.2 121.9 127.65 121.4 127.1 120.6 127.1 119.85 127.1 119.35 127.65 118.85 128.2 118.85 128.95
L 118.85 144.7
Q 118.85 145.45 119.4 146 119.95 146.55 120.7 146.55 121.45 146.55 122 146 122.5 145.45 122.5 144.7
L 122.5 138.8
Q 123.85 140.95 126.55 140.95 129.45 140.95 131.15 138.8 132.75 136.85 132.75 133.95 132.75 131.05 131.2 129.15 129.5 127 126.55 127 123.85 127 122.4 129.15
L 122.4 128.95
M 128.25 131.25
Q 129.1 132.3 129.1 133.95 129.1 135.6 128.25 136.7 127.35 137.85 125.8 137.85 124.3 137.85 123.35 136.65 122.5 135.55 122.5 133.95 122.5 132.35 123.35 131.3 124.25 130.1 125.8 130.1 127.3 130.1 128.25 131.25 Z"/>
</g>

<g id="METSP16_IAB_320x480___CROPPED_psd_Asset_1_Group_1_copy_01_Frame_BCIT_Take_a_study_break_and_catch_the_130_bus_to_Metropolis__0_Layer0_0_MEMBER_40_FILL">
<path fill="#FFFFFF" stroke="none" d="
M 137.2 129.05
Q 135.25 131.05 135.25 133.95 135.25 136.9 137.2 138.9 139.2 140.95 142.25 140.95 145.3 140.95 147.3 138.9 149.25 136.9 149.25 133.95 149.25 131.05 147.3 129.05 145.3 127 142.25 127 139.2 127 137.2 129.05
M 138.85 133.95
Q 138.85 132.4 139.75 131.3 140.75 130.15 142.25 130.15 143.75 130.15 144.75 131.3 145.65 132.4 145.65 133.95 145.65 135.55 144.75 136.65 143.8 137.8 142.25 137.8 140.75 137.8 139.75 136.65 138.85 135.55 138.85 133.95 Z"/>
</g>

<g id="METSP16_IAB_320x480___CROPPED_psd_Asset_1_Group_1_copy_01_Frame_BCIT_Take_a_study_break_and_catch_the_130_bus_to_Metropolis__0_Layer0_0_MEMBER_41_FILL">
<path fill="#FFFFFF" stroke="none" d="
M 156.3 121.85
Q 156.3 121.1 155.8 120.6 155.25 120.05 154.5 120.05 153.75 120.05 153.2 120.6 152.65 121.1 152.65 121.85
L 152.65 139
Q 152.65 139.75 153.2 140.3 153.75 140.85 154.5 140.85 155.25 140.85 155.8 140.3 156.3 139.75 156.3 139
L 156.3 121.85 Z"/>
</g>

<g id="METSP16_IAB_320x480___CROPPED_psd_Asset_1_Group_1_copy_01_Frame_BCIT_Take_a_study_break_and_catch_the_130_bus_to_Metropolis__0_Layer0_0_MEMBER_42_FILL">
<path fill="#FFFFFF" stroke="none" d="
M 162.4 140.85
Q 163.2 140.85 163.7 140.3 164.25 139.75 164.25 139
L 164.25 128.95
Q 164.25 128.2 163.7 127.65 163.2 127.1 162.4 127.1 161.65 127.1 161.15 127.65 160.6 128.2 160.6 128.95
L 160.6 139
Q 160.6 139.75 161.15 140.3 161.65 140.85 162.4 140.85
M 164.5 123.1
Q 164.5 122.25 163.9 121.65 163.3 121.05 162.4 121.05 161.55 121.05 160.95 121.65 160.35 122.25 160.35 123.1 160.35 123.95 160.95 124.6 161.55 125.2 162.4 125.2 163.3 125.2 163.9 124.6 164.5 123.95 164.5 123.1 Z"/>
</g>

<g id="METSP16_IAB_320x480___CROPPED_psd_Asset_1_Group_1_copy_01_Frame_BCIT_Take_a_study_break_and_catch_the_130_bus_to_Metropolis__0_Layer0_0_MEMBER_43_FILL">
<path fill="#FFFFFF" stroke="none" d="
M 177.45 131
Q 178.85 131 178.85 129.65 178.85 128.55 176.95 127.7 175.55 127 173.65 127 171.05 127 169.6 128.15 168.2 129.25 168.2 130.95 168.2 132.65 169.25 133.7 170.4 134.9 173.2 135.65 174.65 136.05 175.15 136.35 175.7 136.65 175.7 137.15 175.7 138.25 173.75 138.25 172.3 138.25 170.85 137.35 169.95 136.85 169.4 136.85 168.85 136.85 168.45 137.2 168.05 137.55 168.05 138.05 168.05 138.95 168.85 139.6 170.7 140.95 173.7 140.95 176.25 140.95 177.7 139.8 179.15 138.7 179.15 136.85 179.15 135 177.75 133.95 176.7 133.15 174.2 132.5 172.65 132.05 172.2 131.8 171.65 131.5 171.65 130.9 171.65 129.9 173.55 129.9 174.65 129.9 175.8 130.4 177.25 131 177.45 131 Z"/>
</g>

<g id="METSP16_IAB_320x480___CROPPED_psd_Asset_1_Group_1_copy_01_Frame_BCIT_Take_a_study_break_and_catch_the_130_bus_to_Metropolis__0_Layer0_0_MEMBER_44_FILL">
<path fill="#FFFFFF" stroke="none" d="
M 185.8 140.2
Q 186.4 139.55 186.4 138.7 186.4 137.85 185.8 137.25 185.15 136.65 184.3 136.65 183.45 136.65 182.8 137.25 182.2 137.85 182.2 138.7 182.2 139.55 182.8 140.2 183.45 140.8 184.3 140.8 185.15 140.8 185.8 140.2 Z"/>
</g>
</defs>

<g transform="matrix( 1, 0, 0, 1, -99,-31) ">
<g transform="matrix( 1, 0, 0, 1, 36,25) ">
<g transform="matrix( 0.2884521484375, 0, 0, 0.2884521484375, 80.65,406.05) ">
<mask id="Mask_Mask_1">
<g transform="matrix( 1, 0, 0, 1, 0,0) ">
<use xlink:href="#Mask_flash0_ai_Assets_Layer_1__Clip_Group__0_2_MASK_0_FILL"/>
</g>
</mask>

<g mask="url(#Mask_Mask_1)">
<g transform="matrix( 1, 0, 0, 1, 0,0) ">
<use xlink:href="#flash0_ai_Assets_Layer_1__Clip_Group__0_Layer2_0_FILL"/>
</g>
</g>
</g>
</g>
</g>

<g transform="matrix( 1, 0, 0, 1, -99,-31) ">
<g transform="matrix( 1, 0, 0, 1, 36,25) ">
<g transform="matrix( 1, 0, 0, 1, 81,40) ">
<g transform="matrix( 1, 0, 0, 1, 0,0) ">
<g transform="matrix( 1, 0, 0, 1.0003814697265625, -0.2,0.45) ">
<use xlink:href="#METSP16_IAB_320x480___CROPPED_psd_Asset_1_Group_1_copy_01_Frame_BCIT_Take_a_study_break_and_catch_the_130_bus_to_Metropolis__0_Layer0_0_MEMBER_0_FILL"/>
</g>

<g transform="matrix( 1, 0, 0, 1.0003814697265625, -0.2,0.45) ">
<use xlink:href="#METSP16_IAB_320x480___CROPPED_psd_Asset_1_Group_1_copy_01_Frame_BCIT_Take_a_study_break_and_catch_the_130_bus_to_Metropolis__0_Layer0_0_MEMBER_1_FILL"/>
</g>

<g transform="matrix( 1, 0, 0, 1.0003814697265625, -0.2,0.45) ">
<use xlink:href="#METSP16_IAB_320x480___CROPPED_psd_Asset_1_Group_1_copy_01_Frame_BCIT_Take_a_study_break_and_catch_the_130_bus_to_Metropolis__0_Layer0_0_MEMBER_2_FILL"/>
</g>

<g transform="matrix( 1, 0, 0, 1.0003814697265625, -0.2,0.45) ">
<use xlink:href="#METSP16_IAB_320x480___CROPPED_psd_Asset_1_Group_1_copy_01_Frame_BCIT_Take_a_study_break_and_catch_the_130_bus_to_Metropolis__0_Layer0_0_MEMBER_3_FILL"/>
</g>

<g transform="matrix( 1, 0, 0, 1.0003814697265625, -0.2,0.45) ">
<use xlink:href="#METSP16_IAB_320x480___CROPPED_psd_Asset_1_Group_1_copy_01_Frame_BCIT_Take_a_study_break_and_catch_the_130_bus_to_Metropolis__0_Layer0_0_MEMBER_4_FILL"/>
</g>

<g transform="matrix( 1, 0, 0, 1.0003814697265625, -0.2,0.45) ">
<use xlink:href="#METSP16_IAB_320x480___CROPPED_psd_Asset_1_Group_1_copy_01_Frame_BCIT_Take_a_study_break_and_catch_the_130_bus_to_Metropolis__0_Layer0_0_MEMBER_5_FILL"/>
</g>

<g transform="matrix( 1, 0, 0, 1.0003814697265625, -0.2,0.45) ">
<use xlink:href="#METSP16_IAB_320x480___CROPPED_psd_Asset_1_Group_1_copy_01_Frame_BCIT_Take_a_study_break_and_catch_the_130_bus_to_Metropolis__0_Layer0_0_MEMBER_6_FILL"/>
</g>

<g transform="matrix( 1, 0, 0, 1.0003814697265625, -0.2,0.45) ">
<use xlink:href="#METSP16_IAB_320x480___CROPPED_psd_Asset_1_Group_1_copy_01_Frame_BCIT_Take_a_study_break_and_catch_the_130_bus_to_Metropolis__0_Layer0_0_MEMBER_7_FILL"/>
</g>

<g transform="matrix( 1, 0, 0, 1.0003814697265625, -0.2,0.45) ">
<use xlink:href="#METSP16_IAB_320x480___CROPPED_psd_Asset_1_Group_1_copy_01_Frame_BCIT_Take_a_study_break_and_catch_the_130_bus_to_Metropolis__0_Layer0_0_MEMBER_8_FILL"/>
</g>

<g transform="matrix( 1, 0, 0, 1.0003814697265625, -0.2,0.45) ">
<use xlink:href="#METSP16_IAB_320x480___CROPPED_psd_Asset_1_Group_1_copy_01_Frame_BCIT_Take_a_study_break_and_catch_the_130_bus_to_Metropolis__0_Layer0_0_MEMBER_9_FILL"/>
</g>

<g transform="matrix( 1, 0, 0, 1.0003814697265625, -0.2,0.45) ">
<use xlink:href="#METSP16_IAB_320x480___CROPPED_psd_Asset_1_Group_1_copy_01_Frame_BCIT_Take_a_study_break_and_catch_the_130_bus_to_Metropolis__0_Layer0_0_MEMBER_10_FILL"/>
</g>

<g transform="matrix( 1, 0, 0, 1.0003814697265625, -0.2,0.45) ">
<use xlink:href="#METSP16_IAB_320x480___CROPPED_psd_Asset_1_Group_1_copy_01_Frame_BCIT_Take_a_study_break_and_catch_the_130_bus_to_Metropolis__0_Layer0_0_MEMBER_11_FILL"/>
</g>

<g transform="matrix( 1, 0, 0, 1.0003814697265625, -0.2,0.45) ">
<use xlink:href="#METSP16_IAB_320x480___CROPPED_psd_Asset_1_Group_1_copy_01_Frame_BCIT_Take_a_study_break_and_catch_the_130_bus_to_Metropolis__0_Layer0_0_MEMBER_12_FILL"/>
</g>

<g transform="matrix( 1, 0, 0, 1.0003814697265625, -0.2,0.45) ">
<use xlink:href="#METSP16_IAB_320x480___CROPPED_psd_Asset_1_Group_1_copy_01_Frame_BCIT_Take_a_study_break_and_catch_the_130_bus_to_Metropolis__0_Layer0_0_MEMBER_13_FILL"/>
</g>

<g transform="matrix( 1, 0, 0, 1.0003814697265625, -0.2,0.45) ">
<use xlink:href="#METSP16_IAB_320x480___CROPPED_psd_Asset_1_Group_1_copy_01_Frame_BCIT_Take_a_study_break_and_catch_the_130_bus_to_Metropolis__0_Layer0_0_MEMBER_14_FILL"/>
</g>

<g transform="matrix( 1, 0, 0, 1.0003814697265625, -0.2,0.45) ">
<use xlink:href="#METSP16_IAB_320x480___CROPPED_psd_Asset_1_Group_1_copy_01_Frame_BCIT_Take_a_study_break_and_catch_the_130_bus_to_Metropolis__0_Layer0_0_MEMBER_15_FILL"/>
</g>

<g transform="matrix( 1, 0, 0, 1.0003814697265625, -0.2,0.45) ">
<use xlink:href="#METSP16_IAB_320x480___CROPPED_psd_Asset_1_Group_1_copy_01_Frame_BCIT_Take_a_study_break_and_catch_the_130_bus_to_Metropolis__0_Layer0_0_MEMBER_16_FILL"/>
</g>

<g transform="matrix( 1, 0, 0, 1.0003814697265625, -0.2,0.45) ">
<use xlink:href="#METSP16_IAB_320x480___CROPPED_psd_Asset_1_Group_1_copy_01_Frame_BCIT_Take_a_study_break_and_catch_the_130_bus_to_Metropolis__0_Layer0_0_MEMBER_17_FILL"/>
</g>

<g transform="matrix( 1, 0, 0, 1.0003814697265625, -0.2,0.45) ">
<use xlink:href="#METSP16_IAB_320x480___CROPPED_psd_Asset_1_Group_1_copy_01_Frame_BCIT_Take_a_study_break_and_catch_the_130_bus_to_Metropolis__0_Layer0_0_MEMBER_18_FILL"/>
</g>

<g transform="matrix( 1, 0, 0, 1.0003814697265625, -0.2,0.45) ">
<use xlink:href="#METSP16_IAB_320x480___CROPPED_psd_Asset_1_Group_1_copy_01_Frame_BCIT_Take_a_study_break_and_catch_the_130_bus_to_Metropolis__0_Layer0_0_MEMBER_19_FILL"/>
</g>

<g transform="matrix( 1, 0, 0, 1.0003814697265625, -0.2,0.45) ">
<use xlink:href="#METSP16_IAB_320x480___CROPPED_psd_Asset_1_Group_1_copy_01_Frame_BCIT_Take_a_study_break_and_catch_the_130_bus_to_Metropolis__0_Layer0_0_MEMBER_20_FILL"/>
</g>

<g transform="matrix( 1, 0, 0, 1.0003814697265625, -0.2,0.45) ">
<use xlink:href="#METSP16_IAB_320x480___CROPPED_psd_Asset_1_Group_1_copy_01_Frame_BCIT_Take_a_study_break_and_catch_the_130_bus_to_Metropolis__0_Layer0_0_MEMBER_21_FILL"/>
</g>

<g transform="matrix( 1, 0, 0, 1.0003814697265625, -0.2,0.45) ">
<use xlink:href="#METSP16_IAB_320x480___CROPPED_psd_Asset_1_Group_1_copy_01_Frame_BCIT_Take_a_study_break_and_catch_the_130_bus_to_Metropolis__0_Layer0_0_MEMBER_22_FILL"/>
</g>

<g transform="matrix( 1, 0, 0, 1.0003814697265625, -0.2,0.45) ">
<use xlink:href="#METSP16_IAB_320x480___CROPPED_psd_Asset_1_Group_1_copy_01_Frame_BCIT_Take_a_study_break_and_catch_the_130_bus_to_Metropolis__0_Layer0_0_MEMBER_23_FILL"/>
</g>

<g transform="matrix( 1, 0, 0, 1.0003814697265625, -0.2,0.45) ">
<use xlink:href="#METSP16_IAB_320x480___CROPPED_psd_Asset_1_Group_1_copy_01_Frame_BCIT_Take_a_study_break_and_catch_the_130_bus_to_Metropolis__0_Layer0_0_MEMBER_24_FILL"/>
</g>

<g transform="matrix( 1, 0, 0, 1.0003814697265625, -0.2,0.45) ">
<use xlink:href="#METSP16_IAB_320x480___CROPPED_psd_Asset_1_Group_1_copy_01_Frame_BCIT_Take_a_study_break_and_catch_the_130_bus_to_Metropolis__0_Layer0_0_MEMBER_25_FILL"/>
</g>

<g transform="matrix( 1, 0, 0, 1.0003814697265625, -0.2,0.45) ">
<use xlink:href="#METSP16_IAB_320x480___CROPPED_psd_Asset_1_Group_1_copy_01_Frame_BCIT_Take_a_study_break_and_catch_the_130_bus_to_Metropolis__0_Layer0_0_MEMBER_26_FILL"/>
</g>

<g transform="matrix( 1, 0, 0, 1.0003814697265625, -0.2,0.45) ">
<use xlink:href="#METSP16_IAB_320x480___CROPPED_psd_Asset_1_Group_1_copy_01_Frame_BCIT_Take_a_study_break_and_catch_the_130_bus_to_Metropolis__0_Layer0_0_MEMBER_27_FILL"/>
</g>

<g transform="matrix( 1, 0, 0, 1.0003814697265625, -0.2,0.45) ">
<use xlink:href="#METSP16_IAB_320x480___CROPPED_psd_Asset_1_Group_1_copy_01_Frame_BCIT_Take_a_study_break_and_catch_the_130_bus_to_Metropolis__0_Layer0_0_MEMBER_28_FILL"/>
</g>

<g transform="matrix( 1, 0, 0, 1.0003814697265625, -0.2,0.45) ">
<use xlink:href="#METSP16_IAB_320x480___CROPPED_psd_Asset_1_Group_1_copy_01_Frame_BCIT_Take_a_study_break_and_catch_the_130_bus_to_Metropolis__0_Layer0_0_MEMBER_29_FILL"/>
</g>

<g transform="matrix( 1, 0, 0, 1.0003814697265625, -0.2,0.45) ">
<use xlink:href="#METSP16_IAB_320x480___CROPPED_psd_Asset_1_Group_1_copy_01_Frame_BCIT_Take_a_study_break_and_catch_the_130_bus_to_Metropolis__0_Layer0_0_MEMBER_30_FILL"/>
</g>

<g transform="matrix( 1, 0, 0, 1.0003814697265625, -0.2,0.45) ">
<use xlink:href="#METSP16_IAB_320x480___CROPPED_psd_Asset_1_Group_1_copy_01_Frame_BCIT_Take_a_study_break_and_catch_the_130_bus_to_Metropolis__0_Layer0_0_MEMBER_31_FILL"/>
</g>

<g transform="matrix( 1, 0, 0, 1.0003814697265625, -0.2,0.45) ">
<use xlink:href="#METSP16_IAB_320x480___CROPPED_psd_Asset_1_Group_1_copy_01_Frame_BCIT_Take_a_study_break_and_catch_the_130_bus_to_Metropolis__0_Layer0_0_MEMBER_32_FILL"/>
</g>

<g transform="matrix( 1, 0, 0, 1.0003814697265625, -0.2,0.45) ">
<use xlink:href="#METSP16_IAB_320x480___CROPPED_psd_Asset_1_Group_1_copy_01_Frame_BCIT_Take_a_study_break_and_catch_the_130_bus_to_Metropolis__0_Layer0_0_MEMBER_33_FILL"/>
</g>

<g transform="matrix( 1, 0, 0, 1.0003814697265625, -0.2,0.45) ">
<use xlink:href="#METSP16_IAB_320x480___CROPPED_psd_Asset_1_Group_1_copy_01_Frame_BCIT_Take_a_study_break_and_catch_the_130_bus_to_Metropolis__0_Layer0_0_MEMBER_34_FILL"/>
</g>

<g transform="matrix( 1, 0, 0, 1.0003814697265625, -0.2,0.45) ">
<use xlink:href="#METSP16_IAB_320x480___CROPPED_psd_Asset_1_Group_1_copy_01_Frame_BCIT_Take_a_study_break_and_catch_the_130_bus_to_Metropolis__0_Layer0_0_MEMBER_35_FILL"/>
</g>

<g transform="matrix( 1, 0, 0, 1.0003814697265625, -0.2,0.45) ">
<use xlink:href="#METSP16_IAB_320x480___CROPPED_psd_Asset_1_Group_1_copy_01_Frame_BCIT_Take_a_study_break_and_catch_the_130_bus_to_Metropolis__0_Layer0_0_MEMBER_36_FILL"/>
</g>

<g transform="matrix( 1, 0, 0, 1.0003814697265625, -0.2,0.45) ">
<use xlink:href="#METSP16_IAB_320x480___CROPPED_psd_Asset_1_Group_1_copy_01_Frame_BCIT_Take_a_study_break_and_catch_the_130_bus_to_Metropolis__0_Layer0_0_MEMBER_37_FILL"/>
</g>

<g transform="matrix( 1, 0, 0, 1.0003814697265625, -0.2,0.45) ">
<use xlink:href="#METSP16_IAB_320x480___CROPPED_psd_Asset_1_Group_1_copy_01_Frame_BCIT_Take_a_study_break_and_catch_the_130_bus_to_Metropolis__0_Layer0_0_MEMBER_38_FILL"/>
</g>

<g transform="matrix( 1, 0, 0, 1.0003814697265625, -0.2,0.45) ">
<use xlink:href="#METSP16_IAB_320x480___CROPPED_psd_Asset_1_Group_1_copy_01_Frame_BCIT_Take_a_study_break_and_catch_the_130_bus_to_Metropolis__0_Layer0_0_MEMBER_39_FILL"/>
</g>

<g transform="matrix( 1, 0, 0, 1.0003814697265625, -0.2,0.45) ">
<use xlink:href="#METSP16_IAB_320x480___CROPPED_psd_Asset_1_Group_1_copy_01_Frame_BCIT_Take_a_study_break_and_catch_the_130_bus_to_Metropolis__0_Layer0_0_MEMBER_40_FILL"/>
</g>

<g transform="matrix( 1, 0, 0, 1.0003814697265625, -0.2,0.45) ">
<use xlink:href="#METSP16_IAB_320x480___CROPPED_psd_Asset_1_Group_1_copy_01_Frame_BCIT_Take_a_study_break_and_catch_the_130_bus_to_Metropolis__0_Layer0_0_MEMBER_41_FILL"/>
</g>

<g transform="matrix( 1, 0, 0, 1.0003814697265625, -0.2,0.45) ">
<use xlink:href="#METSP16_IAB_320x480___CROPPED_psd_Asset_1_Group_1_copy_01_Frame_BCIT_Take_a_study_break_and_catch_the_130_bus_to_Metropolis__0_Layer0_0_MEMBER_42_FILL"/>
</g>

<g transform="matrix( 1, 0, 0, 1.0003814697265625, -0.2,0.45) ">
<use xlink:href="#METSP16_IAB_320x480___CROPPED_psd_Asset_1_Group_1_copy_01_Frame_BCIT_Take_a_study_break_and_catch_the_130_bus_to_Metropolis__0_Layer0_0_MEMBER_43_FILL"/>
</g>

<g transform="matrix( 1, 0, 0, 1.0003814697265625, -0.2,0.45) ">
<use xlink:href="#METSP16_IAB_320x480___CROPPED_psd_Asset_1_Group_1_copy_01_Frame_BCIT_Take_a_study_break_and_catch_the_130_bus_to_Metropolis__0_Layer0_0_MEMBER_44_FILL"/>
</g>
</g>
</g>
</g>
</g>
</svg>
