
<svg xmlns="http://www.w3.org/2000/svg" version="1.1" xmlns:xlink="http://www.w3.org/1999/xlink" preserveAspectRatio="none" x="0px" y="0px" width="480px" height="320px" viewBox="0 0 480 320">
<defs>
<g id="METSP16_IAB_480x320_psd_Asset_Group_1_copy_2_01_Frame_SFu_Catch_the_145_bus_and_the_SkyTrain_for_some_retail_therapy__0_Layer0_0_MEMBER_0_FILL">
<path fill="#FFFFFF" stroke="none" d="
M 24.6 6.55
Q 25.2 5.9 25.2 4.95 25.2 4.05 24.45 3.3 22.75 1.6 20.25 0.7 17.9 -0.15 15.4 -0.15 9.35 -0.15 5.5 3.65 1.6 7.55 1.6 13.8 1.6 20.1 5.5 24 9.35 27.8 15.4 27.8 17.9 27.8 20.25 27 22.75 26.05 24.45 24.35 25.2 23.5 25.2 22.7 25.2 21.75 24.6 21.1 23.95 20.4 22.95 20.4 22.2 20.4 21.35 21 19.9 22.05 18.85 22.55 17.25 23.2 15.4 23.2 11.45 23.2 9 20.55 6.6 17.9 6.6 13.8 6.6 9.7 9 7.1 11.45 4.4 15.4 4.4 17.25 4.4 18.85 5.1 19.95 5.55 21.35 6.65 22.2 7.2 22.95 7.2 23.95 7.2 24.6 6.55 Z"/>
</g>

<g id="METSP16_IAB_480x320_psd_Asset_Group_1_copy_2_01_Frame_SFu_Catch_the_145_bus_and_the_SkyTrain_for_some_retail_therapy__0_Layer0_0_MEMBER_1_FILL">
<path fill="#FFFFFF" stroke="none" d="
M 46.6 16.95
Q 46.6 13.2 44.4 11.2 42.2 9.25 38.05 9.25 35.65 9.25 33.65 9.8 30.7 10.55 30.7 12.25 30.7 13.1 31.3 13.7 31.9 14.25 32.75 14.25 33.15 14.25 34.75 13.8 36.3 13.35 37.6 13.35 39.9 13.35 40.85 14.3 41.75 15.15 41.75 17.25
L 41.75 18.55
Q 40 16.7 36.8 16.7 33.9 16.7 32.15 18.1 30.25 19.55 30.25 22.25 30.25 24.7 31.95 26.25 33.7 27.8 36.6 27.8 40.1 27.8 41.8 25.1
L 41.8 25.2
Q 41.8 26.25 42.5 26.95 43.15 27.65 44.2 27.65 45.25 27.65 45.95 26.95 46.6 26.25 46.6 25.2
L 46.6 16.95
M 40.75 20.65
Q 41.75 21.3 41.75 22.25 41.75 23.25 40.75 23.9 39.75 24.55 38.3 24.55 36.9 24.55 36 23.95 35.1 23.3 35.1 22.25 35.1 21.15 35.95 20.55 36.85 19.95 38.3 19.95 39.75 19.95 40.75 20.65 Z"/>
</g>

<g id="METSP16_IAB_480x320_psd_Asset_Group_1_copy_2_01_Frame_SFu_Catch_the_145_bus_and_the_SkyTrain_for_some_retail_therapy__0_Layer0_0_MEMBER_2_FILL">
<path fill="#FFFFFF" stroke="none" d="
M 64.45 10.3
Q 63.9 9.7 63.05 9.7
L 59.85 9.7 59.85 4.7
Q 59.85 3.7 59.15 2.95 58.45 2.25 57.45 2.25 56.45 2.25 55.7 2.95 55 3.7 55 4.7
L 55 9.7 52.3 9.7
Q 51.45 9.7 50.85 10.3 50.3 10.9 50.3 11.75 50.3 12.6 50.85 13.2 51.45 13.75 52.3 13.75
L 55 13.75 55 25.2
Q 55 26.2 55.7 26.95 56.45 27.65 57.45 27.65 58.45 27.65 59.15 26.95 59.85 26.2 59.85 25.2
L 59.85 13.75 63.05 13.75
Q 63.9 13.75 64.45 13.2 65.05 12.6 65.05 11.75 65.05 10.9 64.45 10.3 Z"/>
</g>

<g id="METSP16_IAB_480x320_psd_Asset_Group_1_copy_2_01_Frame_SFu_Catch_the_145_bus_and_the_SkyTrain_for_some_retail_therapy__0_Layer0_0_MEMBER_3_FILL">
<path fill="#FFFFFF" stroke="none" d="
M 83.9 13.3
Q 83.9 12.35 83.2 11.65 81.1 9.25 76.95 9.25 72.65 9.25 70 11.95 67.4 14.55 67.4 18.5 67.4 22.5 70 25.1 72.65 27.8 76.95 27.8 81.1 27.8 83.2 25.4 83.9 24.6 83.9 23.75 83.9 22.9 83.4 22.4 82.85 21.85 82 21.85 81.25 21.85 80.5 22.35 78.8 23.65 77 23.65 74.75 23.65 73.45 22.1 72.25 20.7 72.25 18.5 72.25 16.35 73.45 14.9 74.8 13.35 77 13.35 78.6 13.35 80.5 14.65 81.15 15.15 82 15.15 82.85 15.15 83.4 14.65 83.9 14.15 83.9 13.3 Z"/>
</g>

<g id="METSP16_IAB_480x320_psd_Asset_Group_1_copy_2_01_Frame_SFu_Catch_the_145_bus_and_the_SkyTrain_for_some_retail_therapy__0_Layer0_0_MEMBER_4_FILL">
<path fill="#FFFFFF" stroke="none" d="
M 106.45 17.6
Q 106.45 13.85 104.6 11.6 102.65 9.25 99.35 9.25 95.75 9.25 94.1 12.2
L 94.1 2.45
Q 94.1 1.45 93.4 0.7 92.65 0 91.65 0 90.65 0 89.95 0.7 89.25 1.45 89.25 2.45
L 89.25 25.2
Q 89.25 26.2 89.95 26.95 90.65 27.65 91.65 27.65 92.65 27.65 93.4 26.95 94.1 26.2 94.1 25.2
L 94.1 17.8
Q 94.1 16.05 95 14.9 96 13.6 97.9 13.6 99.7 13.6 100.7 14.8 101.6 15.95 101.6 17.8
L 101.6 25.2
Q 101.6 26.2 102.3 26.95 103.05 27.65 104.05 27.65 105.05 27.65 105.75 26.95 106.45 26.2 106.45 25.2
L 106.45 17.6 Z"/>
</g>

<g id="METSP16_IAB_480x320_psd_Asset_Group_1_copy_2_01_Frame_SFu_Catch_the_145_bus_and_the_SkyTrain_for_some_retail_therapy__0_Layer0_0_MEMBER_5_FILL">
<path fill="#FFFFFF" stroke="none" d="
M 138 11.75
Q 138 10.9 137.45 10.3 136.85 9.7 136 9.7
L 132.85 9.7 132.85 4.7
Q 132.85 3.7 132.15 2.95 131.4 2.25 130.4 2.25 129.4 2.25 128.65 2.95 127.95 3.7 127.95 4.7
L 127.95 9.7 125.25 9.7
Q 124.4 9.7 123.8 10.3 123.25 10.9 123.25 11.75 123.25 12.6 123.8 13.2 124.4 13.75 125.25 13.75
L 127.95 13.75 127.95 25.2
Q 127.95 26.2 128.65 26.95 129.4 27.65 130.4 27.65 131.4 27.65 132.15 26.95 132.85 26.2 132.85 25.2
L 132.85 13.75 136 13.75
Q 136.85 13.75 137.45 13.2 138 12.6 138 11.75 Z"/>
</g>

<g id="METSP16_IAB_480x320_psd_Asset_Group_1_copy_2_01_Frame_SFu_Catch_the_145_bus_and_the_SkyTrain_for_some_retail_therapy__0_Layer0_0_MEMBER_6_FILL">
<path fill="#FFFFFF" stroke="none" d="
M 157.45 11.6
Q 155.5 9.25 152.15 9.25 148.5 9.25 146.95 12.2
L 146.95 2.45
Q 146.95 1.45 146.25 0.7 145.5 0 144.5 0 143.5 0 142.75 0.7 142.05 1.45 142.05 2.45
L 142.05 25.2
Q 142.05 26.2 142.75 26.95 143.5 27.65 144.5 27.65 145.5 27.65 146.25 26.95 146.95 26.2 146.95 25.2
L 146.95 17.8
Q 146.95 16.05 147.8 14.9 148.85 13.6 150.75 13.6 152.55 13.6 153.5 14.8 154.4 15.95 154.4 17.8
L 154.4 25.2
Q 154.4 26.2 155.1 26.95 155.85 27.65 156.85 27.65 157.85 27.65 158.6 26.95 159.3 26.2 159.3 25.2
L 159.3 17.6
Q 159.3 13.85 157.45 11.6 Z"/>
</g>

<g id="METSP16_IAB_480x320_psd_Asset_Group_1_copy_2_01_Frame_SFu_Catch_the_145_bus_and_the_SkyTrain_for_some_retail_therapy__0_Layer0_0_MEMBER_7_FILL">
<path fill="#FFFFFF" stroke="none" d="
M 179.8 11.9
Q 177.45 9.25 173.7 9.25 169.75 9.25 167.15 11.85 164.55 14.5 164.55 18.5 164.55 22.5 166.9 25.05 169.4 27.8 173.8 27.8 177.1 27.8 179.7 26.15 181.45 25.1 181.45 23.75 181.45 23 180.95 22.5 180.4 21.95 179.5 21.95 178.75 21.95 177.7 22.75 176.25 23.95 174 23.95 172 23.95 170.85 22.8 169.8 21.8 169.6 20.1
L 180.4 20.1
Q 182.15 20.1 182.15 18.5 182.15 14.5 179.8 11.9
M 169.7 16.65
Q 169.9 15.1 170.95 14.1 172.1 13.1 173.7 13.1 175.25 13.1 176.3 14.2 177.2 15.15 177.5 16.65
L 169.7 16.65 Z"/>
</g>

<g id="METSP16_IAB_480x320_psd_Asset_Group_1_copy_2_01_Frame_SFu_Catch_the_145_bus_and_the_SkyTrain_for_some_retail_therapy__0_Layer0_0_MEMBER_8_FILL">
<path fill="#FFFFFF" stroke="none" d="
M 210.2 2.45
Q 210.2 1.3 209.5 0.65 208.8 0 207.75 0
L 206.95 0.15 199.9 2.25
Q 198.35 2.75 198.35 4.35 198.35 5.35 199.05 6 199.7 6.65 200.65 6.65
L 201.15 6.55 205.35 5.3 205.35 25.2
Q 205.35 26.2 206.1 26.95 206.8 27.65 207.75 27.65 208.75 27.65 209.5 26.95 210.2 26.2 210.2 25.2
L 210.2 2.45 Z"/>
</g>

<g id="METSP16_IAB_480x320_psd_Asset_Group_1_copy_2_01_Frame_SFu_Catch_the_145_bus_and_the_SkyTrain_for_some_retail_therapy__0_Layer0_0_MEMBER_9_FILL">
<path fill="#FFFFFF" stroke="none" d="
M 234.8 2.4
Q 234.8 1.35 234.25 0.7 233.6 0 232.5 0 231.35 0 230.5 0.9
L 215.95 16.95
Q 215.25 17.75 215.25 18.5 215.25 19.4 215.85 20 216.5 20.55 217.35 20.55
L 230 20.55 230 25.25
Q 230 26.25 230.7 26.95 231.4 27.65 232.4 27.65 233.4 27.65 234.1 26.95 234.8 26.25 234.8 25.25
L 234.8 20.55 238 20.55
Q 238.9 20.55 239.5 19.95 240.1 19.35 240.1 18.5 240.1 17.65 239.5 17.1 238.9 16.5 238 16.5
L 234.8 16.5 234.8 2.4
M 230 7.15
L 230 16.5 221.6 16.5 230 7.15 Z"/>
</g>

<g id="METSP16_IAB_480x320_psd_Asset_Group_1_copy_2_01_Frame_SFu_Catch_the_145_bus_and_the_SkyTrain_for_some_retail_therapy__0_Layer0_0_MEMBER_10_FILL">
<path fill="#FFFFFF" stroke="none" d="
M 262.6 2.55
Q 262.6 1.65 261.95 1 261.3 0.3 260.4 0.3
L 248.95 0.3
Q 248 0.3 247.4 0.85 246.75 1.4 246.65 2.3
L 244.9 13.55
Q 244.75 14.45 245.3 15.1 245.9 15.8 247.1 15.8 247.7 15.8 248.3 15.5 249.9 14.7 251.2 14.4 252.55 14.05 254.3 14.05 256.65 14.05 258.25 15.3 259.9 16.6 259.9 18.7 259.9 20.95 258.25 22.3 256.65 23.6 253.9 23.6 251.75 23.6 250.1 23 248.7 22.5 246.7 21.2 246.05 20.8 245.5 20.8 244.6 20.8 244 21.4 243.35 22.05 243.35 23.05 243.35 24 244.25 24.8 247.95 27.8 253.9 27.8 258.55 27.8 261.6 25.35 264.75 22.8 264.75 18.55 264.75 14.65 262.1 12.25 259.35 9.75 254.6 9.75 253.5 9.75 252.05 10.1 250.6 10.45 249.8 10.85
L 250.8 4.75 260.4 4.75
Q 261.3 4.75 261.95 4.1 262.6 3.45 262.6 2.55 Z"/>
</g>

<g id="METSP16_IAB_480x320_psd_Asset_Group_1_copy_2_01_Frame_SFu_Catch_the_145_bus_and_the_SkyTrain_for_some_retail_therapy__0_Layer0_0_MEMBER_11_FILL">
<path fill="#FFFFFF" stroke="none" d="
M 3.55 38.2
Q 2.85 38.95 2.85 39.95
L 2.85 62.7
Q 2.85 63.75 3.5 64.45 4.15 65.15 5.2 65.15 6.25 65.15 6.9 64.4 7.55 63.7 7.55 62.65
L 7.55 62.4
Q 9.4 65.3 13.1 65.3 16.95 65.3 19.2 62.45 21.3 59.85 21.3 56 21.3 52.2 19.2 49.6 16.9 46.75 13.1 46.75 9.45 46.75 7.7 49.6
L 7.7 39.95
Q 7.7 38.95 7 38.2 6.25 37.5 5.25 37.5 4.25 37.5 3.55 38.2
M 15.3 52.4
Q 16.45 53.8 16.45 56 16.45 58.2 15.3 59.65 14.1 61.15 12.05 61.15 10.05 61.15 8.85 59.6 7.7 58.15 7.7 56 7.7 53.9 8.85 52.45 10.05 50.9 12.05 50.9 14.1 50.9 15.3 52.4 Z"/>
</g>

<g id="METSP16_IAB_480x320_psd_Asset_Group_1_copy_2_01_Frame_SFu_Catch_the_145_bus_and_the_SkyTrain_for_some_retail_therapy__0_Layer0_0_MEMBER_12_FILL">
<path fill="#FFFFFF" stroke="none" d="
M 43 47.6
Q 42.3 46.9 41.3 46.9 40.3 46.9 39.55 47.6 38.85 48.35 38.85 49.35
L 38.85 56.7
Q 38.85 58.5 37.95 59.6 36.95 60.9 35.05 60.9 33.25 60.9 32.25 59.7 31.35 58.55 31.35 56.7
L 31.35 49.35
Q 31.35 48.35 30.65 47.6 29.9 46.9 28.9 46.9 27.9 46.9 27.2 47.6 26.5 48.35 26.5 49.35
L 26.5 56.95
Q 26.5 60.65 28.35 62.95 30.3 65.3 33.6 65.3 37.25 65.3 38.85 62.35
L 38.85 62.65
Q 38.85 63.8 39.55 64.5 40.25 65.15 41.3 65.15 42.35 65.15 43 64.5 43.7 63.8 43.7 62.65
L 43.7 49.35
Q 43.7 48.35 43 47.6 Z"/>
</g>

<g id="METSP16_IAB_480x320_psd_Asset_Group_1_copy_2_01_Frame_SFu_Catch_the_145_bus_and_the_SkyTrain_for_some_retail_therapy__0_Layer0_0_MEMBER_13_FILL">
<path fill="#FFFFFF" stroke="none" d="
M 57.2 46.75
Q 53.75 46.75 51.8 48.25 49.95 49.7 49.95 52 49.95 54.25 51.35 55.65 52.9 57.25 56.6 58.25 58.5 58.75 59.15 59.15 59.9 59.6 59.9 60.3 59.9 61.75 57.35 61.75 55.4 61.75 53.45 60.5 52.45 59.85 51.55 59.85 50.85 59.85 50.3 60.3 49.8 60.75 49.8 61.4 49.8 62.7 50.85 63.5 53.4 65.3 57.25 65.3 60.65 65.3 62.6 63.8 64.55 62.3 64.55 59.85 64.55 57.4 62.7 56 61.3 54.95 57.95 54.05 55.9 53.5 55.3 53.15 54.55 52.7 54.55 51.95 54.55 50.65 57.1 50.65 58.5 50.65 60.1 51.3 60.5 51.45 61.2 51.8 61.85 52.05 62.2 52.05 64.1 52.05 64.1 50.25 64.1 48.75 61.6 47.7 59.65 46.75 57.2 46.75 Z"/>
</g>

<g id="METSP16_IAB_480x320_psd_Asset_Group_1_copy_2_01_Frame_SFu_Catch_the_145_bus_and_the_SkyTrain_for_some_retail_therapy__0_Layer0_0_MEMBER_14_FILL">
<path fill="#FFFFFF" stroke="none" d="
M 89.95 46.75
Q 87.55 46.75 85.55 47.3 82.6 48.1 82.6 49.8 82.6 50.65 83.2 51.2 83.8 51.75 84.65 51.75 85.05 51.75 86.65 51.35 88.2 50.9 89.5 50.9 91.8 50.9 92.75 51.8 93.6 52.65 93.6 54.75
L 93.6 56.05
Q 91.9 54.2 88.7 54.2 85.8 54.2 84.05 55.6 82.15 57.05 82.15 59.75 82.15 62.2 83.85 63.75 85.6 65.3 88.45 65.3 92 65.3 93.7 62.6
L 93.7 62.7
Q 93.7 63.75 94.4 64.45 95.05 65.15 96.1 65.15 97.15 65.15 97.85 64.45 98.5 63.75 98.5 62.7
L 98.5 54.45
Q 98.5 50.7 96.3 48.7 94.1 46.75 89.95 46.75
M 92.6 58.15
Q 93.6 58.8 93.6 59.75 93.6 60.7 92.6 61.4 91.65 62.05 90.2 62.05 88.8 62.05 87.9 61.45 86.95 60.8 86.95 59.75 86.95 58.7 87.85 58.1 88.75 57.45 90.2 57.45 91.6 57.45 92.6 58.15 Z"/>
</g>

<g id="METSP16_IAB_480x320_psd_Asset_Group_1_copy_2_01_Frame_SFu_Catch_the_145_bus_and_the_SkyTrain_for_some_retail_therapy__0_Layer0_0_MEMBER_15_FILL">
<path fill="#FFFFFF" stroke="none" d="
M 105.45 47.55
Q 104.75 48.25 104.75 49.4
L 104.75 62.7
Q 104.75 63.7 105.45 64.45 106.2 65.15 107.2 65.15 108.2 65.15 108.9 64.45 109.6 63.7 109.6 62.7
L 109.6 55.35
Q 109.6 53.55 110.5 52.4 111.5 51.1 113.45 51.1 115.25 51.1 116.2 52.35 117.1 53.5 117.1 55.35
L 117.1 62.7
Q 117.1 63.7 117.8 64.45 118.55 65.15 119.55 65.15 120.55 65.15 121.25 64.45 121.95 63.7 121.95 62.7
L 121.95 55.1
Q 121.95 51.35 120.1 49.1 118.2 46.75 114.85 46.75 111.25 46.75 109.6 49.7
L 109.6 49.4
Q 109.6 48.25 108.9 47.55 108.25 46.9 107.2 46.9 106.15 46.9 105.45 47.55 Z"/>
</g>

<g id="METSP16_IAB_480x320_psd_Asset_Group_1_copy_2_01_Frame_SFu_Catch_the_145_bus_and_the_SkyTrain_for_some_retail_therapy__0_Layer0_0_MEMBER_16_FILL">
<path fill="#FFFFFF" stroke="none" d="
M 141.55 38.2
Q 140.85 38.95 140.85 39.95
L 140.85 49.6
Q 139.1 46.75 135.45 46.75 131.65 46.75 129.35 49.6 127.25 52.2 127.25 56 127.25 59.85 129.35 62.45 131.65 65.3 135.45 65.3 139.15 65.3 141 62.4
L 141 62.65
Q 141 63.7 141.65 64.4 142.3 65.15 143.35 65.15 144.4 65.15 145.05 64.45 145.7 63.75 145.7 62.7
L 145.7 39.95
Q 145.7 38.95 145 38.2 144.3 37.5 143.3 37.5 142.3 37.5 141.55 38.2
M 133.25 59.65
Q 132.1 58.2 132.1 56 132.1 53.8 133.25 52.4 134.45 50.9 136.5 50.9 138.5 50.9 139.7 52.45 140.85 53.9 140.85 56 140.85 58.15 139.75 59.6 138.5 61.15 136.5 61.15 134.45 61.15 133.25 59.65 Z"/>
</g>

<g id="METSP16_IAB_480x320_psd_Asset_Group_1_copy_2_01_Frame_SFu_Catch_the_145_bus_and_the_SkyTrain_for_some_retail_therapy__0_Layer0_0_MEMBER_17_FILL">
<path fill="#FFFFFF" stroke="none" d="
M 163.3 47.8
Q 162.75 48.4 162.75 49.25 162.75 50.1 163.3 50.7 163.9 51.3 164.7 51.3
L 167.45 51.3 167.45 62.7
Q 167.45 63.7 168.15 64.45 168.85 65.15 169.85 65.15 170.85 65.15 171.6 64.45 172.3 63.7 172.3 62.7
L 172.3 51.3 175.45 51.3
Q 176.3 51.3 176.9 50.7 177.45 50.1 177.45 49.25 177.45 48.4 176.9 47.8 176.3 47.25 175.45 47.25
L 172.3 47.25 172.3 42.2
Q 172.3 41.2 171.6 40.5 170.85 39.8 169.85 39.8 168.85 39.8 168.15 40.5 167.45 41.2 167.45 42.2
L 167.45 47.25 164.7 47.25
Q 163.85 47.25 163.3 47.8 Z"/>
</g>

<g id="METSP16_IAB_480x320_psd_Asset_Group_1_copy_2_01_Frame_SFu_Catch_the_145_bus_and_the_SkyTrain_for_some_retail_therapy__0_Layer0_0_MEMBER_18_FILL">
<path fill="#FFFFFF" stroke="none" d="
M 196.9 49.1
Q 194.95 46.75 191.6 46.75 187.95 46.75 186.4 49.7
L 186.4 39.95
Q 186.4 38.95 185.7 38.2 184.95 37.5 183.95 37.5 182.95 37.5 182.2 38.2 181.5 38.95 181.5 39.95
L 181.5 62.7
Q 181.5 63.7 182.2 64.45 182.95 65.15 183.95 65.15 184.95 65.15 185.7 64.45 186.4 63.7 186.4 62.7
L 186.4 55.35
Q 186.4 53.55 187.3 52.4 188.3 51.1 190.2 51.1 192 51.1 193 52.35 193.9 53.5 193.9 55.35
L 193.9 62.7
Q 193.9 63.7 194.6 64.45 195.3 65.15 196.3 65.15 197.3 65.15 198.05 64.45 198.75 63.7 198.75 62.7
L 198.75 55.1
Q 198.75 51.4 196.9 49.1 Z"/>
</g>

<g id="METSP16_IAB_480x320_psd_Asset_Group_1_copy_2_01_Frame_SFu_Catch_the_145_bus_and_the_SkyTrain_for_some_retail_therapy__0_Layer0_0_MEMBER_19_FILL">
<path fill="#FFFFFF" stroke="none" d="
M 213.15 46.75
Q 209.2 46.75 206.6 49.35 204 52 204 56 204 60 206.35 62.55 208.85 65.3 213.25 65.3 216.6 65.3 219.15 63.7 220.9 62.55 220.9 61.25 220.9 60.5 220.4 60 219.85 59.45 218.95 59.45 218.3 59.45 217.15 60.3 215.65 61.45 213.45 61.45 211.45 61.45 210.3 60.3 209.25 59.3 209.05 57.6
L 219.85 57.6
Q 221.6 57.6 221.6 56 221.6 52 219.3 49.4 216.95 46.75 213.15 46.75
M 215.75 51.7
Q 216.65 52.65 216.95 54.15
L 209.15 54.15
Q 209.35 52.6 210.4 51.65 211.5 50.65 213.15 50.65 214.7 50.65 215.75 51.7 Z"/>
</g>

<g id="METSP16_IAB_480x320_psd_Asset_Group_1_copy_2_01_Frame_SFu_Catch_the_145_bus_and_the_SkyTrain_for_some_retail_therapy__0_Layer0_0_MEMBER_20_FILL">
<path fill="#FFFFFF" stroke="none" d="
M 13.25 79.25
Q 15.9 79.25 19.6 80.95 20.05 81.15 20.6 81.15 21.55 81.15 22.1 80.45 22.6 79.8 22.6 78.9 22.6 77.8 21.2 76.85 20.05 76.05 18.4 75.6 15.8 74.85 13.2 74.85 8.25 74.85 5.45 76.8 2.5 78.8 2.5 82.45 2.5 85.6 4.5 87.4 6.65 89.35 12.05 90.8 15.7 91.75 17.05 92.65 18.45 93.6 18.45 95.05 18.45 96.55 17.2 97.45 15.8 98.45 13.05 98.45 10.55 98.45 8.7 97.7 7.95 97.35 5.55 95.9 4.9 95.5 4.3 95.5 3.35 95.5 2.8 96.1 2.25 96.65 2.25 97.6 2.25 98.85 3.6 99.95 5.3 101.3 7.95 102.05 10.45 102.8 12.95 102.8 18 102.8 20.75 100.55 23.4 98.45 23.4 94.8 23.4 91.25 20.75 89.25 18.85 87.8 13.95 86.4 10.05 85.3 8.85 84.6 7.45 83.75 7.45 82.3 7.45 79.25 13.25 79.25 Z"/>
</g>

<g id="METSP16_IAB_480x320_psd_Asset_Group_1_copy_2_01_Frame_SFu_Catch_the_145_bus_and_the_SkyTrain_for_some_retail_therapy__0_Layer0_0_MEMBER_21_FILL">
<path fill="#FFFFFF" stroke="none" d="
M 34 96.1
L 36.05 94.5 41.4 101.7
Q 42.05 102.65 43.05 102.65 44.1 102.65 44.75 101.95 45.35 101.35 45.35 100.35 45.35 99.65 44.95 99.1
L 39.55 91.8 44.05 88.3
Q 45.1 87.45 45.1 86.7 45.1 85.75 44.45 85.1 43.8 84.4 42.8 84.4 42.05 84.4 41.4 84.9
L 34 90.6 34 77.5
Q 34 76.5 33.3 75.75 32.55 75 31.55 75 30.55 75 29.85 75.75 29.15 76.5 29.15 77.5
L 29.15 100.2
Q 29.15 101.2 29.85 101.95 30.55 102.65 31.55 102.65 32.55 102.65 33.3 101.95 34 101.2 34 100.2
L 34 96.1 Z"/>
</g>

<g id="METSP16_IAB_480x320_psd_Asset_Group_1_copy_2_01_Frame_SFu_Catch_the_145_bus_and_the_SkyTrain_for_some_retail_therapy__0_Layer0_0_MEMBER_22_FILL">
<path fill="#FFFFFF" stroke="none" d="
M 49 86.65
Q 49 86.95 49.2 87.55
L 55 101.85
Q 54.35 103.25 53.5 104.25 52.8 105.1 51.4 106.2 50.25 107.1 50.25 108.2 50.25 109 50.9 109.6 51.55 110.2 52.4 110.2 53.15 110.2 53.5 109.95 58.05 107.2 61.05 99.85 63.25 94.4 65.6 87.55 65.75 86.95 65.75 86.65 65.75 85.7 65.15 85.1 64.55 84.4 63.6 84.4 61.95 84.4 61.6 85.7
L 57.75 97.4 53.25 85.7
Q 52.7 84.4 51.2 84.4 50.25 84.4 49.6 85.1 49 85.75 49 86.65 Z"/>
</g>

<g id="METSP16_IAB_480x320_psd_Asset_Group_1_copy_2_01_Frame_SFu_Catch_the_145_bus_and_the_SkyTrain_for_some_retail_therapy__0_Layer0_0_MEMBER_23_FILL">
<path fill="#FFFFFF" stroke="none" d="
M 91.5 79.3
Q 92.15 78.65 92.15 77.7 92.15 76.75 91.45 76.05 90.8 75.35 89.8 75.35
L 70.95 75.35
Q 70 75.35 69.3 76.05 68.6 76.75 68.6 77.7 68.6 78.65 69.3 79.3 70 80 70.95 80
L 77.95 80 77.95 100.15
Q 77.95 101.15 78.65 101.9 79.35 102.65 80.35 102.65 81.4 102.65 82.15 101.9 82.9 101.15 82.9 100.15
L 82.9 80 89.8 80
Q 90.8 80 91.5 79.3 Z"/>
</g>

<g id="METSP16_IAB_480x320_psd_Asset_Group_1_copy_2_01_Frame_SFu_Catch_the_145_bus_and_the_SkyTrain_for_some_retail_therapy__0_Layer0_0_MEMBER_24_FILL">
<path fill="#FFFFFF" stroke="none" d="
M 97.05 87.35
L 97.05 86.9
Q 97.05 85.9 96.35 85.15 95.65 84.4 94.65 84.4 93.55 84.4 92.85 85.1 92.15 85.8 92.15 86.9
L 92.15 100.2
Q 92.15 101.2 92.9 101.95 93.65 102.65 94.65 102.65 95.65 102.65 96.35 101.95 97.05 101.2 97.05 100.2
L 97.05 93.9
Q 97.05 91.45 98.35 90.05 99.6 88.65 101.8 88.65 102.75 88.65 103.4 88 104 87.35 104 86.45 104 85.5 103.45 84.9 102.8 84.25 101.8 84.25 98.4 84.25 97.05 87.35 Z"/>
</g>

<g id="METSP16_IAB_480x320_psd_Asset_Group_1_copy_2_01_Frame_SFu_Catch_the_145_bus_and_the_SkyTrain_for_some_retail_therapy__0_Layer0_0_MEMBER_25_FILL">
<path fill="#FFFFFF" stroke="none" d="
M 109.25 93.1
Q 107.35 94.55 107.35 97.25 107.35 99.7 109.05 101.25 110.8 102.8 113.65 102.8 117.2 102.8 118.9 100.15
L 118.9 100.2
Q 118.9 101.25 119.6 101.95 120.25 102.65 121.3 102.65 122.35 102.65 123.05 101.95 123.7 101.25 123.7 100.2
L 123.7 91.95
Q 123.7 88.2 121.5 86.25 119.3 84.25 115.15 84.25 112.7 84.25 110.75 84.8 107.8 85.6 107.8 87.3 107.8 88.15 108.4 88.75 109 89.3 109.85 89.3 110.25 89.3 111.8 88.85 113.35 88.4 114.7 88.4 117 88.4 117.95 89.3 118.8 90.15 118.8 92.25
L 118.8 93.55
Q 117.1 91.7 113.9 91.7 111 91.7 109.25 93.1
M 113.1 98.95
Q 112.15 98.3 112.15 97.25 112.15 96.2 113.05 95.6 113.95 94.95 115.4 94.95 116.8 94.95 117.8 95.65 118.8 96.3 118.8 97.25 118.8 98.2 117.8 98.9 116.85 99.55 115.4 99.55 114 99.55 113.1 98.95 Z"/>
</g>

<g id="METSP16_IAB_480x320_psd_Asset_Group_1_copy_2_01_Frame_SFu_Catch_the_145_bus_and_the_SkyTrain_for_some_retail_therapy__0_Layer0_0_MEMBER_26_FILL">
<path fill="#FFFFFF" stroke="none" d="
M 134.35 77.15
Q 133.55 76.35 132.4 76.35 131.25 76.35 130.45 77.15 129.65 77.95 129.65 79.1 129.65 80.25 130.45 81.05 131.25 81.85 132.4 81.85 133.55 81.85 134.35 81.05 135.15 80.25 135.15 79.1 135.15 77.95 134.35 77.15
M 134.1 85.1
Q 133.4 84.4 132.4 84.4 131.4 84.4 130.65 85.1 129.95 85.85 129.95 86.85
L 129.95 100.2
Q 129.95 101.2 130.65 101.95 131.4 102.65 132.4 102.65 133.4 102.65 134.1 101.95 134.8 101.2 134.8 100.2
L 134.8 86.85
Q 134.8 85.85 134.1 85.1 Z"/>
</g>

<g id="METSP16_IAB_480x320_psd_Asset_Group_1_copy_2_01_Frame_SFu_Catch_the_145_bus_and_the_SkyTrain_for_some_retail_therapy__0_Layer0_0_MEMBER_27_FILL">
<path fill="#FFFFFF" stroke="none" d="
M 143.95 84.4
Q 142.9 84.4 142.2 85.05 141.5 85.75 141.5 86.9
L 141.5 100.2
Q 141.5 101.2 142.2 101.95 142.95 102.65 143.95 102.65 144.95 102.65 145.65 101.95 146.35 101.2 146.35 100.2
L 146.35 92.85
Q 146.35 91.1 147.25 89.95 148.25 88.65 150.15 88.65 152 88.65 152.95 89.85 153.85 91 153.85 92.85
L 153.85 100.2
Q 153.85 101.2 154.55 101.95 155.3 102.65 156.3 102.65 157.3 102.65 158 101.95 158.7 101.2 158.7 100.2
L 158.7 92.6
Q 158.7 88.9 156.85 86.6 154.9 84.25 151.6 84.25 148.05 84.25 146.35 87.2
L 146.35 86.9
Q 146.35 85.75 145.65 85.05 145 84.4 143.95 84.4 Z"/>
</g>

<g id="METSP16_IAB_480x320_psd_Asset_Group_1_copy_2_01_Frame_SFu_Catch_the_145_bus_and_the_SkyTrain_for_some_retail_therapy__0_Layer0_0_MEMBER_28_FILL">
<path fill="#FFFFFF" stroke="none" d="
M 180.9 77.2
Q 179.2 79.05 179.2 82.25
L 179.2 84.75 177.15 84.75
Q 176.3 84.75 175.7 85.35 175.1 85.9 175.1 86.75 175.1 87.6 175.7 88.2 176.3 88.8 177.15 88.8
L 179.2 88.8 179.2 100.2
Q 179.2 101.2 179.9 101.95 180.65 102.65 181.65 102.65 182.65 102.65 183.4 101.95 184.1 101.2 184.1 100.2
L 184.1 88.8 187.4 88.8
Q 188.25 88.8 188.85 88.2 189.4 87.6 189.4 86.75 189.4 85.9 188.85 85.35 188.25 84.75 187.4 84.75
L 184.1 84.75 184.1 81.8
Q 184.1 79.25 186.65 79.25
L 187.8 79.25
Q 188.65 79.25 189.25 78.65 189.85 78.05 189.85 77.2 189.85 76.35 189.25 75.75 188.65 75.2 187.8 75.2
L 186.2 75.2
Q 182.75 75.2 180.9 77.2 Z"/>
</g>

<g id="METSP16_IAB_480x320_psd_Asset_Group_1_copy_2_01_Frame_SFu_Catch_the_145_bus_and_the_SkyTrain_for_some_retail_therapy__0_Layer0_0_MEMBER_29_FILL">
<path fill="#FFFFFF" stroke="none" d="
M 194.45 87
Q 191.85 89.65 191.85 93.55 191.85 97.45 194.45 100.1 197.1 102.8 201.15 102.8 205.2 102.8 207.8 100.1 210.4 97.45 210.4 93.55 210.4 89.65 207.8 87 205.15 84.25 201.15 84.25 197.1 84.25 194.45 87
M 197.85 89.95
Q 199.1 88.45 201.15 88.45 203.2 88.45 204.45 89.95 205.65 91.4 205.65 93.55 205.65 95.65 204.45 97.1 203.2 98.6 201.15 98.6 199.1 98.6 197.85 97.1 196.65 95.65 196.65 93.55 196.65 91.4 197.85 89.95 Z"/>
</g>

<g id="METSP16_IAB_480x320_psd_Asset_Group_1_copy_2_01_Frame_SFu_Catch_the_145_bus_and_the_SkyTrain_for_some_retail_therapy__0_Layer0_0_MEMBER_30_FILL">
<path fill="#FFFFFF" stroke="none" d="
M 220.85 87.35
L 220.85 86.9
Q 220.85 85.9 220.15 85.15 219.45 84.4 218.45 84.4 217.35 84.4 216.65 85.1 215.95 85.8 215.95 86.9
L 215.95 100.2
Q 215.95 101.2 216.7 101.95 217.45 102.65 218.45 102.65 219.45 102.65 220.15 101.95 220.85 101.2 220.85 100.2
L 220.85 93.9
Q 220.85 91.45 222.15 90.05 223.4 88.65 225.6 88.65 226.55 88.65 227.2 88 227.8 87.35 227.8 86.45 227.8 85.5 227.25 84.9 226.6 84.25 225.6 84.25 222.2 84.25 220.85 87.35 Z"/>
</g>

<g id="METSP16_IAB_480x320_psd_Asset_Group_1_copy_2_01_Frame_SFu_Catch_the_145_bus_and_the_SkyTrain_for_some_retail_therapy__0_Layer0_0_MEMBER_31_FILL">
<path fill="#FFFFFF" stroke="none" d="
M 14.05 122.7
Q 12.1 121.75 9.65 121.75 6.15 121.75 4.25 123.3 2.4 124.7 2.4 127.05 2.4 129.3 3.8 130.7 5.35 132.3 9.05 133.25 10.95 133.75 11.6 134.15 12.35 134.6 12.35 135.3 12.35 136.75 9.8 136.75 7.95 136.75 5.9 135.55 4.95 134.85 4 134.85 3.25 134.85 2.75 135.3 2.25 135.75 2.25 136.45 2.25 137.8 3.3 138.5 5.65 140.3 9.7 140.3 13.1 140.3 15.05 138.8 16.95 137.35 16.95 134.9 16.95 132.4 15.1 131 13.7 129.95 10.35 129.05 8.35 128.5 7.7 128.15 7 127.7 7 127 7 125.65 9.5 125.65 10.9 125.65 12.5 126.3 12.9 126.45 13.65 126.8 14.25 127.05 14.65 127.05 16.55 127.05 16.55 125.3 16.55 123.8 14.05 122.7 Z"/>
</g>

<g id="METSP16_IAB_480x320_psd_Asset_Group_1_copy_2_01_Frame_SFu_Catch_the_145_bus_and_the_SkyTrain_for_some_retail_therapy__0_Layer0_0_MEMBER_32_FILL">
<path fill="#FFFFFF" stroke="none" d="
M 39.85 131.05
Q 39.85 127.15 37.25 124.5 34.6 121.75 30.6 121.75 26.55 121.75 23.9 124.5 21.3 127.15 21.3 131.05 21.3 134.95 23.9 137.6 26.55 140.3 30.6 140.3 34.65 140.3 37.25 137.6 39.85 134.95 39.85 131.05
M 33.9 127.5
Q 35.1 128.95 35.1 131.05 35.1 133.15 33.9 134.6 32.65 136.1 30.6 136.1 28.55 136.1 27.3 134.6 26.1 133.15 26.1 131.05 26.1 128.95 27.3 127.5 28.55 126 30.6 126 32.65 126 33.9 127.5 Z"/>
</g>

<g id="METSP16_IAB_480x320_psd_Asset_Group_1_copy_2_01_Frame_SFu_Catch_the_145_bus_and_the_SkyTrain_for_some_retail_therapy__0_Layer0_0_MEMBER_33_FILL">
<path fill="#FFFFFF" stroke="none" d="
M 67.25 121.75
Q 65.25 121.75 63.55 122.6 61.95 123.4 61 124.8 59.1 121.75 55.35 121.75 51.95 121.75 50.25 124.7
L 50.25 124.4
Q 50.25 123.35 49.6 122.65 48.9 121.9 47.85 121.9 46.75 121.9 46.05 122.65 45.4 123.35 45.4 124.4
L 45.4 137.7
Q 45.4 138.7 46.1 139.45 46.85 140.15 47.85 140.15 48.85 140.15 49.55 139.45 50.25 138.7 50.25 137.7
L 50.25 130.35
Q 50.25 128.55 51.05 127.45 52 126.15 53.9 126.15 57.45 126.15 57.45 130.35
L 57.45 137.7
Q 57.45 138.7 58.2 139.45 58.9 140.15 59.9 140.15 60.9 140.15 61.65 139.45 62.35 138.7 62.35 137.7
L 62.35 130.35
Q 62.35 128.55 63.15 127.45 64.1 126.15 66 126.15 67.8 126.15 68.7 127.35 69.5 128.45 69.5 130.35
L 69.5 137.7
Q 69.5 138.7 70.2 139.45 70.95 140.15 71.95 140.15 72.95 140.15 73.7 139.45 74.4 138.7 74.4 137.7
L 74.4 129.95
Q 74.4 126.15 72.65 124.05 70.8 121.75 67.25 121.75 Z"/>
</g>

<g id="METSP16_IAB_480x320_psd_Asset_Group_1_copy_2_01_Frame_SFu_Catch_the_145_bus_and_the_SkyTrain_for_some_retail_therapy__0_Layer0_0_MEMBER_34_FILL">
<path fill="#FFFFFF" stroke="none" d="
M 95.5 132.6
Q 97.25 132.6 97.25 131.05 97.25 127 94.95 124.4 92.6 121.75 88.85 121.75 84.9 121.75 82.3 124.4 79.7 127.05 79.7 131.05 79.7 135.05 82.05 137.55 84.55 140.3 88.9 140.3 92.3 140.3 94.85 138.7 96.6 137.55 96.6 136.25 96.6 135.5 96.1 135 95.55 134.5 94.65 134.5 93.85 134.5 92.85 135.3 91.3 136.45 89.1 136.45 87.15 136.45 86 135.35 84.95 134.3 84.75 132.6
L 95.5 132.6
M 91.45 126.7
Q 92.35 127.7 92.65 129.2
L 84.85 129.2
Q 85 127.6 86.1 126.65 87.2 125.65 88.85 125.65 90.4 125.65 91.45 126.7 Z"/>
</g>

<g id="METSP16_IAB_480x320_psd_Asset_Group_1_copy_2_01_Frame_SFu_Catch_the_145_bus_and_the_SkyTrain_for_some_retail_therapy__0_Layer0_0_MEMBER_35_FILL">
<path fill="#FFFFFF" stroke="none" d="
M 126.9 125.5
Q 127.5 124.85 127.5 123.95 127.5 123 126.95 122.4 126.35 121.75 125.35 121.75 121.95 121.75 120.6 124.85
L 120.6 124.4
Q 120.6 123.4 119.9 122.65 119.15 121.9 118.15 121.9 117.05 121.9 116.4 122.6 115.7 123.3 115.7 124.4
L 115.7 137.7
Q 115.7 138.7 116.45 139.45 117.15 140.15 118.15 140.15 119.15 140.15 119.9 139.45 120.6 138.7 120.6 137.7
L 120.6 131.4
Q 120.6 128.95 121.9 127.55 123.15 126.15 125.35 126.15 126.3 126.15 126.9 125.5 Z"/>
</g>

<g id="METSP16_IAB_480x320_psd_Asset_Group_1_copy_2_01_Frame_SFu_Catch_the_145_bus_and_the_SkyTrain_for_some_retail_therapy__0_Layer0_0_MEMBER_36_FILL">
<path fill="#FFFFFF" stroke="none" d="
M 136.45 135.35
Q 135.4 134.35 135.2 132.6
L 146 132.6
Q 146.85 132.6 147.35 132.1 147.75 131.7 147.75 131.05 147.75 127 145.45 124.4 143.1 121.75 139.3 121.75 135.35 121.75 132.75 124.4 130.15 127.05 130.15 131.05 130.15 135.05 132.5 137.55 135 140.3 139.4 140.3 142.75 140.3 145.3 138.7 147.05 137.55 147.05 136.25 147.05 135.5 146.55 135 146 134.5 145.1 134.5 144.35 134.5 143.3 135.3 141.8 136.45 139.6 136.45 137.6 136.45 136.45 135.35
M 136.55 126.65
Q 137.65 125.65 139.3 125.65 140.85 125.65 141.9 126.7 142.8 127.7 143.1 129.2
L 135.3 129.2
Q 135.5 127.6 136.55 126.65 Z"/>
</g>

<g id="METSP16_IAB_480x320_psd_Asset_Group_1_copy_2_01_Frame_SFu_Catch_the_145_bus_and_the_SkyTrain_for_some_retail_therapy__0_Layer0_0_MEMBER_37_FILL">
<path fill="#FFFFFF" stroke="none" d="
M 164.95 122.85
Q 164.35 122.25 163.5 122.25
L 160.35 122.25 160.35 117.2
Q 160.35 116.2 159.65 115.5 158.9 114.8 157.9 114.8 156.9 114.8 156.2 115.5 155.5 116.2 155.5 117.2
L 155.5 122.25 152.75 122.25
Q 151.95 122.25 151.35 122.85 150.8 123.4 150.8 124.25 150.8 125.1 151.35 125.7 151.95 126.3 152.75 126.3
L 155.5 126.3 155.5 137.7
Q 155.5 138.7 156.2 139.45 156.9 140.15 157.9 140.15 158.9 140.15 159.65 139.45 160.35 138.7 160.35 137.7
L 160.35 126.3 163.5 126.3
Q 164.35 126.3 164.95 125.7 165.5 125.1 165.5 124.25 165.5 123.4 164.95 122.85 Z"/>
</g>

<g id="METSP16_IAB_480x320_psd_Asset_Group_1_copy_2_01_Frame_SFu_Catch_the_145_bus_and_the_SkyTrain_for_some_retail_therapy__0_Layer0_0_MEMBER_38_FILL">
<path fill="#FFFFFF" stroke="none" d="
M 176.55 121.75
Q 174.15 121.75 172.15 122.3 169.2 123.1 169.2 124.8 169.2 125.65 169.8 126.25 170.4 126.8 171.3 126.8 171.65 126.8 173.25 126.35 174.8 125.9 176.1 125.9 178.4 125.9 179.35 126.8 180.25 127.7 180.25 129.8
L 180.25 131.1
Q 178.5 129.2 175.35 129.2 172.45 129.2 170.65 130.6 168.75 132.1 168.75 134.75 168.75 137.2 170.45 138.75 172.2 140.3 175.1 140.3 178.7 140.3 180.3 137.65
L 180.3 137.7
Q 180.3 138.75 181 139.45 181.65 140.15 182.7 140.15 183.75 140.15 184.45 139.45 185.1 138.75 185.1 137.7
L 185.1 129.45
Q 185.1 125.7 182.9 123.75 180.7 121.75 176.55 121.75
M 173.6 134.75
Q 173.6 133.7 174.5 133.1 175.35 132.45 176.85 132.45 178.25 132.45 179.25 133.15 180.25 133.8 180.25 134.75 180.25 135.75 179.25 136.4 178.25 137.1 176.85 137.1 175.4 137.1 174.5 136.45 173.6 135.85 173.6 134.75 Z"/>
</g>

<g id="METSP16_IAB_480x320_psd_Asset_Group_1_copy_2_01_Frame_SFu_Catch_the_145_bus_and_the_SkyTrain_for_some_retail_therapy__0_Layer0_0_MEMBER_39_FILL">
<path fill="#FFFFFF" stroke="none" d="
M 195.55 122.6
Q 194.8 121.9 193.8 121.9 192.8 121.9 192.05 122.6 191.35 123.35 191.35 124.35
L 191.35 137.7
Q 191.35 138.7 192.05 139.45 192.8 140.15 193.8 140.15 194.8 140.15 195.55 139.45 196.25 138.7 196.25 137.7
L 196.25 124.35
Q 196.25 123.35 195.55 122.6
M 191.85 114.65
Q 191.05 115.45 191.05 116.6 191.05 117.75 191.85 118.55 192.65 119.35 193.8 119.35 194.95 119.35 195.75 118.55 196.55 117.75 196.55 116.6 196.55 115.45 195.75 114.65 194.95 113.85 193.8 113.85 192.65 113.85 191.85 114.65 Z"/>
</g>

<g id="METSP16_IAB_480x320_psd_Asset_Group_1_copy_2_01_Frame_SFu_Catch_the_145_bus_and_the_SkyTrain_for_some_retail_therapy__0_Layer0_0_MEMBER_40_FILL">
<path fill="#FFFFFF" stroke="none" d="
M 207.75 114.95
Q 207.75 113.95 207.05 113.25 206.35 112.55 205.35 112.55 204.35 112.55 203.6 113.25 202.9 113.95 202.9 114.95
L 202.9 137.7
Q 202.9 138.7 203.6 139.45 204.35 140.15 205.35 140.15 206.35 140.15 207.05 139.45 207.75 138.7 207.75 137.7
L 207.75 114.95 Z"/>
</g>

<g id="METSP16_IAB_480x320_psd_Asset_Group_1_copy_2_01_Frame_SFu_Catch_the_145_bus_and_the_SkyTrain_for_some_retail_therapy__0_Layer0_0_MEMBER_41_FILL">
<path fill="#FFFFFF" stroke="none" d="
M 14.55 160.35
Q 14 159.75 13.15 159.75
L 9.95 159.75 9.95 154.75
Q 9.95 153.75 9.25 153 8.55 152.3 7.55 152.3 6.55 152.3 5.8 153 5.1 153.75 5.1 154.75
L 5.1 159.75 2.4 159.75
Q 1.55 159.75 0.95 160.35 0.4 160.95 0.4 161.8 0.4 162.65 0.95 163.2 1.55 163.8 2.4 163.8
L 5.1 163.8 5.1 175.25
Q 5.1 176.25 5.8 176.95 6.55 177.65 7.55 177.65 8.55 177.65 9.25 176.95 9.95 176.25 9.95 175.25
L 9.95 163.8 13.15 163.8
Q 14 163.8 14.55 163.2 15.15 162.65 15.15 161.8 15.15 160.95 14.55 160.35 Z"/>
</g>

<g id="METSP16_IAB_480x320_psd_Asset_Group_1_copy_2_01_Frame_SFu_Catch_the_145_bus_and_the_SkyTrain_for_some_retail_therapy__0_Layer0_0_MEMBER_42_FILL">
<path fill="#FFFFFF" stroke="none" d="
M 23.35 150.75
Q 22.65 150.05 21.65 150.05 20.65 150.05 19.9 150.75 19.2 151.45 19.2 152.45
L 19.2 175.25
Q 19.2 176.25 19.9 176.95 20.65 177.65 21.65 177.65 22.65 177.65 23.35 176.95 24.05 176.25 24.05 175.25
L 24.05 167.85
Q 24.05 166.1 24.95 164.95 25.95 163.65 27.85 163.65 29.7 163.65 30.65 164.85 31.55 166 31.55 167.85
L 31.55 175.25
Q 31.55 176.25 32.25 176.95 33 177.65 34 177.65 35 177.65 35.7 176.95 36.4 176.25 36.4 175.25
L 36.4 167.6
Q 36.4 163.85 34.55 161.6 32.65 159.25 29.3 159.25 25.7 159.25 24.05 162.25
L 24.05 152.45
Q 24.05 151.5 23.35 150.75 Z"/>
</g>

<g id="METSP16_IAB_480x320_psd_Asset_Group_1_copy_2_01_Frame_SFu_Catch_the_145_bus_and_the_SkyTrain_for_some_retail_therapy__0_Layer0_0_MEMBER_43_FILL">
<path fill="#FFFFFF" stroke="none" d="
M 44.3 161.9
Q 41.7 164.55 41.7 168.55 41.7 172.55 44.05 175.1 46.55 177.85 50.9 177.85 54.25 177.85 56.85 176.2 58.6 175.15 58.6 173.75 58.6 173 58.1 172.5 57.55 172 56.65 172 55.85 172 54.85 172.8 53.35 174 51.1 174 49.15 174 48 172.85 46.95 171.85 46.75 170.15
L 57.5 170.15
Q 59.25 170.15 59.25 168.55 59.25 164.5 56.95 161.9 54.6 159.25 50.85 159.25 46.9 159.25 44.3 161.9
M 46.85 166.7
Q 47 165.1 48.1 164.15 49.2 163.15 50.85 163.15 52.4 163.15 53.45 164.2 54.35 165.2 54.65 166.7
L 46.85 166.7 Z"/>
</g>

<g id="METSP16_IAB_480x320_psd_Asset_Group_1_copy_2_01_Frame_SFu_Catch_the_145_bus_and_the_SkyTrain_for_some_retail_therapy__0_Layer0_0_MEMBER_44_FILL">
<path fill="#FFFFFF" stroke="none" d="
M 76.2 159.9
Q 75.6 159.25 74.6 159.25 71.2 159.25 69.85 162.35
L 69.85 161.9
Q 69.85 160.9 69.15 160.15 68.4 159.45 67.4 159.45 66.3 159.45 65.65 160.15 64.95 160.8 64.95 161.9
L 64.95 175.25
Q 64.95 176.25 65.65 176.95 66.4 177.65 67.4 177.65 68.4 177.65 69.15 176.95 69.85 176.25 69.85 175.25
L 69.85 168.9
Q 69.85 166.45 71.15 165.05 72.4 163.65 74.6 163.65 75.55 163.65 76.15 163 76.75 162.35 76.75 161.45 76.75 160.5 76.2 159.9 Z"/>
</g>

<g id="METSP16_IAB_480x320_psd_Asset_Group_1_copy_2_01_Frame_SFu_Catch_the_145_bus_and_the_SkyTrain_for_some_retail_therapy__0_Layer0_0_MEMBER_45_FILL">
<path fill="#FFFFFF" stroke="none" d="
M 87.9 159.25
Q 85.55 159.25 83.5 159.8 80.55 160.6 80.55 162.3 80.55 163.15 81.15 163.75 81.75 164.3 82.65 164.3 83.05 164.3 84.6 163.85 86.15 163.4 87.45 163.4 89.75 163.4 90.7 164.35 91.6 165.2 91.6 167.3
L 91.6 168.6
Q 89.85 166.75 86.7 166.75 83.75 166.75 82 168.15 80.15 169.6 80.15 172.3 80.15 174.75 81.85 176.3 83.55 177.85 86.45 177.85 90 177.85 91.65 175.15
L 91.65 175.25
Q 91.65 176.25 92.35 176.95 93.05 177.65 94.05 177.65 95.1 177.65 95.8 176.95 96.45 176.25 96.45 175.25
L 96.45 166.95
Q 96.45 163.2 94.25 161.25 92.05 159.25 87.9 159.25
M 88.2 169.95
Q 89.6 169.95 90.6 170.65 91.6 171.3 91.6 172.3 91.6 173.25 90.6 173.9 89.6 174.6 88.2 174.6 86.8 174.6 85.9 174 84.95 173.35 84.95 172.3 84.95 171.2 85.85 170.6 86.7 169.95 88.2 169.95 Z"/>
</g>

<g id="METSP16_IAB_480x320_psd_Asset_Group_1_copy_2_01_Frame_SFu_Catch_the_145_bus_and_the_SkyTrain_for_some_retail_therapy__0_Layer0_0_MEMBER_46_FILL">
<path fill="#FFFFFF" stroke="none" d="
M 106.8 160.15
Q 106.15 159.45 105.1 159.45 104.05 159.45 103.4 160.15 102.75 160.85 102.75 161.85
L 102.75 182.8
Q 102.75 183.8 103.45 184.55 104.15 185.25 105.15 185.25 106.15 185.25 106.9 184.55 107.6 183.8 107.6 182.8
L 107.6 174.95
Q 109.35 177.85 113 177.85 116.85 177.85 119.1 175 121.2 172.4 121.2 168.55 121.2 164.7 119.1 162.1 116.85 159.25 113 159.25 109.3 159.25 107.45 162.15
L 107.45 161.9
Q 107.45 160.85 106.8 160.15
M 107.6 168.55
Q 107.6 166.4 108.75 164.95 109.95 163.4 111.95 163.4 113.95 163.4 115.2 164.9 116.35 166.35 116.35 168.55 116.35 170.75 115.2 172.2 113.95 173.7 111.95 173.7 109.95 173.7 108.75 172.15 107.6 170.7 107.6 168.55 Z"/>
</g>

<g id="METSP16_IAB_480x320_psd_Asset_Group_1_copy_2_01_Frame_SFu_Catch_the_145_bus_and_the_SkyTrain_for_some_retail_therapy__0_Layer0_0_MEMBER_47_FILL">
<path fill="#FFFFFF" stroke="none" d="
M 139.55 159.45
Q 137.85 159.45 137.55 160.75
L 133.7 172.4 129.2 160.75
Q 128.65 159.45 127.15 159.45 126.2 159.45 125.55 160.1 124.95 160.75 124.95 161.65 124.95 161.95 125.15 162.55
L 130.95 176.85
Q 130.35 178.3 129.45 179.3 128.8 180.1 127.35 181.25 126.2 182.15 126.2 183.2 126.2 184.05 126.85 184.65 127.5 185.25 128.35 185.25 129 185.25 129.45 184.95 134 182.2 137 174.85 139.95 167.55 141.55 162.55 141.7 161.95 141.7 161.65 141.7 160.75 141.1 160.1 140.5 159.45 139.55 159.45 Z"/>
</g>

<g id="METSP16_IAB_480x320_psd_Asset_Group_1_copy_2_01_Frame_SFu_Catch_the_145_bus_and_the_SkyTrain_for_some_retail_therapy__0_Layer0_0_MEMBER_48_FILL">
<path fill="#FFFFFF" stroke="none" d="
M 147.7 176.8
Q 148.5 176 148.5 174.85 148.5 173.7 147.7 172.85 146.85 172.05 145.7 172.05 144.55 172.05 143.75 172.85 142.95 173.7 142.95 174.85 142.95 176 143.75 176.8 144.55 177.6 145.7 177.6 146.85 177.6 147.7 176.8 Z"/>
</g>
</defs>

<g transform="matrix( 1, 0, 0, 1, -48,-216) ">
<g transform="matrix( 1, 0, 0, 1, 65,288) ">
<g transform="matrix( 1, 0, 0, 1, 0,0) ">
<g transform="matrix( 1, 0, 0, 0.999755859375, -0.2,-0.55) ">
<use xlink:href="#METSP16_IAB_480x320_psd_Asset_Group_1_copy_2_01_Frame_SFu_Catch_the_145_bus_and_the_SkyTrain_for_some_retail_therapy__0_Layer0_0_MEMBER_0_FILL"/>
</g>

<g transform="matrix( 1, 0, 0, 0.999755859375, -0.2,-0.55) ">
<use xlink:href="#METSP16_IAB_480x320_psd_Asset_Group_1_copy_2_01_Frame_SFu_Catch_the_145_bus_and_the_SkyTrain_for_some_retail_therapy__0_Layer0_0_MEMBER_1_FILL"/>
</g>

<g transform="matrix( 1, 0, 0, 0.999755859375, -0.2,-0.55) ">
<use xlink:href="#METSP16_IAB_480x320_psd_Asset_Group_1_copy_2_01_Frame_SFu_Catch_the_145_bus_and_the_SkyTrain_for_some_retail_therapy__0_Layer0_0_MEMBER_2_FILL"/>
</g>

<g transform="matrix( 1, 0, 0, 0.999755859375, -0.2,-0.55) ">
<use xlink:href="#METSP16_IAB_480x320_psd_Asset_Group_1_copy_2_01_Frame_SFu_Catch_the_145_bus_and_the_SkyTrain_for_some_retail_therapy__0_Layer0_0_MEMBER_3_FILL"/>
</g>

<g transform="matrix( 1, 0, 0, 0.999755859375, -0.2,-0.55) ">
<use xlink:href="#METSP16_IAB_480x320_psd_Asset_Group_1_copy_2_01_Frame_SFu_Catch_the_145_bus_and_the_SkyTrain_for_some_retail_therapy__0_Layer0_0_MEMBER_4_FILL"/>
</g>

<g transform="matrix( 1, 0, 0, 0.999755859375, -0.2,-0.55) ">
<use xlink:href="#METSP16_IAB_480x320_psd_Asset_Group_1_copy_2_01_Frame_SFu_Catch_the_145_bus_and_the_SkyTrain_for_some_retail_therapy__0_Layer0_0_MEMBER_5_FILL"/>
</g>

<g transform="matrix( 1, 0, 0, 0.999755859375, -0.2,-0.55) ">
<use xlink:href="#METSP16_IAB_480x320_psd_Asset_Group_1_copy_2_01_Frame_SFu_Catch_the_145_bus_and_the_SkyTrain_for_some_retail_therapy__0_Layer0_0_MEMBER_6_FILL"/>
</g>

<g transform="matrix( 1, 0, 0, 0.999755859375, -0.2,-0.55) ">
<use xlink:href="#METSP16_IAB_480x320_psd_Asset_Group_1_copy_2_01_Frame_SFu_Catch_the_145_bus_and_the_SkyTrain_for_some_retail_therapy__0_Layer0_0_MEMBER_7_FILL"/>
</g>

<g transform="matrix( 1, 0, 0, 0.999755859375, -0.2,-0.55) ">
<use xlink:href="#METSP16_IAB_480x320_psd_Asset_Group_1_copy_2_01_Frame_SFu_Catch_the_145_bus_and_the_SkyTrain_for_some_retail_therapy__0_Layer0_0_MEMBER_8_FILL"/>
</g>

<g transform="matrix( 1, 0, 0, 0.999755859375, -0.2,-0.55) ">
<use xlink:href="#METSP16_IAB_480x320_psd_Asset_Group_1_copy_2_01_Frame_SFu_Catch_the_145_bus_and_the_SkyTrain_for_some_retail_therapy__0_Layer0_0_MEMBER_9_FILL"/>
</g>

<g transform="matrix( 1, 0, 0, 0.999755859375, -0.2,-0.55) ">
<use xlink:href="#METSP16_IAB_480x320_psd_Asset_Group_1_copy_2_01_Frame_SFu_Catch_the_145_bus_and_the_SkyTrain_for_some_retail_therapy__0_Layer0_0_MEMBER_10_FILL"/>
</g>

<g transform="matrix( 1, 0, 0, 0.999755859375, -0.2,-0.55) ">
<use xlink:href="#METSP16_IAB_480x320_psd_Asset_Group_1_copy_2_01_Frame_SFu_Catch_the_145_bus_and_the_SkyTrain_for_some_retail_therapy__0_Layer0_0_MEMBER_11_FILL"/>
</g>

<g transform="matrix( 1, 0, 0, 0.999755859375, -0.2,-0.55) ">
<use xlink:href="#METSP16_IAB_480x320_psd_Asset_Group_1_copy_2_01_Frame_SFu_Catch_the_145_bus_and_the_SkyTrain_for_some_retail_therapy__0_Layer0_0_MEMBER_12_FILL"/>
</g>

<g transform="matrix( 1, 0, 0, 0.999755859375, -0.2,-0.55) ">
<use xlink:href="#METSP16_IAB_480x320_psd_Asset_Group_1_copy_2_01_Frame_SFu_Catch_the_145_bus_and_the_SkyTrain_for_some_retail_therapy__0_Layer0_0_MEMBER_13_FILL"/>
</g>

<g transform="matrix( 1, 0, 0, 0.999755859375, -0.2,-0.55) ">
<use xlink:href="#METSP16_IAB_480x320_psd_Asset_Group_1_copy_2_01_Frame_SFu_Catch_the_145_bus_and_the_SkyTrain_for_some_retail_therapy__0_Layer0_0_MEMBER_14_FILL"/>
</g>

<g transform="matrix( 1, 0, 0, 0.999755859375, -0.2,-0.55) ">
<use xlink:href="#METSP16_IAB_480x320_psd_Asset_Group_1_copy_2_01_Frame_SFu_Catch_the_145_bus_and_the_SkyTrain_for_some_retail_therapy__0_Layer0_0_MEMBER_15_FILL"/>
</g>

<g transform="matrix( 1, 0, 0, 0.999755859375, -0.2,-0.55) ">
<use xlink:href="#METSP16_IAB_480x320_psd_Asset_Group_1_copy_2_01_Frame_SFu_Catch_the_145_bus_and_the_SkyTrain_for_some_retail_therapy__0_Layer0_0_MEMBER_16_FILL"/>
</g>

<g transform="matrix( 1, 0, 0, 0.999755859375, -0.2,-0.55) ">
<use xlink:href="#METSP16_IAB_480x320_psd_Asset_Group_1_copy_2_01_Frame_SFu_Catch_the_145_bus_and_the_SkyTrain_for_some_retail_therapy__0_Layer0_0_MEMBER_17_FILL"/>
</g>

<g transform="matrix( 1, 0, 0, 0.999755859375, -0.2,-0.55) ">
<use xlink:href="#METSP16_IAB_480x320_psd_Asset_Group_1_copy_2_01_Frame_SFu_Catch_the_145_bus_and_the_SkyTrain_for_some_retail_therapy__0_Layer0_0_MEMBER_18_FILL"/>
</g>

<g transform="matrix( 1, 0, 0, 0.999755859375, -0.2,-0.55) ">
<use xlink:href="#METSP16_IAB_480x320_psd_Asset_Group_1_copy_2_01_Frame_SFu_Catch_the_145_bus_and_the_SkyTrain_for_some_retail_therapy__0_Layer0_0_MEMBER_19_FILL"/>
</g>

<g transform="matrix( 1, 0, 0, 0.999755859375, -0.2,-0.55) ">
<use xlink:href="#METSP16_IAB_480x320_psd_Asset_Group_1_copy_2_01_Frame_SFu_Catch_the_145_bus_and_the_SkyTrain_for_some_retail_therapy__0_Layer0_0_MEMBER_20_FILL"/>
</g>

<g transform="matrix( 1, 0, 0, 0.999755859375, -0.2,-0.55) ">
<use xlink:href="#METSP16_IAB_480x320_psd_Asset_Group_1_copy_2_01_Frame_SFu_Catch_the_145_bus_and_the_SkyTrain_for_some_retail_therapy__0_Layer0_0_MEMBER_21_FILL"/>
</g>

<g transform="matrix( 1, 0, 0, 0.999755859375, -0.2,-0.55) ">
<use xlink:href="#METSP16_IAB_480x320_psd_Asset_Group_1_copy_2_01_Frame_SFu_Catch_the_145_bus_and_the_SkyTrain_for_some_retail_therapy__0_Layer0_0_MEMBER_22_FILL"/>
</g>

<g transform="matrix( 1, 0, 0, 0.999755859375, -0.2,-0.55) ">
<use xlink:href="#METSP16_IAB_480x320_psd_Asset_Group_1_copy_2_01_Frame_SFu_Catch_the_145_bus_and_the_SkyTrain_for_some_retail_therapy__0_Layer0_0_MEMBER_23_FILL"/>
</g>

<g transform="matrix( 1, 0, 0, 0.999755859375, -0.2,-0.55) ">
<use xlink:href="#METSP16_IAB_480x320_psd_Asset_Group_1_copy_2_01_Frame_SFu_Catch_the_145_bus_and_the_SkyTrain_for_some_retail_therapy__0_Layer0_0_MEMBER_24_FILL"/>
</g>

<g transform="matrix( 1, 0, 0, 0.999755859375, -0.2,-0.55) ">
<use xlink:href="#METSP16_IAB_480x320_psd_Asset_Group_1_copy_2_01_Frame_SFu_Catch_the_145_bus_and_the_SkyTrain_for_some_retail_therapy__0_Layer0_0_MEMBER_25_FILL"/>
</g>

<g transform="matrix( 1, 0, 0, 0.999755859375, -0.2,-0.55) ">
<use xlink:href="#METSP16_IAB_480x320_psd_Asset_Group_1_copy_2_01_Frame_SFu_Catch_the_145_bus_and_the_SkyTrain_for_some_retail_therapy__0_Layer0_0_MEMBER_26_FILL"/>
</g>

<g transform="matrix( 1, 0, 0, 0.999755859375, -0.2,-0.55) ">
<use xlink:href="#METSP16_IAB_480x320_psd_Asset_Group_1_copy_2_01_Frame_SFu_Catch_the_145_bus_and_the_SkyTrain_for_some_retail_therapy__0_Layer0_0_MEMBER_27_FILL"/>
</g>

<g transform="matrix( 1, 0, 0, 0.999755859375, -0.2,-0.55) ">
<use xlink:href="#METSP16_IAB_480x320_psd_Asset_Group_1_copy_2_01_Frame_SFu_Catch_the_145_bus_and_the_SkyTrain_for_some_retail_therapy__0_Layer0_0_MEMBER_28_FILL"/>
</g>

<g transform="matrix( 1, 0, 0, 0.999755859375, -0.2,-0.55) ">
<use xlink:href="#METSP16_IAB_480x320_psd_Asset_Group_1_copy_2_01_Frame_SFu_Catch_the_145_bus_and_the_SkyTrain_for_some_retail_therapy__0_Layer0_0_MEMBER_29_FILL"/>
</g>

<g transform="matrix( 1, 0, 0, 0.999755859375, -0.2,-0.55) ">
<use xlink:href="#METSP16_IAB_480x320_psd_Asset_Group_1_copy_2_01_Frame_SFu_Catch_the_145_bus_and_the_SkyTrain_for_some_retail_therapy__0_Layer0_0_MEMBER_30_FILL"/>
</g>

<g transform="matrix( 1, 0, 0, 0.999755859375, -0.2,-0.55) ">
<use xlink:href="#METSP16_IAB_480x320_psd_Asset_Group_1_copy_2_01_Frame_SFu_Catch_the_145_bus_and_the_SkyTrain_for_some_retail_therapy__0_Layer0_0_MEMBER_31_FILL"/>
</g>

<g transform="matrix( 1, 0, 0, 0.999755859375, -0.2,-0.55) ">
<use xlink:href="#METSP16_IAB_480x320_psd_Asset_Group_1_copy_2_01_Frame_SFu_Catch_the_145_bus_and_the_SkyTrain_for_some_retail_therapy__0_Layer0_0_MEMBER_32_FILL"/>
</g>

<g transform="matrix( 1, 0, 0, 0.999755859375, -0.2,-0.55) ">
<use xlink:href="#METSP16_IAB_480x320_psd_Asset_Group_1_copy_2_01_Frame_SFu_Catch_the_145_bus_and_the_SkyTrain_for_some_retail_therapy__0_Layer0_0_MEMBER_33_FILL"/>
</g>

<g transform="matrix( 1, 0, 0, 0.999755859375, -0.2,-0.55) ">
<use xlink:href="#METSP16_IAB_480x320_psd_Asset_Group_1_copy_2_01_Frame_SFu_Catch_the_145_bus_and_the_SkyTrain_for_some_retail_therapy__0_Layer0_0_MEMBER_34_FILL"/>
</g>

<g transform="matrix( 1, 0, 0, 0.999755859375, -0.2,-0.55) ">
<use xlink:href="#METSP16_IAB_480x320_psd_Asset_Group_1_copy_2_01_Frame_SFu_Catch_the_145_bus_and_the_SkyTrain_for_some_retail_therapy__0_Layer0_0_MEMBER_35_FILL"/>
</g>

<g transform="matrix( 1, 0, 0, 0.999755859375, -0.2,-0.55) ">
<use xlink:href="#METSP16_IAB_480x320_psd_Asset_Group_1_copy_2_01_Frame_SFu_Catch_the_145_bus_and_the_SkyTrain_for_some_retail_therapy__0_Layer0_0_MEMBER_36_FILL"/>
</g>

<g transform="matrix( 1, 0, 0, 0.999755859375, -0.2,-0.55) ">
<use xlink:href="#METSP16_IAB_480x320_psd_Asset_Group_1_copy_2_01_Frame_SFu_Catch_the_145_bus_and_the_SkyTrain_for_some_retail_therapy__0_Layer0_0_MEMBER_37_FILL"/>
</g>

<g transform="matrix( 1, 0, 0, 0.999755859375, -0.2,-0.55) ">
<use xlink:href="#METSP16_IAB_480x320_psd_Asset_Group_1_copy_2_01_Frame_SFu_Catch_the_145_bus_and_the_SkyTrain_for_some_retail_therapy__0_Layer0_0_MEMBER_38_FILL"/>
</g>

<g transform="matrix( 1, 0, 0, 0.999755859375, -0.2,-0.55) ">
<use xlink:href="#METSP16_IAB_480x320_psd_Asset_Group_1_copy_2_01_Frame_SFu_Catch_the_145_bus_and_the_SkyTrain_for_some_retail_therapy__0_Layer0_0_MEMBER_39_FILL"/>
</g>

<g transform="matrix( 1, 0, 0, 0.999755859375, -0.2,-0.55) ">
<use xlink:href="#METSP16_IAB_480x320_psd_Asset_Group_1_copy_2_01_Frame_SFu_Catch_the_145_bus_and_the_SkyTrain_for_some_retail_therapy__0_Layer0_0_MEMBER_40_FILL"/>
</g>

<g transform="matrix( 1, 0, 0, 0.999755859375, -0.2,-0.55) ">
<use xlink:href="#METSP16_IAB_480x320_psd_Asset_Group_1_copy_2_01_Frame_SFu_Catch_the_145_bus_and_the_SkyTrain_for_some_retail_therapy__0_Layer0_0_MEMBER_41_FILL"/>
</g>

<g transform="matrix( 1, 0, 0, 0.999755859375, -0.2,-0.55) ">
<use xlink:href="#METSP16_IAB_480x320_psd_Asset_Group_1_copy_2_01_Frame_SFu_Catch_the_145_bus_and_the_SkyTrain_for_some_retail_therapy__0_Layer0_0_MEMBER_42_FILL"/>
</g>

<g transform="matrix( 1, 0, 0, 0.999755859375, -0.2,-0.55) ">
<use xlink:href="#METSP16_IAB_480x320_psd_Asset_Group_1_copy_2_01_Frame_SFu_Catch_the_145_bus_and_the_SkyTrain_for_some_retail_therapy__0_Layer0_0_MEMBER_43_FILL"/>
</g>

<g transform="matrix( 1, 0, 0, 0.999755859375, -0.2,-0.55) ">
<use xlink:href="#METSP16_IAB_480x320_psd_Asset_Group_1_copy_2_01_Frame_SFu_Catch_the_145_bus_and_the_SkyTrain_for_some_retail_therapy__0_Layer0_0_MEMBER_44_FILL"/>
</g>

<g transform="matrix( 1, 0, 0, 0.999755859375, -0.2,-0.55) ">
<use xlink:href="#METSP16_IAB_480x320_psd_Asset_Group_1_copy_2_01_Frame_SFu_Catch_the_145_bus_and_the_SkyTrain_for_some_retail_therapy__0_Layer0_0_MEMBER_45_FILL"/>
</g>

<g transform="matrix( 1, 0, 0, 0.999755859375, -0.2,-0.55) ">
<use xlink:href="#METSP16_IAB_480x320_psd_Asset_Group_1_copy_2_01_Frame_SFu_Catch_the_145_bus_and_the_SkyTrain_for_some_retail_therapy__0_Layer0_0_MEMBER_46_FILL"/>
</g>

<g transform="matrix( 1, 0, 0, 0.999755859375, -0.2,-0.55) ">
<use xlink:href="#METSP16_IAB_480x320_psd_Asset_Group_1_copy_2_01_Frame_SFu_Catch_the_145_bus_and_the_SkyTrain_for_some_retail_therapy__0_Layer0_0_MEMBER_47_FILL"/>
</g>

<g transform="matrix( 1, 0, 0, 0.999755859375, -0.2,-0.55) ">
<use xlink:href="#METSP16_IAB_480x320_psd_Asset_Group_1_copy_2_01_Frame_SFu_Catch_the_145_bus_and_the_SkyTrain_for_some_retail_therapy__0_Layer0_0_MEMBER_48_FILL"/>
</g>
</g>
</g>
</g>
</svg>
