
<svg xmlns="http://www.w3.org/2000/svg" version="1.1" xmlns:xlink="http://www.w3.org/1999/xlink" preserveAspectRatio="none" x="0px" y="0px" width="320px" height="480px" viewBox="0 0 320 480">
<defs>
<g id="METSP16_IAB_320x480___CROPPED_psd_Asset_Group_1_copy_01_Frame_I_bet_you_Metropolis_has_it__0_Layer0_0_MEMBER_0_FILL">
<path fill="#FFFFFF" stroke="none" d="
M 2.65 0.45
Q 2.15 0.95 2.15 1.6
L 2.15 15.8
Q 2.15 16.45 2.65 16.95 3.1 17.4 3.75 17.4 4.4 17.4 4.85 16.95 5.3 16.45 5.3 15.8
L 5.3 1.6
Q 5.3 0.95 4.85 0.45 4.4 0 3.75 0 3.1 0 2.65 0.45 Z"/>
</g>

<g id="METSP16_IAB_320x480___CROPPED_psd_Asset_Group_1_copy_01_Frame_I_bet_you_Metropolis_has_it__0_Layer0_0_MEMBER_1_FILL">
<path fill="#FFFFFF" stroke="none" d="
M 20.95 1.55
Q 20.95 0.9 20.5 0.45 20.1 0 19.45 0 18.8 0 18.35 0.45 17.9 0.9 17.9 1.55
L 17.9 15.85
Q 17.9 16.5 18.3 16.95 18.75 17.4 19.4 17.4 20.05 17.4 20.45 16.95 20.85 16.5 20.85 15.85
L 20.85 15.7
Q 22.1 17.5 24.35 17.5 26.8 17.5 28.25 15.7 29.55 14.05 29.55 11.65 29.55 9.25 28.25 7.6 26.8 5.8 24.35 5.8 22.1 5.8 20.95 7.6
L 20.95 1.55
M 20.95 11.65
Q 20.95 10.3 21.65 9.4 22.45 8.4 23.7 8.4 25 8.4 25.75 9.35 26.5 10.25 26.5 11.65 26.5 13.05 25.75 13.95 25 14.9 23.7 14.9 22.45 14.9 21.65 13.9 20.95 13 20.95 11.65 Z"/>
</g>

<g id="METSP16_IAB_320x480___CROPPED_psd_Asset_Group_1_copy_01_Frame_I_bet_you_Metropolis_has_it__0_Layer0_0_MEMBER_2_FILL">
<path fill="#FFFFFF" stroke="none" d="
M 42.2 12.65
Q 43.3 12.65 43.3 11.65 43.3 9.1 41.85 7.45 40.35 5.8 38 5.8 35.5 5.8 33.85 7.45 32.2 9.15 32.2 11.65 32.2 14.15 33.7 15.8 35.3 17.5 38.05 17.5 40.05 17.5 41.75 16.5 42.85 15.8 42.85 14.95 42.85 13.8 41.65 13.8 41.15 13.8 40.5 14.35 39.55 15.05 38.15 15.05 35.65 15.05 35.4 12.65
L 42.2 12.65
M 38 8.25
Q 39.95 8.25 40.4 10.5
L 35.45 10.5
Q 35.55 9.5 36.25 8.9 36.95 8.25 38 8.25 Z"/>
</g>

<g id="METSP16_IAB_320x480___CROPPED_psd_Asset_Group_1_copy_01_Frame_I_bet_you_Metropolis_has_it__0_Layer0_0_MEMBER_3_FILL">
<path fill="#FFFFFF" stroke="none" d="
M 51.2 2.95
Q 51.2 2.3 50.75 1.85 50.35 1.4 49.7 1.4 49.05 1.4 48.6 1.85 48.15 2.3 48.15 2.95
L 48.15 6.1 46.45 6.1
Q 45.95 6.1 45.55 6.5 45.2 6.85 45.2 7.4 45.2 7.95 45.55 8.3 45.95 8.65 46.45 8.65
L 48.15 8.65 48.15 15.85
Q 48.15 16.5 48.6 16.95 49.05 17.4 49.7 17.4 50.35 17.4 50.75 16.95 51.2 16.5 51.2 15.85
L 51.2 8.65 53.2 8.65
Q 53.75 8.65 54.1 8.3 54.5 7.9 54.5 7.4 54.5 6.9 54.1 6.5 53.75 6.1 53.2 6.1
L 51.2 6.1 51.2 2.95 Z"/>
</g>

<g id="METSP16_IAB_320x480___CROPPED_psd_Asset_Group_1_copy_01_Frame_I_bet_you_Metropolis_has_it__0_Layer0_0_MEMBER_4_FILL">
<path fill="#FFFFFF" stroke="none" d="
M 72.7 5.9
Q 71.7 5.9 71.45 6.75
L 69.05 14.1 66.2 6.75
Q 65.9 5.9 64.9 5.9 64.3 5.9 63.95 6.3 63.55 6.7 63.55 7.3
L 63.65 7.9 67.3 16.9
Q 66.65 18.35 65.05 19.65 64.3 20.2 64.3 20.9 64.3 21.4 64.7 21.8 65.15 22.15 65.7 22.15 66.05 22.15 66.35 22 69.2 20.3 71.1 15.65 72.8 11.55 73.95 7.9
L 74.05 7.3
Q 74.05 6.7 73.7 6.3 73.3 5.9 72.7 5.9 Z"/>
</g>

<g id="METSP16_IAB_320x480___CROPPED_psd_Asset_Group_1_copy_01_Frame_I_bet_you_Metropolis_has_it__0_Layer0_0_MEMBER_5_FILL">
<path fill="#FFFFFF" stroke="none" d="
M 86.3 15.8
Q 87.9 14.1 87.9 11.65 87.9 9.2 86.3 7.55 84.6 5.8 82.1 5.8 79.55 5.8 77.9 7.55 76.25 9.2 76.25 11.65 76.25 14.1 77.9 15.8 79.55 17.5 82.1 17.5 84.6 17.5 86.3 15.8
M 84.15 9.4
Q 84.9 10.3 84.9 11.65 84.9 13 84.15 13.9 83.35 14.85 82.1 14.85 80.8 14.85 80 13.9 79.25 13 79.25 11.65 79.25 10.3 80 9.4 80.8 8.45 82.1 8.45 83.35 8.45 84.15 9.4 Z"/>
</g>

<g id="METSP16_IAB_320x480___CROPPED_psd_Asset_Group_1_copy_01_Frame_I_bet_you_Metropolis_has_it__0_Layer0_0_MEMBER_6_FILL">
<path fill="#FFFFFF" stroke="none" d="
M 102.1 7.45
Q 102.1 6.8 101.65 6.35 101.2 5.9 100.55 5.9 99.9 5.9 99.45 6.35 99 6.8 99 7.45
L 99 12.1
Q 99 13.25 98.45 13.95 97.85 14.75 96.6 14.75 95.5 14.75 94.85 13.95 94.3 13.25 94.3 12.1
L 94.3 7.45
Q 94.3 6.8 93.85 6.35 93.4 5.9 92.75 5.9 92.1 5.9 91.7 6.35 91.25 6.8 91.25 7.45
L 91.25 12.25
Q 91.25 14.6 92.4 16 93.65 17.5 95.75 17.5 98 17.5 99 15.65
L 99 15.85
Q 99 16.55 99.45 17 99.9 17.4 100.55 17.4 101.2 17.4 101.65 17 102.1 16.55 102.1 15.85
L 102.1 7.45 Z"/>
</g>

<g id="METSP16_IAB_320x480___CROPPED_psd_Asset_Group_1_copy_01_Frame_I_bet_you_Metropolis_has_it__0_Layer0_0_MEMBER_7_FILL">
<path fill="#FFFFFF" stroke="none" d="
M 17.7 25
Q 16.8 25 16.35 25.9
L 10.65 37.9 4.85 25.9
Q 4.4 25 3.5 25 2.85 25 2.45 25.45 2.05 25.85 2.05 26.45
L 2.05 40.9
Q 2.05 41.5 2.5 41.95 2.9 42.4 3.5 42.4 4.1 42.4 4.55 41.95 4.95 41.5 4.95 40.9
L 4.95 32.45 9.35 41.6
Q 9.8 42.4 10.65 42.4 11.5 42.4 11.9 41.6
L 16.25 32.45 16.25 40.95
Q 16.25 41.55 16.7 42 17.1 42.4 17.7 42.4 18.35 42.4 18.75 42 19.2 41.55 19.2 40.95
L 19.2 26.5
Q 19.2 25.85 18.8 25.4 18.4 25 17.7 25 Z"/>
</g>

<g id="METSP16_IAB_320x480___CROPPED_psd_Asset_Group_1_copy_01_Frame_I_bet_you_Metropolis_has_it__0_Layer0_0_MEMBER_8_FILL">
<path fill="#FFFFFF" stroke="none" d="
M 33.95 36.65
Q 33.95 34.1 32.5 32.45 31 30.8 28.65 30.8 26.15 30.8 24.5 32.45 22.9 34.15 22.9 36.65 22.9 39.2 24.35 40.8 25.95 42.5 28.7 42.5 30.8 42.5 32.4 41.5 33.5 40.8 33.5 39.95 33.5 38.85 32.3 38.85 31.8 38.85 31.15 39.35 30.25 40.1 28.8 40.1 26.3 40.1 26.05 37.65
L 32.85 37.65
Q 33.95 37.65 33.95 36.65
M 26.9 33.9
Q 27.6 33.25 28.65 33.25 30.6 33.25 31.05 35.5
L 26.1 35.5
Q 26.2 34.5 26.9 33.9 Z"/>
</g>

<g id="METSP16_IAB_320x480___CROPPED_psd_Asset_Group_1_copy_01_Frame_I_bet_you_Metropolis_has_it__0_Layer0_0_MEMBER_9_FILL">
<path fill="#FFFFFF" stroke="none" d="
M 41.9 27.95
Q 41.9 27.3 41.45 26.9 41 26.45 40.35 26.45 39.7 26.45 39.25 26.9 38.8 27.3 38.8 27.95
L 38.8 31.1 37.1 31.1
Q 36.6 31.1 36.2 31.5 35.85 31.85 35.85 32.4 35.85 32.95 36.2 33.3 36.6 33.7 37.1 33.7
L 38.8 33.7 38.8 40.85
Q 38.8 41.5 39.25 41.95 39.7 42.4 40.35 42.4 41 42.4 41.45 41.95 41.9 41.5 41.9 40.85
L 41.9 33.7 43.85 33.7
Q 44.4 33.7 44.8 33.3 45.15 32.95 45.15 32.4 45.15 31.85 44.8 31.5 44.4 31.1 43.85 31.1
L 41.9 31.1 41.9 27.95 Z"/>
</g>

<g id="METSP16_IAB_320x480___CROPPED_psd_Asset_Group_1_copy_01_Frame_I_bet_you_Metropolis_has_it__0_Layer0_0_MEMBER_10_FILL">
<path fill="#FFFFFF" stroke="none" d="
M 54.75 33.15
Q 55.15 32.8 55.15 32.2 55.15 31.6 54.8 31.2 54.4 30.8 53.75 30.8 51.6 30.8 50.8 32.75
L 50.8 32.5
Q 50.8 31.85 50.35 31.4 49.9 30.9 49.25 30.9 48.55 30.9 48.15 31.35 47.7 31.8 47.7 32.5
L 47.7 40.85
Q 47.7 41.5 48.15 41.95 48.6 42.4 49.25 42.4 49.9 42.4 50.35 41.95 50.8 41.5 50.8 40.85
L 50.8 36.9
Q 50.8 35.35 51.6 34.45 52.4 33.55 53.75 33.55 54.4 33.55 54.75 33.15 Z"/>
</g>

<g id="METSP16_IAB_320x480___CROPPED_psd_Asset_Group_1_copy_01_Frame_I_bet_you_Metropolis_has_it__0_Layer0_0_MEMBER_11_FILL">
<path fill="#FFFFFF" stroke="none" d="
M 58.45 32.55
Q 56.8 34.2 56.8 36.65 56.8 39.1 58.45 40.8 60.1 42.5 62.65 42.5 65.2 42.5 66.85 40.8 68.5 39.1 68.5 36.65 68.5 34.2 66.85 32.55 65.2 30.8 62.65 30.8 60.1 30.8 58.45 32.55
M 59.8 36.65
Q 59.8 35.35 60.55 34.4 61.4 33.45 62.65 33.45 63.9 33.45 64.75 34.4 65.5 35.35 65.5 36.65 65.5 37.95 64.75 38.9 63.9 39.85 62.65 39.85 61.4 39.85 60.55 38.9 59.8 37.95 59.8 36.65 Z"/>
</g>

<g id="METSP16_IAB_320x480___CROPPED_psd_Asset_Group_1_copy_01_Frame_I_bet_you_Metropolis_has_it__0_Layer0_0_MEMBER_12_FILL">
<path fill="#FFFFFF" stroke="none" d="
M 83.6 36.65
Q 83.6 34.25 82.3 32.6 80.85 30.8 78.45 30.8 76.15 30.8 74.95 32.65
L 74.95 32.5
Q 74.95 31.85 74.55 31.4 74.1 30.9 73.45 30.9 72.8 30.9 72.4 31.35 72 31.8 72 32.45
L 72 45.65
Q 72 46.3 72.45 46.7 72.85 47.15 73.5 47.15 74.15 47.15 74.6 46.7 75.05 46.3 75.05 45.65
L 75.05 40.7
Q 76.15 42.5 78.45 42.5 80.85 42.5 82.3 40.7 83.6 39.05 83.6 36.65
M 75.05 36.65
Q 75.05 35.3 75.75 34.4 76.5 33.4 77.75 33.4 79.05 33.4 79.85 34.35 80.55 35.25 80.55 36.65 80.55 38.05 79.85 38.95 79.05 39.9 77.75 39.9 76.55 39.9 75.75 38.9 75.05 38 75.05 36.65 Z"/>
</g>

<g id="METSP16_IAB_320x480___CROPPED_psd_Asset_Group_1_copy_01_Frame_I_bet_you_Metropolis_has_it__0_Layer0_0_MEMBER_13_FILL">
<path fill="#FFFFFF" stroke="none" d="
M 96.4 32.55
Q 94.7 30.8 92.2 30.8 89.65 30.8 88 32.55 86.35 34.2 86.35 36.65 86.35 39.1 88 40.8 89.65 42.5 92.2 42.5 94.7 42.5 96.4 40.8 98 39.1 98 36.65 98 34.2 96.4 32.55
M 94.25 34.4
Q 95 35.3 95 36.65 95 38 94.25 38.9 93.45 39.85 92.2 39.85 90.9 39.85 90.1 38.9 89.35 38 89.35 36.65 89.35 35.3 90.1 34.4 90.9 33.45 92.2 33.45 93.45 33.45 94.25 34.4 Z"/>
</g>

<g id="METSP16_IAB_320x480___CROPPED_psd_Asset_Group_1_copy_01_Frame_I_bet_you_Metropolis_has_it__0_Layer0_0_MEMBER_14_FILL">
<path fill="#FFFFFF" stroke="none" d="
M 101.95 25.45
Q 101.5 25.9 101.5 26.55
L 101.5 40.85
Q 101.5 41.5 101.95 41.95 102.4 42.4 103.05 42.4 103.7 42.4 104.15 41.95 104.6 41.5 104.6 40.85
L 104.6 26.55
Q 104.6 25.9 104.15 25.45 103.7 25 103.05 25 102.4 25 101.95 25.45 Z"/>
</g>

<g id="METSP16_IAB_320x480___CROPPED_psd_Asset_Group_1_copy_01_Frame_I_bet_you_Metropolis_has_it__0_Layer0_0_MEMBER_15_FILL">
<path fill="#FFFFFF" stroke="none" d="
M 112.05 27.6
Q 112.05 26.85 111.55 26.35 111.05 25.85 110.3 25.85 109.6 25.85 109.1 26.35 108.6 26.85 108.6 27.6 108.6 28.3 109.1 28.8 109.6 29.3 110.3 29.3 111.05 29.3 111.55 28.8 112.05 28.3 112.05 27.6
M 111.85 32.45
Q 111.85 31.8 111.4 31.35 110.95 30.9 110.3 30.9 109.65 30.9 109.25 31.35 108.8 31.8 108.8 32.45
L 108.8 40.85
Q 108.8 41.5 109.25 41.95 109.65 42.4 110.3 42.4 110.95 42.4 111.4 41.95 111.85 41.5 111.85 40.85
L 111.85 32.45 Z"/>
</g>

<g id="METSP16_IAB_320x480___CROPPED_psd_Asset_Group_1_copy_01_Frame_I_bet_you_Metropolis_has_it__0_Layer0_0_MEMBER_16_FILL">
<path fill="#FFFFFF" stroke="none" d="
M 123.5 34.15
Q 124.7 34.15 124.7 33.05 124.7 32.1 123.1 31.4 121.85 30.8 120.35 30.8 118.15 30.8 116.95 31.75 115.75 32.65 115.75 34.15 115.75 35.55 116.65 36.45 117.65 37.45 119.95 38.05 122.05 38.6 122.05 39.35 122.05 40.25 120.45 40.25 119.4 40.25 118 39.5 117.35 39.05 116.8 39.05 116.35 39.05 116 39.35 115.65 39.6 115.65 40.05 115.65 40.85 116.35 41.35 117.9 42.5 120.35 42.5 122.5 42.5 123.75 41.55 124.95 40.65 124.95 39.1 124.95 37.5 123.8 36.65 122.9 35.95 120.8 35.4 119.55 35.1 119.15 34.85 118.7 34.6 118.7 34.1 118.7 33.25 120.25 33.25 121.1 33.25 122.15 33.7 123.3 34.15 123.5 34.15 Z"/>
</g>

<g id="METSP16_IAB_320x480___CROPPED_psd_Asset_Group_1_copy_01_Frame_I_bet_you_Metropolis_has_it__0_Layer0_0_MEMBER_17_FILL">
<path fill="#FFFFFF" stroke="none" d="
M 12.65 61.1
Q 12.65 58.75 11.45 57.3 10.25 55.8 8.15 55.8 5.85 55.8 4.85 57.7
L 4.85 51.55
Q 4.85 50.9 4.4 50.45 3.95 50 3.3 50 2.65 50 2.25 50.45 1.8 50.9 1.8 51.55
L 1.8 65.9
Q 1.8 66.5 2.25 66.95 2.65 67.4 3.3 67.4 3.95 67.4 4.4 66.95 4.85 66.5 4.85 65.9
L 4.85 61.25
Q 4.85 60.15 5.4 59.4 6.05 58.6 7.25 58.6 9.55 58.6 9.55 61.25
L 9.55 65.9
Q 9.55 66.5 10 66.95 10.45 67.4 11.1 67.4 11.75 67.4 12.2 66.95 12.65 66.5 12.65 65.9
L 12.65 61.1 Z"/>
</g>

<g id="METSP16_IAB_320x480___CROPPED_psd_Asset_Group_1_copy_01_Frame_I_bet_you_Metropolis_has_it__0_Layer0_0_MEMBER_18_FILL">
<path fill="#FFFFFF" stroke="none" d="
M 23.55 61.7
Q 22.45 60.5 20.45 60.5 18.6 60.5 17.5 61.4 16.3 62.35 16.3 64 16.3 65.55 17.4 66.5 18.5 67.5 20.3 67.5 22.55 67.5 23.6 65.85
L 23.6 65.9
Q 23.6 66.5 24.05 66.95 24.45 67.4 25.1 67.4 25.75 67.4 26.2 66.95 26.6 66.5 26.6 65.9
L 26.6 60.65
Q 26.6 55.8 21.2 55.8 19.7 55.8 18.45 56.15 16.6 56.7 16.6 57.75 16.6 58.3 16.95 58.65 17.35 59 17.9 59 18.15 59 19.15 58.75 20.15 58.45 20.95 58.45 22.4 58.45 23 59 23.55 59.55 23.55 60.9
L 23.55 61.7
M 22.95 63
Q 23.55 63.4 23.55 64 23.55 64.65 22.95 65.05 22.3 65.45 21.4 65.45 20.5 65.45 19.95 65.05 19.35 64.65 19.35 64 19.35 62.55 21.4 62.55 22.3 62.55 22.95 63 Z"/>
</g>

<g id="METSP16_IAB_320x480___CROPPED_psd_Asset_Group_1_copy_01_Frame_I_bet_you_Metropolis_has_it__0_Layer0_0_MEMBER_19_FILL">
<path fill="#FFFFFF" stroke="none" d="
M 34.85 55.8
Q 32.7 55.8 31.45 56.8 30.3 57.7 30.3 59.15 30.3 60.6 31.15 61.45 32.1 62.45 34.45 63.05 35.65 63.4 36.05 63.65 36.55 63.95 36.55 64.35 36.55 65.25 34.95 65.25 33.7 65.25 32.5 64.5 31.85 64.05 31.3 64.05 30.85 64.05 30.5 64.35 30.15 64.6 30.15 65.05 30.15 65.85 30.85 66.35 32.3 67.5 34.85 67.5 37 67.5 38.25 66.55 39.45 65.65 39.45 64.1 39.45 62.5 38.3 61.65 37.45 61 35.3 60.4 34.05 60.1 33.65 59.85 33.2 59.6 33.2 59.1 33.2 58.25 34.75 58.25 35.6 58.25 36.65 58.7 37.8 59.15 38 59.15 39.2 59.15 39.2 58.05 39.2 57.1 37.6 56.4 36.35 55.8 34.85 55.8 Z"/>
</g>

<g id="METSP16_IAB_320x480___CROPPED_psd_Asset_Group_1_copy_01_Frame_I_bet_you_Metropolis_has_it__0_Layer0_0_MEMBER_20_FILL">
<path fill="#FFFFFF" stroke="none" d="
M 51.4 56.4
Q 50.95 56.8 50.95 57.45
L 50.95 65.9
Q 50.95 66.5 51.4 66.95 51.8 67.4 52.45 67.4 53.1 67.4 53.55 66.95 54 66.5 54 65.9
L 54 57.45
Q 54 56.8 53.55 56.4 53.1 55.95 52.45 55.95 51.8 55.95 51.4 56.4
M 50.75 52.6
Q 50.75 53.3 51.25 53.8 51.75 54.3 52.45 54.3 53.2 54.3 53.7 53.8 54.2 53.3 54.2 52.6 54.2 51.85 53.7 51.35 53.2 50.85 52.45 50.85 51.75 50.85 51.25 51.35 50.75 51.85 50.75 52.6 Z"/>
</g>

<g id="METSP16_IAB_320x480___CROPPED_psd_Asset_Group_1_copy_01_Frame_I_bet_you_Metropolis_has_it__0_Layer0_0_MEMBER_21_FILL">
<path fill="#FFFFFF" stroke="none" d="
M 62.7 52.95
Q 62.7 52.35 62.25 51.9 61.8 51.45 61.15 51.45 60.5 51.45 60.1 51.9 59.65 52.35 59.65 52.95
L 59.65 56.15 57.9 56.15
Q 57.4 56.15 57 56.5 56.65 56.9 56.65 57.4 56.65 57.95 57 58.3 57.4 58.7 57.9 58.7
L 59.65 58.7 59.65 65.9
Q 59.65 66.5 60.1 66.95 60.5 67.4 61.15 67.4 61.8 67.4 62.25 66.95 62.7 66.5 62.7 65.9
L 62.7 58.7 64.7 58.7
Q 65.2 58.7 65.6 58.3 65.95 57.95 65.95 57.4 65.95 56.9 65.6 56.5 65.25 56.15 64.7 56.15
L 62.7 56.15 62.7 52.95 Z"/>
</g>

<g id="METSP16_IAB_320x480___CROPPED_psd_Asset_Group_1_copy_01_Frame_I_bet_you_Metropolis_has_it__0_Layer0_0_MEMBER_22_FILL">
<path fill="#FFFFFF" stroke="none" d="
M 69.95 66.9
Q 70.45 66.35 70.45 65.6 70.45 64.9 69.95 64.4 69.45 63.9 68.7 63.9 68 63.9 67.5 64.4 67 64.9 67 65.6 67 66.35 67.5 66.9 68 67.4 68.7 67.4 69.45 67.4 69.95 66.9 Z"/>
</g>

<g id="METSP16_IAB_320x480___CROPPED_psd_Asset_Group_1_copy_01_Frame_Didn_t_find_what_you_were_looking_for_on_Robson__0_Layer0_0_MEMBER_0_FILL">
<path fill="#FFFFFF" stroke="none" d="
M 20.05 10.4
Q 20.05 6.05 17.3 3.2 14.45 0.25 9.9 0.25
L 4.35 0.25
Q 3.55 0.25 3 0.8 2.45 1.3 2.45 2.1
L 2.45 18.65
Q 2.45 19.45 3 20 3.55 20.55 4.35 20.55
L 9.9 20.55
Q 14.45 20.55 17.3 17.6 20.05 14.75 20.05 10.4
M 14.6 5.55
Q 16.3 7.4 16.3 10.4 16.3 13.45 14.6 15.25 12.85 17.1 9.75 17.1
L 6.15 17.1 6.15 3.7 9.75 3.7
Q 12.85 3.7 14.6 5.55 Z"/>
</g>

<g id="METSP16_IAB_320x480___CROPPED_psd_Asset_Group_1_copy_01_Frame_Didn_t_find_what_you_were_looking_for_on_Robson__0_Layer0_0_MEMBER_1_FILL">
<path fill="#FFFFFF" stroke="none" d="
M 24 7.65
Q 23.45 8.15 23.45 8.9
L 23.45 19
Q 23.45 19.75 24 20.3 24.55 20.8 25.3 20.8 26.05 20.8 26.6 20.3 27.1 19.75 27.1 19
L 27.1 8.9
Q 27.1 8.15 26.6 7.65 26.05 7.1 25.3 7.1 24.55 7.1 24 7.65
M 26.75 4.55
Q 27.35 3.95 27.35 3.1 27.35 2.2 26.75 1.6 26.15 1 25.3 1 24.45 1 23.8 1.6 23.2 2.2 23.2 3.1 23.2 3.95 23.8 4.55 24.45 5.15 25.3 5.15 26.15 5.15 26.75 4.55 Z"/>
</g>

<g id="METSP16_IAB_320x480___CROPPED_psd_Asset_Group_1_copy_01_Frame_Didn_t_find_what_you_were_looking_for_on_Robson__0_Layer0_0_MEMBER_2_FILL">
<path fill="#FFFFFF" stroke="none" d="
M 40.7 1.85
L 40.7 9.1
Q 39.35 6.95 36.65 6.95 33.8 6.95 32.1 9.1 30.5 11.05 30.5 13.95 30.5 16.85 32.05 18.8 33.75 20.95 36.65 20.95 39.4 20.95 40.85 18.75
L 40.85 18.95
Q 40.85 19.7 41.35 20.25 41.85 20.8 42.6 20.8 43.4 20.8 43.9 20.3 44.4 19.75 44.4 19
L 44.4 1.85
Q 44.4 1.1 43.85 0.55 43.3 0 42.55 0 41.8 0 41.25 0.55 40.7 1.1 40.7 1.85
M 37.45 10.05
Q 38.95 10.05 39.85 11.25 40.7 12.35 40.7 13.95 40.7 15.55 39.85 16.65 38.95 17.8 37.45 17.8 35.9 17.8 35 16.7 34.15 15.6 34.15 13.95 34.15 12.3 35 11.2 35.9 10.05 37.45 10.05 Z"/>
</g>

<g id="METSP16_IAB_320x480___CROPPED_psd_Asset_Group_1_copy_01_Frame_Didn_t_find_what_you_were_looking_for_on_Robson__0_Layer0_0_MEMBER_3_FILL">
<path fill="#FFFFFF" stroke="none" d="
M 61.1 20.3
Q 61.6 19.75 61.6 19
L 61.6 13.25
Q 61.6 10.45 60.2 8.75 58.75 6.95 56.25 6.95 53.55 6.95 52.3 9.2
L 52.3 8.95
Q 52.3 8.1 51.8 7.6 51.3 7.1 50.5 7.1 49.7 7.1 49.2 7.6 48.65 8.1 48.65 8.95
L 48.65 19
Q 48.65 19.75 49.2 20.3 49.75 20.8 50.5 20.8 51.25 20.8 51.8 20.3 52.3 19.75 52.3 19
L 52.3 13.4
Q 52.3 12.1 53 11.25 53.75 10.25 55.2 10.25 56.55 10.25 57.3 11.15 57.95 12 57.95 13.4
L 57.95 19
Q 57.95 19.75 58.5 20.3 59.05 20.8 59.8 20.8 60.55 20.8 61.1 20.3 Z"/>
</g>

<g id="METSP16_IAB_320x480___CROPPED_psd_Asset_Group_1_copy_01_Frame_Didn_t_find_what_you_were_looking_for_on_Robson__0_Layer0_0_MEMBER_4_FILL">
<path fill="#FFFFFF" stroke="none" d="
M 67.9 8.1
Q 69.3 6 69.3 2.45
L 69.3 1.7
Q 69.3 -0.05 67.7 -0.05 66.1 -0.05 66.1 1.7
L 66.1 2.6
Q 66.1 5.05 65.1 6.85 64.75 7.4 64.75 7.85 64.75 8.35 65.15 8.7 65.6 9.1 66.35 9.1 67.3 9.1 67.9 8.1 Z"/>
</g>

<g id="METSP16_IAB_320x480___CROPPED_psd_Asset_Group_1_copy_01_Frame_Didn_t_find_what_you_were_looking_for_on_Robson__0_Layer0_0_MEMBER_5_FILL">
<path fill="#FFFFFF" stroke="none" d="
M 82.4 8.85
Q 82.4 8.2 81.95 7.75 81.5 7.3 80.85 7.3
L 78.5 7.3 78.5 3.55
Q 78.5 2.8 77.95 2.25 77.4 1.7 76.65 1.7 75.9 1.7 75.4 2.25 74.85 2.8 74.85 3.55
L 74.85 7.3 72.8 7.3
Q 72.15 7.3 71.75 7.75 71.3 8.2 71.3 8.85 71.3 9.5 71.75 9.9 72.15 10.35 72.8 10.35
L 74.85 10.35 74.85 19
Q 74.85 19.75 75.4 20.3 75.9 20.8 76.65 20.8 77.4 20.8 77.95 20.3 78.5 19.75 78.5 19
L 78.5 10.35 80.85 10.35
Q 81.5 10.35 81.95 9.9 82.4 9.5 82.4 8.85 Z"/>
</g>

<g id="METSP16_IAB_320x480___CROPPED_psd_Asset_Group_1_copy_01_Frame_Didn_t_find_what_you_were_looking_for_on_Robson__0_Layer0_0_MEMBER_6_FILL">
<path fill="#FFFFFF" stroke="none" d="
M 105.25 7.65
Q 104.7 8.15 104.7 8.9
L 104.7 19
Q 104.7 19.75 105.25 20.3 105.75 20.8 106.55 20.8 107.3 20.8 107.85 20.3 108.35 19.75 108.35 19
L 108.35 8.9
Q 108.35 8.15 107.85 7.65 107.3 7.1 106.55 7.1 105.75 7.1 105.25 7.65
M 102.45 1.65
Q 102.45 1 102 0.6 101.6 0.15 100.95 0.15
L 99.75 0.15
Q 97.15 0.15 95.8 1.65 94.5 3 94.5 5.45
L 94.5 7.3 92.9 7.3
Q 92.25 7.3 91.85 7.75 91.4 8.2 91.4 8.85 91.4 9.5 91.85 9.9 92.25 10.35 92.9 10.35
L 94.5 10.35 94.5 19
Q 94.5 19.75 95.05 20.3 95.55 20.8 96.3 20.8 97.05 20.8 97.6 20.3 98.15 19.75 98.15 19
L 98.15 10.35 100.65 10.35
Q 101.3 10.35 101.7 9.9 102.15 9.5 102.15 8.85 102.15 8.2 101.7 7.75 101.3 7.3 100.65 7.3
L 98.15 7.3 98.15 5.1
Q 98.15 3.2 100.1 3.2
L 100.95 3.2
Q 101.6 3.2 102 2.75 102.45 2.3 102.45 1.65
M 106.55 5.15
Q 107.4 5.15 108 4.55 108.6 3.95 108.6 3.1 108.6 2.2 108 1.6 107.4 1 106.55 1 105.65 1 105.05 1.6 104.45 2.2 104.45 3.1 104.45 3.95 105.05 4.55 105.65 5.15 106.55 5.15 Z"/>
</g>

<g id="METSP16_IAB_320x480___CROPPED_psd_Asset_Group_1_copy_01_Frame_Didn_t_find_what_you_were_looking_for_on_Robson__0_Layer0_0_MEMBER_7_FILL">
<path fill="#FFFFFF" stroke="none" d="
M 125.6 13.25
Q 125.6 10.45 124.2 8.75 122.75 6.95 120.25 6.95 117.45 6.95 116.3 9.2
L 116.3 8.95
Q 116.3 8.1 115.75 7.6 115.25 7.1 114.45 7.1 113.65 7.1 113.15 7.6 112.65 8.1 112.65 8.95
L 112.65 19
Q 112.65 19.75 113.2 20.3 113.7 20.8 114.45 20.8 115.2 20.8 115.75 20.3 116.3 19.75 116.3 19
L 116.3 13.4
Q 116.3 12.05 116.95 11.25 117.7 10.25 119.15 10.25 120.5 10.25 121.25 11.15 121.95 12 121.95 13.4
L 121.95 19
Q 121.95 19.75 122.5 20.3 123 20.8 123.75 20.8 124.5 20.8 125.05 20.3 125.6 19.75 125.6 19
L 125.6 13.25 Z"/>
</g>

<g id="METSP16_IAB_320x480___CROPPED_psd_Asset_Group_1_copy_01_Frame_Didn_t_find_what_you_were_looking_for_on_Robson__0_Layer0_0_MEMBER_8_FILL">
<path fill="#FFFFFF" stroke="none" d="
M 142.7 19
L 142.7 1.85
Q 142.7 1.1 142.2 0.55 141.65 0 140.9 0 140.1 0 139.6 0.55 139.05 1.1 139.05 1.85
L 139.05 9.1
Q 137.7 6.95 135 6.95 132.1 6.95 130.4 9.1 128.8 11.05 128.8 13.95 128.8 16.85 130.4 18.8 132.1 20.95 135 20.95 137.75 20.95 139.15 18.75
L 139.15 18.95
Q 139.15 19.75 139.65 20.25 140.15 20.8 140.95 20.8 141.75 20.8 142.2 20.3 142.7 19.75 142.7 19
M 135.8 10.05
Q 137.3 10.05 138.2 11.25 139.05 12.35 139.05 13.95 139.05 15.55 138.2 16.65 137.3 17.8 135.8 17.8 134.25 17.8 133.35 16.7 132.45 15.6 132.45 13.95 132.45 12.3 133.35 11.2 134.25 10.05 135.8 10.05 Z"/>
</g>

<g id="METSP16_IAB_320x480___CROPPED_psd_Asset_Group_1_copy_01_Frame_Didn_t_find_what_you_were_looking_for_on_Robson__0_Layer0_0_MEMBER_9_FILL">
<path fill="#FFFFFF" stroke="none" d="
M 0.9 38.65
L 1.05 39.3 4.55 49.8
Q 4.9 50.8 6.1 50.8 7.25 50.8 7.65 49.7
L 10.2 42.35 12.75 49.7
Q 13.15 50.8 14.3 50.8 15.45 50.8 15.85 49.8
L 19.35 39.3 19.45 38.65
Q 19.45 38 19 37.55 18.5 37.1 17.8 37.1 16.65 37.1 16.35 38.1
L 14.2 45.2 11.7 38.2
Q 11.3 37.1 10.2 37.1 9.1 37.1 8.7 38.2
L 6.15 45.2 4.05 38.1
Q 3.65 37.1 2.6 37.1 1.9 37.1 1.4 37.55 0.9 38 0.9 38.65 Z"/>
</g>

<g id="METSP16_IAB_320x480___CROPPED_psd_Asset_Group_1_copy_01_Frame_Didn_t_find_what_you_were_looking_for_on_Robson__0_Layer0_0_MEMBER_10_FILL">
<path fill="#FFFFFF" stroke="none" d="
M 23.05 30.55
Q 22.5 31.1 22.5 31.85
L 22.5 49
Q 22.5 49.75 23.05 50.3 23.6 50.8 24.35 50.8 25.1 50.8 25.65 50.3 26.15 49.75 26.15 49
L 26.15 43.45
Q 26.15 42.1 26.85 41.25 27.6 40.25 29.05 40.25 30.4 40.25 31.15 41.2 31.8 42 31.8 43.45
L 31.8 49
Q 31.8 49.75 32.35 50.3 32.9 50.8 33.65 50.8 34.4 50.8 34.95 50.3 35.5 49.75 35.5 49
L 35.5 43.25
Q 35.5 40.45 34.1 38.75 32.65 36.95 30.1 36.95 27.4 36.95 26.15 39.2
L 26.15 31.85
Q 26.15 31.1 25.65 30.55 25.1 30 24.35 30 23.6 30 23.05 30.55 Z"/>
</g>

<g id="METSP16_IAB_320x480___CROPPED_psd_Asset_Group_1_copy_01_Frame_Didn_t_find_what_you_were_looking_for_on_Robson__0_Layer0_0_MEMBER_11_FILL">
<path fill="#FFFFFF" stroke="none" d="
M 47.1 40.8
Q 47.75 41.4 47.75 43
L 47.75 44
Q 46.5 42.6 44.1 42.6 41.9 42.6 40.6 43.65 39.15 44.75 39.15 46.75 39.15 48.6 40.4 49.75 41.75 50.95 43.9 50.95 46.6 50.95 47.85 48.9
L 47.85 49
Q 47.85 49.75 48.35 50.3 48.85 50.8 49.65 50.8 50.45 50.8 50.95 50.3 51.45 49.75 51.45 49
L 51.45 42.75
Q 51.45 39.95 49.8 38.45 48.1 36.95 45 36.95 43.2 36.95 41.7 37.35 39.5 37.95 39.5 39.25 39.5 39.9 39.95 40.3 40.4 40.75 41.05 40.75 41.35 40.75 42.5 40.45 43.65 40.1 44.65 40.1 46.4 40.1 47.1 40.8
M 43.4 45.5
Q 44.1 45 45.2 45 46.3 45 47 45.5 47.75 46.05 47.75 46.75 47.75 47.5 47 48 46.3 48.5 45.2 48.5 44.15 48.5 43.45 48 42.75 47.55 42.75 46.75 42.75 45.95 43.4 45.5 Z"/>
</g>

<g id="METSP16_IAB_320x480___CROPPED_psd_Asset_Group_1_copy_01_Frame_Didn_t_find_what_you_were_looking_for_on_Robson__0_Layer0_0_MEMBER_12_FILL">
<path fill="#FFFFFF" stroke="none" d="
M 60.7 33.55
Q 60.7 32.8 60.15 32.25 59.6 31.7 58.85 31.7 58.1 31.7 57.55 32.25 57 32.8 57 33.55
L 57 37.35 54.95 37.35
Q 54.3 37.35 53.9 37.8 53.5 38.2 53.5 38.85 53.5 39.5 53.9 39.95 54.3 40.4 54.95 40.4
L 57 40.4 57 49
Q 57 49.75 57.55 50.3 58.1 50.8 58.85 50.8 59.6 50.8 60.15 50.3 60.7 49.75 60.7 49
L 60.7 40.4 63.05 40.4
Q 63.7 40.4 64.15 39.95 64.6 39.5 64.6 38.85 64.6 38.2 64.15 37.8 63.7 37.35 63.05 37.35
L 60.7 37.35 60.7 33.55 Z"/>
</g>

<g id="METSP16_IAB_320x480___CROPPED_psd_Asset_Group_1_copy_01_Frame_Didn_t_find_what_you_were_looking_for_on_Robson__0_Layer0_0_MEMBER_13_FILL">
<path fill="#FFFFFF" stroke="none" d="
M 84.85 37.1
Q 83.65 37.1 83.35 38.05
L 80.5 46.85 77.05 38.05
Q 76.65 37.1 75.55 37.1 74.8 37.1 74.35 37.6 73.9 38.05 73.9 38.75 73.9 39.1 74.05 39.45
L 78.4 50.2
Q 77.7 51.9 75.7 53.5 74.8 54.2 74.8 55 74.8 55.6 75.3 56.05 75.8 56.5 76.45 56.5 77 56.5 77.25 56.3 80.65 54.3 82.95 48.7 84.9 43.9 86.35 39.45 86.5 39 86.5 38.75 86.5 38.05 86.05 37.6 85.6 37.1 84.85 37.1 Z"/>
</g>

<g id="METSP16_IAB_320x480___CROPPED_psd_Asset_Group_1_copy_01_Frame_Didn_t_find_what_you_were_looking_for_on_Robson__0_Layer0_0_MEMBER_14_FILL">
<path fill="#FFFFFF" stroke="none" d="
M 88.3 43.95
Q 88.3 46.9 90.25 48.9 92.25 50.95 95.3 50.95 98.35 50.95 100.35 48.9 102.3 46.9 102.3 43.95 102.3 41 100.35 39 98.35 36.95 95.3 36.95 92.25 36.95 90.25 39 88.3 41 88.3 43.95
M 97.8 41.3
Q 98.7 42.35 98.7 43.95 98.7 45.55 97.8 46.6 96.85 47.75 95.3 47.75 93.75 47.75 92.8 46.6 91.9 45.55 91.9 43.95 91.9 42.35 92.8 41.3 93.75 40.15 95.3 40.15 96.85 40.15 97.8 41.3 Z"/>
</g>

<g id="METSP16_IAB_320x480___CROPPED_psd_Asset_Group_1_copy_01_Frame_Didn_t_find_what_you_were_looking_for_on_Robson__0_Layer0_0_MEMBER_15_FILL">
<path fill="#FFFFFF" stroke="none" d="
M 109.85 46.75
Q 109.15 45.85 109.15 44.45
L 109.15 38.9
Q 109.15 38.15 108.6 37.65 108.1 37.1 107.3 37.1 106.55 37.1 106.05 37.65 105.5 38.15 105.5 38.9
L 105.5 44.65
Q 105.5 47.45 106.9 49.15 108.35 50.95 110.85 50.95 113.55 50.95 114.8 48.7
L 114.8 48.95
Q 114.8 49.8 115.35 50.3 115.85 50.8 116.65 50.8 117.4 50.8 117.95 50.3 118.45 49.8 118.45 48.95
L 118.45 38.9
Q 118.45 38.15 117.95 37.65 117.4 37.1 116.65 37.1 115.85 37.1 115.35 37.65 114.8 38.15 114.8 38.9
L 114.8 44.45
Q 114.8 45.8 114.15 46.65 113.35 47.65 111.95 47.65 110.6 47.65 109.85 46.75 Z"/>
</g>

<g id="METSP16_IAB_320x480___CROPPED_psd_Asset_Group_1_copy_01_Frame_Didn_t_find_what_you_were_looking_for_on_Robson__0_Layer0_0_MEMBER_16_FILL">
<path fill="#FFFFFF" stroke="none" d="
M 140.35 38.2
Q 139.95 37.1 138.85 37.1 137.75 37.1 137.35 38.2
L 134.85 45.2 132.7 38.1
Q 132.4 37.1 131.25 37.1 130.55 37.1 130.1 37.55 129.6 38 129.6 38.65
L 129.7 39.3 133.2 49.8
Q 133.6 50.8 134.8 50.8 135.9 50.8 136.3 49.7
L 138.85 42.35 141.45 49.7
Q 141.8 50.8 142.95 50.8 144.15 50.8 144.5 49.8
L 148 39.3
Q 148.15 39 148.15 38.65 148.15 38 147.65 37.55 147.15 37.1 146.45 37.1 145.35 37.1 145.05 38.1
L 142.9 45.2 140.35 38.2 Z"/>
</g>

<g id="METSP16_IAB_320x480___CROPPED_psd_Asset_Group_1_copy_01_Frame_Didn_t_find_what_you_were_looking_for_on_Robson__0_Layer0_0_MEMBER_17_FILL">
<path fill="#FFFFFF" stroke="none" d="
M 149.95 43.95
Q 149.95 46.95 151.75 48.9 153.65 50.95 156.95 50.95 159.4 50.95 161.4 49.7 162.7 48.85 162.7 47.9 162.7 46.55 161.25 46.55 160.6 46.55 159.9 47.15 158.75 48.05 157.1 48.05 155.6 48.05 154.7 47.2 153.9 46.45 153.8 45.15
L 161.9 45.15
Q 163.2 45.15 163.2 43.95 163.2 40.9 161.45 38.95 159.7 36.95 156.85 36.95 153.85 36.95 151.9 38.95 149.95 40.9 149.95 43.95
M 158.8 40.7
Q 159.5 41.4 159.75 42.55
L 153.85 42.55
Q 154 41.35 154.8 40.65 155.65 39.9 156.85 39.9 158 39.9 158.8 40.7 Z"/>
</g>

<g id="METSP16_IAB_320x480___CROPPED_psd_Asset_Group_1_copy_01_Frame_Didn_t_find_what_you_were_looking_for_on_Robson__0_Layer0_0_MEMBER_18_FILL">
<path fill="#FFFFFF" stroke="none" d="
M 170.4 44.2
Q 170.4 42.35 171.4 41.3 172.35 40.25 174 40.25 174.7 40.25 175.2 39.8 175.65 39.3 175.65 38.6 175.65 37.9 175.2 37.45 174.75 36.95 174 36.95 171.4 36.95 170.4 39.3
L 170.4 38.95
Q 170.4 38.2 169.9 37.65 169.35 37.1 168.6 37.1 167.75 37.1 167.25 37.6 166.7 38.15 166.7 38.95
L 166.7 49
Q 166.7 49.75 167.3 50.3 167.85 50.8 168.6 50.8 169.35 50.8 169.9 50.3 170.4 49.75 170.4 49
L 170.4 44.2 Z"/>
</g>

<g id="METSP16_IAB_320x480___CROPPED_psd_Asset_Group_1_copy_01_Frame_Didn_t_find_what_you_were_looking_for_on_Robson__0_Layer0_0_MEMBER_19_FILL">
<path fill="#FFFFFF" stroke="none" d="
M 178.8 38.95
Q 176.85 40.9 176.85 43.95 176.85 46.95 178.6 48.9 180.5 50.95 183.8 50.95 186.35 50.95 188.25 49.7 189.55 48.9 189.55 47.9 189.55 46.55 188.1 46.55 187.5 46.55 186.75 47.15 185.6 48.05 183.95 48.05 181 48.05 180.65 45.15
L 188.8 45.15
Q 190.1 45.15 190.1 43.95 190.1 40.9 188.35 38.95 186.55 36.95 183.75 36.95 180.75 36.95 178.8 38.95
M 180.7 42.55
Q 180.85 41.35 181.65 40.65 182.5 39.9 183.75 39.9 184.9 39.9 185.7 40.7 186.4 41.45 186.6 42.55
L 180.7 42.55 Z"/>
</g>

<g id="METSP16_IAB_320x480___CROPPED_psd_Asset_Group_1_copy_01_Frame_Didn_t_find_what_you_were_looking_for_on_Robson__0_Layer0_0_MEMBER_20_FILL">
<path fill="#FFFFFF" stroke="none" d="
M 5.8 61.85
Q 5.8 61.1 5.25 60.55 4.7 60 3.95 60 3.2 60 2.7 60.55 2.15 61.1 2.15 61.85
L 2.15 79
Q 2.15 79.75 2.7 80.3 3.2 80.8 3.95 80.8 4.7 80.8 5.25 80.3 5.8 79.75 5.8 79
L 5.8 61.85 Z"/>
</g>

<g id="METSP16_IAB_320x480___CROPPED_psd_Asset_Group_1_copy_01_Frame_Didn_t_find_what_you_were_looking_for_on_Robson__0_Layer0_0_MEMBER_21_FILL">
<path fill="#FFFFFF" stroke="none" d="
M 23.2 73.95
Q 23.2 71 21.25 69 19.25 66.95 16.2 66.95 13.15 66.95 11.15 69 9.2 71 9.2 73.95 9.2 76.9 11.15 78.9 13.15 80.95 16.2 80.95 19.25 80.95 21.25 78.9 23.2 76.9 23.2 73.95
M 18.7 71.3
Q 19.6 72.35 19.6 73.95 19.6 75.55 18.7 76.6 17.75 77.75 16.2 77.75 14.65 77.75 13.7 76.6 12.8 75.55 12.8 73.95 12.8 72.35 13.7 71.3 14.65 70.15 16.2 70.15 17.75 70.15 18.7 71.3 Z"/>
</g>

<g id="METSP16_IAB_320x480___CROPPED_psd_Asset_Group_1_copy_01_Frame_Didn_t_find_what_you_were_looking_for_on_Robson__0_Layer0_0_MEMBER_22_FILL">
<path fill="#FFFFFF" stroke="none" d="
M 39.7 73.95
Q 39.7 71 37.75 69 35.8 66.95 32.75 66.95 29.7 66.95 27.7 69 25.75 71 25.75 73.95 25.75 76.9 27.7 78.9 29.7 80.95 32.75 80.95 35.8 80.95 37.75 78.9 39.7 76.9 39.7 73.95
M 35.2 71.3
Q 36.1 72.35 36.1 73.95 36.1 75.55 35.2 76.6 34.3 77.75 32.75 77.75 31.2 77.75 30.25 76.6 29.35 75.55 29.35 73.95 29.35 72.35 30.25 71.3 31.2 70.15 32.75 70.15 34.3 70.15 35.2 71.3 Z"/>
</g>

<g id="METSP16_IAB_320x480___CROPPED_psd_Asset_Group_1_copy_01_Frame_Didn_t_find_what_you_were_looking_for_on_Robson__0_Layer0_0_MEMBER_23_FILL">
<path fill="#FFFFFF" stroke="none" d="
M 44.95 60
Q 44.2 60 43.7 60.55 43.15 61.1 43.15 61.9
L 43.15 79
Q 43.15 79.75 43.7 80.3 44.2 80.8 44.95 80.8 45.7 80.8 46.25 80.3 46.8 79.75 46.8 79
L 46.8 75.9 48.35 74.7 52.4 80.1
Q 52.85 80.8 53.65 80.8 54.4 80.8 54.9 80.3 55.35 79.85 55.35 79.1 55.35 78.55 55.05 78.15
L 51 72.65 54.35 70
Q 55.15 69.45 55.15 68.8 55.15 68.1 54.65 67.6 54.2 67.1 53.4 67.1 52.8 67.1 52.4 67.45
L 46.8 71.75 46.8 61.9
Q 46.8 61.1 46.25 60.55 45.7 60 44.95 60 Z"/>
</g>

<g id="METSP16_IAB_320x480___CROPPED_psd_Asset_Group_1_copy_01_Frame_Didn_t_find_what_you_were_looking_for_on_Robson__0_Layer0_0_MEMBER_24_FILL">
<path fill="#FFFFFF" stroke="none" d="
M 61.9 64.55
Q 62.5 63.95 62.5 63.1 62.5 62.25 61.9 61.6 61.25 61 60.4 61 59.55 61 58.95 61.6 58.35 62.25 58.35 63.1 58.35 63.95 58.95 64.55 59.55 65.15 60.4 65.15 61.25 65.15 61.9 64.55
M 62.25 68.9
Q 62.25 68.15 61.7 67.65 61.15 67.1 60.4 67.1 59.65 67.1 59.1 67.65 58.55 68.15 58.55 68.9
L 58.55 79
Q 58.55 79.75 59.1 80.3 59.65 80.8 60.4 80.8 61.15 80.8 61.7 80.3 62.25 79.75 62.25 79
L 62.25 68.9 Z"/>
</g>

<g id="METSP16_IAB_320x480___CROPPED_psd_Asset_Group_1_copy_01_Frame_Didn_t_find_what_you_were_looking_for_on_Robson__0_Layer0_0_MEMBER_25_FILL">
<path fill="#FFFFFF" stroke="none" d="
M 70.15 69.2
L 70.15 68.95
Q 70.15 68.1 69.65 67.6 69.1 67.1 68.35 67.1 67.55 67.1 67.05 67.6 66.5 68.1 66.5 68.95
L 66.5 79
Q 66.5 79.75 67.05 80.3 67.6 80.8 68.35 80.8 69.1 80.8 69.65 80.3 70.15 79.75 70.15 79
L 70.15 73.45
Q 70.15 72.1 70.85 71.25 71.6 70.25 73.05 70.25 74.4 70.25 75.1 71.2 75.8 72.05 75.8 73.45
L 75.8 79
Q 75.8 79.75 76.35 80.3 76.9 80.8 77.65 80.8 78.4 80.8 78.95 80.3 79.45 79.75 79.45 79
L 79.45 73.25
Q 79.45 70.45 78.05 68.75 76.6 66.95 74.1 66.95 71.4 66.95 70.15 69.2 Z"/>
</g>

<g id="METSP16_IAB_320x480___CROPPED_psd_Asset_Group_1_copy_01_Frame_Didn_t_find_what_you_were_looking_for_on_Robson__0_Layer0_0_MEMBER_26_FILL">
<path fill="#FFFFFF" stroke="none" d="
M 84.25 69
Q 82.65 70.85 82.65 73.7 82.65 76.55 84.25 78.4 85.95 80.4 88.85 80.4 91.55 80.4 92.9 78.25
L 92.9 79.95
Q 92.9 81.9 92.1 82.75 91.3 83.65 89.35 83.65 88.2 83.65 86.75 83.1 85.45 82.6 85 82.6 83.55 82.6 83.55 83.95 83.55 84.95 84.5 85.4 86.7 86.5 89.3 86.5 96.6 86.5 96.6 79.75
L 96.6 68.9
Q 96.6 68.15 96.1 67.65 95.6 67.1 94.8 67.1 94 67.1 93.55 67.65 93.05 68.15 93.05 68.95
L 93.05 69.15
Q 91.6 66.95 88.85 66.95 85.95 66.95 84.25 69
M 87.2 71.15
Q 88.1 70.1 89.65 70.1 91.15 70.1 92.05 71.15 92.9 72.15 92.9 73.7 92.9 75.2 92.05 76.2 91.15 77.3 89.65 77.3 88.1 77.3 87.2 76.25 86.35 75.3 86.35 73.7 86.35 72.1 87.2 71.15 Z"/>
</g>

<g id="METSP16_IAB_320x480___CROPPED_psd_Asset_Group_1_copy_01_Frame_Didn_t_find_what_you_were_looking_for_on_Robson__0_Layer0_0_MEMBER_27_FILL">
<path fill="#FFFFFF" stroke="none" d="
M 115.9 60.15
Q 113.3 60.15 111.95 61.65 110.65 63.05 110.65 65.5
L 110.65 67.35 109.1 67.35
Q 108.45 67.35 108 67.8 107.55 68.2 107.55 68.85 107.55 69.5 108 69.95 108.45 70.4 109.1 70.4
L 110.65 70.4 110.65 79
Q 110.65 79.75 111.2 80.3 111.7 80.8 112.5 80.8 113.25 80.8 113.8 80.3 114.3 79.75 114.3 79
L 114.3 70.4 116.8 70.4
Q 117.45 70.4 117.9 69.95 118.35 69.5 118.35 68.85 118.35 68.2 117.9 67.8 117.45 67.35 116.8 67.35
L 114.3 67.35 114.3 65.1
Q 114.3 63.2 116.25 63.2
L 117.1 63.2
Q 117.75 63.2 118.2 62.75 118.65 62.3 118.65 61.65 118.65 61 118.2 60.6 117.75 60.15 117.1 60.15
L 115.9 60.15 Z"/>
</g>

<g id="METSP16_IAB_320x480___CROPPED_psd_Asset_Group_1_copy_01_Frame_Didn_t_find_what_you_were_looking_for_on_Robson__0_Layer0_0_MEMBER_28_FILL">
<path fill="#FFFFFF" stroke="none" d="
M 119.4 73.95
Q 119.4 76.9 121.35 78.9 123.35 80.95 126.4 80.95 129.45 80.95 131.4 78.9 133.35 76.9 133.35 73.95 133.35 71 131.4 69 129.45 66.95 126.4 66.95 123.35 66.95 121.35 69 119.4 71 119.4 73.95
M 128.9 71.3
Q 129.8 72.35 129.8 73.95 129.8 75.55 128.9 76.6 127.95 77.75 126.4 77.75 124.85 77.75 123.9 76.6 123 75.55 123 73.95 123 72.35 123.9 71.3 124.85 70.15 126.4 70.15 127.95 70.15 128.9 71.3 Z"/>
</g>

<g id="METSP16_IAB_320x480___CROPPED_psd_Asset_Group_1_copy_01_Frame_Didn_t_find_what_you_were_looking_for_on_Robson__0_Layer0_0_MEMBER_29_FILL">
<path fill="#FFFFFF" stroke="none" d="
M 145.25 69.8
Q 145.7 69.3 145.7 68.6 145.7 67.9 145.25 67.45 144.8 66.95 144.05 66.95 141.45 66.95 140.5 69.3
L 140.5 68.95
Q 140.5 68.2 139.95 67.65 139.4 67.1 138.65 67.1 137.85 67.1 137.3 67.6 136.8 68.15 136.8 68.95
L 136.8 79
Q 136.8 79.75 137.35 80.3 137.9 80.8 138.65 80.8 139.4 80.8 139.95 80.3 140.5 79.75 140.5 79
L 140.5 74.25
Q 140.5 72.4 141.45 71.3 142.45 70.25 144.05 70.25 144.8 70.25 145.25 69.8 Z"/>
</g>

<g id="METSP16_IAB_320x480___CROPPED_psd_Asset_Group_1_copy_01_Frame_Didn_t_find_what_you_were_looking_for_on_Robson__0_Layer0_0_MEMBER_30_FILL">
<path fill="#FFFFFF" stroke="none" d="
M 13.3 108.9
Q 15.25 106.9 15.25 103.95 15.25 101 13.3 99.05 11.3 97 8.25 97 5.2 97 3.25 99.05 1.3 101 1.3 103.95 1.3 106.9 3.25 108.9 5.2 110.95 8.25 110.95 11.3 110.95 13.3 108.9
M 10.75 101.3
Q 11.65 102.35 11.65 103.95 11.65 105.55 10.75 106.65 9.8 107.8 8.25 107.8 6.75 107.8 5.8 106.65 4.9 105.55 4.9 103.95 4.9 102.35 5.8 101.3 6.75 100.15 8.25 100.15 9.8 100.15 10.75 101.3 Z"/>
</g>

<g id="METSP16_IAB_320x480___CROPPED_psd_Asset_Group_1_copy_01_Frame_Didn_t_find_what_you_were_looking_for_on_Robson__0_Layer0_0_MEMBER_31_FILL">
<path fill="#FFFFFF" stroke="none" d="
M 19.2 97.6
Q 18.65 98.1 18.65 98.95
L 18.65 109
Q 18.65 109.75 19.2 110.3 19.75 110.85 20.5 110.85 21.25 110.85 21.8 110.3 22.35 109.75 22.35 109
L 22.35 103.45
Q 22.35 102.1 23 101.25 23.75 100.25 25.2 100.25 26.55 100.25 27.3 101.2 27.95 102.05 27.95 103.45
L 27.95 109
Q 27.95 109.75 28.5 110.3 29.05 110.85 29.8 110.85 30.55 110.85 31.1 110.3 31.65 109.75 31.65 109
L 31.65 103.25
Q 31.65 100.45 30.25 98.75 28.8 97 26.25 97 23.5 97 22.35 99.2
L 22.35 98.95
Q 22.35 98.1 21.8 97.6 21.3 97.1 20.5 97.1 19.7 97.1 19.2 97.6 Z"/>
</g>

<g id="METSP16_IAB_320x480___CROPPED_psd_Asset_Group_1_copy_01_Frame_Didn_t_find_what_you_were_looking_for_on_Robson__0_Layer0_0_MEMBER_32_FILL">
<path fill="#FFFFFF" stroke="none" d="
M 60.1 91.95
Q 58.25 90.25 54.6 90.25
L 46.75 90.25
Q 46 90.25 45.45 90.8 44.9 91.35 44.9 92.15
L 44.9 108.95
Q 44.9 109.75 45.45 110.3 46 110.85 46.75 110.85 47.55 110.85 48.1 110.3 48.65 109.75 48.65 108.95
L 48.65 102.45 54.75 102.45 58.35 109.8
Q 58.85 110.85 59.95 110.85 60.8 110.85 61.35 110.25 61.85 109.7 61.85 108.95 61.85 108.55 61.6 108.15
L 58.5 101.8
Q 61.85 100.35 61.85 96.35 61.85 93.55 60.1 91.95
M 58.1 96.4
Q 58.1 97.55 57.35 98.35 56.55 99.25 55.1 99.25
L 48.65 99.25 48.65 93.7 55.1 93.7
Q 56.55 93.7 57.35 94.55 58.1 95.3 58.1 96.4 Z"/>
</g>

<g id="METSP16_IAB_320x480___CROPPED_psd_Asset_Group_1_copy_01_Frame_Didn_t_find_what_you_were_looking_for_on_Robson__0_Layer0_0_MEMBER_33_FILL">
<path fill="#FFFFFF" stroke="none" d="
M 76.5 108.9
Q 78.45 106.9 78.45 103.95 78.45 101.05 76.5 99.05 74.5 97 71.45 97 68.4 97 66.4 99.05 64.45 101.05 64.45 103.95 64.45 106.9 66.4 108.9 68.4 110.95 71.45 110.95 74.5 110.95 76.5 108.9
M 73.95 101.3
Q 74.85 102.35 74.85 103.95 74.85 105.55 73.95 106.65 73 107.8 71.45 107.8 69.95 107.8 68.95 106.65 68.05 105.55 68.05 103.95 68.05 102.35 68.95 101.3 69.9 100.15 71.45 100.15 73 100.15 73.95 101.3 Z"/>
</g>

<g id="METSP16_IAB_320x480___CROPPED_psd_Asset_Group_1_copy_01_Frame_Didn_t_find_what_you_were_looking_for_on_Robson__0_Layer0_0_MEMBER_34_FILL">
<path fill="#FFFFFF" stroke="none" d="
M 82.4 90.55
Q 81.85 91.1 81.85 91.85
L 81.85 109
Q 81.85 109.75 82.35 110.3 82.85 110.85 83.6 110.85 84.4 110.85 84.9 110.3 85.4 109.75 85.4 108.95
L 85.4 108.8
Q 86.75 110.95 89.55 110.95 92.45 110.95 94.15 108.8 95.75 106.85 95.75 103.95 95.75 101.1 94.15 99.15 92.45 97 89.55 97 86.85 97 85.5 99.15
L 85.5 91.85
Q 85.5 91.1 85 90.55 84.45 90 83.7 90 82.9 90 82.4 90.55
M 91.25 101.25
Q 92.1 102.3 92.1 103.95 92.1 105.65 91.25 106.7 90.3 107.85 88.75 107.85 87.25 107.85 86.35 106.65 85.5 105.6 85.5 103.95 85.5 102.35 86.35 101.25 87.25 100.1 88.75 100.1 90.3 100.1 91.25 101.25 Z"/>
</g>

<g id="METSP16_IAB_320x480___CROPPED_psd_Asset_Group_1_copy_01_Frame_Didn_t_find_what_you_were_looking_for_on_Robson__0_Layer0_0_MEMBER_35_FILL">
<path fill="#FFFFFF" stroke="none" d="
M 104.2 97
Q 101.6 97 100.1 98.15 98.7 99.2 98.7 100.95 98.7 102.65 99.75 103.7 100.95 104.9 103.7 105.65 105.15 106.05 105.65 106.35 106.2 106.65 106.2 107.15 106.2 108.25 104.3 108.25 102.8 108.25 101.35 107.35 100.55 106.85 99.95 106.85 99.4 106.85 99 107.15 98.6 107.5 98.6 108 98.6 109 99.4 109.6 101.25 110.95 104.2 110.95 106.75 110.95 108.25 109.8 109.7 108.7 109.7 106.85 109.7 105 108.3 103.95 107.25 103.15 104.75 102.45 103.2 102.05 102.75 101.8 102.2 101.5 102.2 100.9 102.2 99.9 104.1 99.9 105.15 99.9 106.35 100.4 106.65 100.55 107.2 100.8 107.65 101 107.95 101 109.35 101 109.35 99.65 109.35 98.5 107.5 97.7 106.05 97 104.2 97 Z"/>
</g>

<g id="METSP16_IAB_320x480___CROPPED_psd_Asset_Group_1_copy_01_Frame_Didn_t_find_what_you_were_looking_for_on_Robson__0_Layer0_0_MEMBER_36_FILL">
<path fill="#FFFFFF" stroke="none" d="
M 124.2 108.9
Q 126.15 106.9 126.15 103.95 126.15 101 124.2 99.05 122.25 97 119.2 97 116.15 97 114.15 99.05 112.2 101 112.2 103.95 112.2 106.9 114.15 108.9 116.15 110.95 119.2 110.95 122.25 110.95 124.2 108.9
M 121.7 101.3
Q 122.6 102.35 122.6 103.95 122.6 105.55 121.7 106.65 120.75 107.8 119.2 107.8 117.7 107.8 116.7 106.65 115.8 105.55 115.8 103.95 115.8 102.35 116.7 101.3 117.65 100.15 119.2 100.15 120.75 100.15 121.7 101.3 Z"/>
</g>

<g id="METSP16_IAB_320x480___CROPPED_psd_Asset_Group_1_copy_01_Frame_Didn_t_find_what_you_were_looking_for_on_Robson__0_Layer0_0_MEMBER_37_FILL">
<path fill="#FFFFFF" stroke="none" d="
M 130.15 97.6
Q 129.6 98.1 129.6 98.95
L 129.6 109
Q 129.6 109.75 130.15 110.3 130.65 110.85 131.4 110.85 132.2 110.85 132.7 110.3 133.25 109.75 133.25 109
L 133.25 103.45
Q 133.25 102.15 133.95 101.25 134.7 100.25 136.1 100.25 137.45 100.25 138.2 101.2 138.9 102.05 138.9 103.45
L 138.9 109
Q 138.9 109.75 139.45 110.3 139.95 110.85 140.75 110.85 141.5 110.85 142.05 110.3 142.55 109.75 142.55 109
L 142.55 103.25
Q 142.55 100.45 141.15 98.75 139.7 97 137.2 97 134.45 97 133.25 99.2
L 133.25 98.95
Q 133.25 98.1 132.7 97.6 132.2 97.1 131.4 97.1 130.65 97.1 130.15 97.6 Z"/>
</g>

<g id="METSP16_IAB_320x480___CROPPED_psd_Asset_Group_1_copy_01_Frame_Didn_t_find_what_you_were_looking_for_on_Robson__0_Layer0_0_MEMBER_38_FILL">
<path fill="#FFFFFF" stroke="none" d="
M 152.8 110.2
Q 153.4 109.55 153.4 108.7 153.4 107.85 152.8 107.2 152.15 106.6 151.3 106.6 150.45 106.6 149.8 107.2 149.2 107.85 149.2 108.7 149.2 109.55 149.8 110.2 150.45 110.8 151.3 110.8 152.15 110.8 152.8 110.2
M 147.7 94.05
Q 149.7 93.2 151.45 93.2 154.4 93.2 154.4 95.05 154.4 95.85 153.65 96.55 152.6 97.4 151.95 97.9 150.65 98.9 150.15 99.75 149.5 100.8 149.5 102.55
L 149.5 103.15
Q 149.5 103.85 149.95 104.3 150.45 104.8 151.2 104.8 152 104.8 152.5 104.35 153 103.85 153 103.1
L 153 102.6
Q 153 101.5 153.55 100.85 153.9 100.45 155.55 99.15 156.9 98.1 157.5 97.15 158.05 96.15 158.05 94.85 158.05 92.45 156.25 91.15 154.55 89.9 151.6 89.9 148.8 89.9 146.75 90.95 145.3 91.65 145.3 92.7 145.3 93.35 145.8 93.8 146.25 94.2 146.9 94.2 147.35 94.2 147.7 94.05 Z"/>
</g>

<g id="Mask_flash0_ai_Assets_Layer_1__Clip_Group__0_2_MASK_0_FILL">
<path fill="#FFFFFF" stroke="none" d="
M 0 0
L 0 219.9 295.9 219.9 295.9 0 0 0 Z"/>
</g>

<g id="flash0_ai_Assets_Layer_1__Clip_Group__0_Layer2_0_FILL">
<path fill="#FFFFFF" stroke="none" d="
M 118 156.75
Q 116.65 155.45 114.85 154.95 113.35 154.55 110.9 154.55
L 103.45 154.75
Q 100.95 154.75 98.95 154.55 99.25 160.35 99.25 166.9 99.25 175.4 98.85 185.55 100.85 185.25 101.95 185.25 102.3 185.25 105 185.55
L 104.8 170.8 105.9 170.8
Q 111.1 178.15 113.45 181.8
L 115.8 185.55
Q 117.85 185.25 119.45 185.25 120.95 185.25 123.45 185.55 119.6 180.7 115.85 175.35
L 112.2 170.15
Q 115.6 169.55 117.65 167.6 120.05 165.35 120.05 161.8 120.05 158.75 118 156.75
M 104.8 157
Q 105.5 156.95 108 156.75 110.65 156.75 112.2 157.9 114.1 159.25 114.1 162.6 114.1 165.1 112.7 166.8 111.05 168.8 107.9 168.8
L 104.8 168.7 104.8 157
M 62.25 157.65
Q 62 157.05 62 156 62 155.45 62.25 154.55 54.15 154.8 53.95 154.8 51.25 154.8 45.75 154.55 46.15 160.55 46.15 169.65
L 45.75 185.55
Q 50.1 185.25 54.2 185.25 58.45 185.25 62.5 185.55 62.3 184.9 62.3 183.9 62.3 182.95 62.5 182.4 55.75 182.75 51.7 182.75
L 51.7 170.5 58 170.6
Q 59.15 170.6 61.45 170.8 61.25 170.2 61.25 169.25 61.25 168.65 61.45 167.65 58.65 167.95 51.7 167.95
L 51.7 157.35
Q 56.3 157.35 58 157.45
L 62.25 157.65
M 75.5 157.55
L 77.8 157.55 77.9 175.2
Q 77.9 177.8 77.45 185.55 79.95 185.25 80.55 185.25
L 83.85 185.55
Q 83.5 182.5 83.5 179.35
L 83.6 157.55
Q 89.5 157.55 92.6 157.9 92.4 156.9 92.4 156.25 92.4 155.55 92.6 154.55 87.15 154.8 80.55 154.8 72.95 154.8 68.5 154.55 68.7 155.65 68.7 156.2 68.7 156.8 68.5 157.9 71.7 157.55 75.5 157.55
M 32.55 154.65
Q 31.9 154.65 31.55 154.55 25.95 165.75 20.7 174.95
L 19.05 177.9 16.6 173.55
Q 11.75 164.9 8.05 157.4
L 6.65 154.55 5.65 154.65
Q 5 154.65 4.65 154.55 4.2 158.7 2.7 169.2 1.1 180.1 0.3 184.15
L 0 185.55
Q 1.2 185.25 1.9 185.25 2.8 185.25 4 185.55 4.35 177.85 5.9 165.45 6.55 166.65 10.4 173.65 13.8 180.2 16.65 185.55
L 17.5 185.45 18.4 185.55
Q 22.15 177.05 29.15 165 29.3 166.9 30.6 178.1
L 31.15 185.55
Q 33.25 185.25 34.25 185.25 35.3 185.25 37.5 185.55 37.05 183.55 35.65 174 34.5 164.95 33.85 158.3
L 33.5 154.55
Q 33.2 154.65 32.55 154.65
M 235.9 160.4
Q 236.05 164.45 236.05 166.85
L 235.75 185.55
Q 240.7 185.25 244.35 185.25 246.1 185.25 253 185.55 252.75 184.8 252.75 184 252.75 183.05 253 182.2 250.35 182.6 242.5 182.6
L 241.7 182.6
Q 241.55 175.1 241.55 174 241.55 164.75 242 154.55 240.15 154.8 238.85 154.8 237.15 154.8 235.75 154.55
L 235.9 160.4
M 187 206.1
L 187 203.75 182.85 203.75 182.85 199.15 179.9 200.1 179.9 203.75 176.35 203.75 176.35 206.1 179.9 206.1 179.9 215.3
Q 179.9 219.9 184.8 219.9 185.8 219.9 187.25 219.45
L 187.25 216.95
Q 186.35 217.55 185.25 217.55 184.25 217.55 183.55 216.8 182.85 216.05 182.85 214.7
L 182.85 206.1 187 206.1
M 204.65 217.45
Q 206.9 215.05 206.9 211.6 206.9 208 204.7 205.7 202.45 203.35 198.9 203.35 195.3 203.35 193.05 205.7 190.85 208 190.85 211.6 190.85 215.1 193.1 217.45 195.35 219.9 198.9 219.9 202.35 219.9 204.65 217.45
M 203.8 211.6
Q 203.8 214 202.65 215.65 201.3 217.55 198.9 217.55 196.5 217.55 195.15 215.65 193.95 214 193.95 211.6 193.95 209.2 195.25 207.55 196.65 205.7 198.9 205.7 201.1 205.7 202.5 207.55 203.8 209.2 203.8 211.6
M 227.65 216.8
L 227.6 216.8 223.65 203.75 220.2 203.75 216.15 216.8 216.1 216.8 212.5 203.75 209.3 203.75 214.4 219.5 217.75 219.5 221.75 206.25 221.8 206.25 225.9 219.5 229.25 219.5 234.35 203.75 231.5 203.75 227.65 216.8
M 246.1 205.7
Q 247.95 205.8 248.75 207.2 249.45 208.5 249.45 211.35
L 249.45 219.5 252.35 219.5 252.35 210.15
Q 252.35 203.35 246.45 203.35 244.75 203.35 243.35 204.15 241.95 204.9 241.3 206.25
L 241.25 206.25 241.25 203.75 238.4 203.75 238.4 219.5 241.3 219.5 241.3 212.2
Q 241.3 209.2 242.45 207.5 243.7 205.7 246.1 205.7
M 53.55 206.75
Q 54.4 207.7 54.4 209.85 53.25 209.75 51.3 209.75 48.55 209.75 46.5 210.85 43.95 212.3 43.95 214.95 43.95 217.45 45.6 218.7 47.1 219.9 49.75 219.9 52.95 219.9 54.65 217.45
L 54.7 217.45 54.7 219.5 57.4 219.5
Q 57.3 218.6 57.3 216.4
L 57.3 209.9
Q 57.3 206.6 55.8 205 54.25 203.35 50.95 203.35 48.3 203.35 45.75 204.85
L 45.9 207.3
Q 47.9 205.7 50.5 205.7 52.6 205.7 53.55 206.75
M 48 216.9
Q 47.05 216.15 47.05 214.95 47.05 211.95 52.55 211.95
L 54.4 212 54.4 213.4
Q 54.4 215.25 53.3 216.35 52.1 217.55 50 217.55 48.9 217.55 48 216.9
M 71.2 206.1
L 71.2 203.75 67.05 203.75 67.05 199.15 64.15 200.1 64.15 203.75 60.6 203.75 60.6 206.1 64.15 206.1 64.15 215.3
Q 64.15 219.9 69 219.9 70 219.9 71.45 219.45
L 71.45 216.95
Q 70.65 217.55 69.5 217.55 68.45 217.55 67.75 216.8 67.05 216.05 67.05 214.7
L 67.05 206.1 71.2 206.1
M 101.6 205.7
Q 104.4 205.7 104.4 210.1
L 104.4 219.5 107.3 219.5 107.3 209.4
Q 107.3 203.35 101.85 203.35 100.55 203.35 99.25 204.05 97.7 204.85 96.95 206.4 95.7 203.35 92.45 203.35 89.05 203.35 87.45 206
L 87.4 206 87.4 203.75 84.7 203.75 84.7 219.5 87.6 219.5 87.6 211.55
Q 87.6 209.1 88.55 207.5 89.65 205.7 91.75 205.7 94.55 205.7 94.55 210.1
L 94.55 219.5 97.45 219.5 97.45 211.55
Q 97.45 209.1 98.4 207.5 99.55 205.7 101.6 205.7
M 125.55 218.85
L 125.55 215.95
Q 124.95 216.5 123.6 217 122 217.55 120.7 217.55 118.6 217.55 117.05 216.1 115.5 214.55 115.5 212.25
L 126.75 212.25
Q 126.75 203.35 119.8 203.35 116.5 203.35 114.45 205.6 112.4 207.8 112.4 211.35 112.4 215.35 114.4 217.55 116.45 219.9 120.55 219.9 122.2 219.9 123.6 219.55 123.95 219.45 125.55 218.85
M 122.65 207
Q 123.65 208.2 123.65 210.1
L 115.5 210.1
Q 115.7 208.3 116.65 207.15 117.75 205.7 119.7 205.7 121.55 205.7 122.65 207
M 140.25 206.1
L 140.25 203.75 136.1 203.75 136.1 199.15 133.2 200.1 133.2 203.75 129.6 203.75 129.6 206.1 133.2 206.1 133.2 215.3
Q 133.2 219.9 138.05 219.9 139.05 219.9 140.5 219.45
L 140.5 216.95
Q 139.7 217.55 138.55 217.55 137.5 217.55 136.8 216.8 136.1 216.05 136.1 214.7
L 136.1 206.1 140.25 206.1
M 157.45 211.6
Q 157.45 215.1 159.65 217.45 161.95 219.9 165.45 219.9 168.95 219.9 171.25 217.45 173.5 215.1 173.5 211.6 173.5 208 171.3 205.7 169 203.35 165.45 203.35 161.9 203.35 159.65 205.7 157.45 208 157.45 211.6
M 161.7 215.65
Q 160.5 213.95 160.5 211.6 160.5 209.25 161.8 207.55 163.2 205.7 165.45 205.7 167.7 205.7 169.1 207.55 170.4 209.25 170.4 211.6 170.4 214 169.2 215.65 167.85 217.55 165.45 217.55 163.05 217.55 161.7 215.65
M 153 205.9
Q 153.95 205.9 154.6 206.2
L 154.6 203.6
Q 153.5 203.35 152.65 203.35 151.45 203.35 150.3 204.15 149.15 204.95 148.55 206.2
L 148.5 206.2 148.5 203.75 145.75 203.75 145.75 219.5 148.7 219.5 148.7 212.35
Q 148.7 209.35 149.9 207.65 151.05 205.9 153 205.9
M 154.85 84.2
L 127.3 125.7 198.05 125.7 154.85 84.2
M 160.8 169.65
Q 160.8 162 155.6 157.85 151 154.15 144.05 154.15 136.7 154.15 132.15 158.15 127.1 162.55 127.1 170.7 127.1 177.9 132 182.15 136.65 186.15 143.95 186.15 151.5 186.15 156.15 181.65 160.8 177.15 160.8 169.65
M 152.25 160.55
Q 154.6 164.1 154.6 170.15 154.6 175.7 152.15 179.45 149.25 183.85 143.95 183.85 138.5 183.85 135.7 179.55 133.25 175.85 133.25 170.15 133.25 164.8 135.7 161 138.6 156.5 143.95 156.5 149.5 156.5 152.25 160.55
M 118.8 0.05
L 152.5 51.2 173.25 0.05 118.8 0.05
M 143 67.55
L 99.05 16.3 99.05 129.8 116.5 129.8 143 67.55
M 277.75 167.9
Q 279.05 169.8 282.25 171.2
L 286.9 173.1
Q 290.6 174.65 290.6 178.3 290.6 180.75 289 182.35 287.3 183.95 284.65 183.95 282.4 183.95 280.95 183.05 279.1 181.85 277.65 178.75
L 277.05 178.75
Q 276.7 181.6 276 183.85 280.6 186.15 284.45 186.15 290.15 186.15 293.25 182.95 295.9 180.2 295.9 176.25 295.9 172.7 293.7 170.3 292.8 169.3 291.45 168.6 290.55 168.15 287.55 167 284 165.6 282.95 164.8 281.3 163.5 281.3 161.25 281.3 159.15 282.6 157.85 284.05 156.4 286.6 156.4 288.8 156.4 290.4 157.4 292.05 158.45 292.55 160.3
L 293.15 160.3
Q 293.6 158.35 294.55 156.05 292.4 155.1 291.2 154.75 289.25 154.15 287.05 154.15 281.5 154.15 278.75 157.2 276.55 159.6 276.55 163.2 276.55 166.1 277.75 167.9
M 266.9 170.25
Q 266.9 157.9 267.4 154.55 264.8 154.8 264.2 154.8
L 261 154.55
Q 261.45 158.9 261.45 164.95 261.45 180.15 260.95 185.55 261.95 185.5 264.2 185.25 265.25 185.25 267.35 185.55 266.9 180.8 266.9 170.25
M 199.1 158.15
Q 194.05 162.55 194.05 170.7 194.05 177.9 198.95 182.15 203.6 186.15 210.9 186.15 218.45 186.15 223.1 181.65 227.75 177.15 227.75 169.65 227.75 162 222.55 157.85 218 154.15 211.05 154.15 203.7 154.15 199.1 158.15
M 202.65 161
Q 205.55 156.5 210.9 156.5 216.45 156.5 219.2 160.55 221.55 164.1 221.55 170.15 221.55 175.7 219.1 179.45 216.2 183.85 210.9 183.85 205.45 183.85 202.65 179.55 200.25 175.85 200.25 170.15 200.25 164.8 202.65 161
M 185.95 168.85
Q 188.35 166.4 188.35 162.6 188.35 158.45 185.25 156.25 182.95 154.55 178.65 154.55
L 172.5 154.75
Q 170.05 154.75 167.95 154.55
L 168.2 160.25
Q 168.3 162.1 168.3 167.95
L 168.2 179
Q 168.2 180.1 167.9 185.55 169.35 185.25 171 185.25 172.6 185.25 174.15 185.55 173.85 182.55 173.85 178.45
L 173.85 171.65
Q 175.95 171.85 176.95 171.85 182.95 171.85 185.95 168.85
M 173.85 156.95
Q 175.95 156.75 177 156.75 179.7 156.75 181.15 158.5 182.5 160.1 182.5 162.9 182.5 165.35 181.25 167.2 179.6 169.65 176.25 169.65 175.45 169.65 173.85 169.45
L 173.85 156.95
M 195.85 20.15
L 166 68.25 195.85 119.35 195.85 20.15 Z"/>
</g>
</defs>

<g transform="matrix( 1, 0, 0, 1, -63,-6) ">
<g transform="matrix( 1, 0, 0, 1, 83,177) ">
<g transform="matrix( 1, 0, 0, 1.0003814697265625, -2.2,0) ">
<use xlink:href="#METSP16_IAB_320x480___CROPPED_psd_Asset_Group_1_copy_01_Frame_I_bet_you_Metropolis_has_it__0_Layer0_0_MEMBER_0_FILL"/>
</g>

<g transform="matrix( 1, 0, 0, 1.0003814697265625, -2.2,0) ">
<use xlink:href="#METSP16_IAB_320x480___CROPPED_psd_Asset_Group_1_copy_01_Frame_I_bet_you_Metropolis_has_it__0_Layer0_0_MEMBER_1_FILL"/>
</g>

<g transform="matrix( 1, 0, 0, 1.0003814697265625, -2.2,0) ">
<use xlink:href="#METSP16_IAB_320x480___CROPPED_psd_Asset_Group_1_copy_01_Frame_I_bet_you_Metropolis_has_it__0_Layer0_0_MEMBER_2_FILL"/>
</g>

<g transform="matrix( 1, 0, 0, 1.0003814697265625, -2.2,0) ">
<use xlink:href="#METSP16_IAB_320x480___CROPPED_psd_Asset_Group_1_copy_01_Frame_I_bet_you_Metropolis_has_it__0_Layer0_0_MEMBER_3_FILL"/>
</g>

<g transform="matrix( 1, 0, 0, 1.0003814697265625, -2.2,0) ">
<use xlink:href="#METSP16_IAB_320x480___CROPPED_psd_Asset_Group_1_copy_01_Frame_I_bet_you_Metropolis_has_it__0_Layer0_0_MEMBER_4_FILL"/>
</g>

<g transform="matrix( 1, 0, 0, 1.0003814697265625, -2.2,0) ">
<use xlink:href="#METSP16_IAB_320x480___CROPPED_psd_Asset_Group_1_copy_01_Frame_I_bet_you_Metropolis_has_it__0_Layer0_0_MEMBER_5_FILL"/>
</g>

<g transform="matrix( 1, 0, 0, 1.0003814697265625, -2.2,0) ">
<use xlink:href="#METSP16_IAB_320x480___CROPPED_psd_Asset_Group_1_copy_01_Frame_I_bet_you_Metropolis_has_it__0_Layer0_0_MEMBER_6_FILL"/>
</g>

<g transform="matrix( 1, 0, 0, 1.0003814697265625, -2.2,0) ">
<use xlink:href="#METSP16_IAB_320x480___CROPPED_psd_Asset_Group_1_copy_01_Frame_I_bet_you_Metropolis_has_it__0_Layer0_0_MEMBER_7_FILL"/>
</g>

<g transform="matrix( 1, 0, 0, 1.0003814697265625, -2.2,0) ">
<use xlink:href="#METSP16_IAB_320x480___CROPPED_psd_Asset_Group_1_copy_01_Frame_I_bet_you_Metropolis_has_it__0_Layer0_0_MEMBER_8_FILL"/>
</g>

<g transform="matrix( 1, 0, 0, 1.0003814697265625, -2.2,0) ">
<use xlink:href="#METSP16_IAB_320x480___CROPPED_psd_Asset_Group_1_copy_01_Frame_I_bet_you_Metropolis_has_it__0_Layer0_0_MEMBER_9_FILL"/>
</g>

<g transform="matrix( 1, 0, 0, 1.0003814697265625, -2.2,0) ">
<use xlink:href="#METSP16_IAB_320x480___CROPPED_psd_Asset_Group_1_copy_01_Frame_I_bet_you_Metropolis_has_it__0_Layer0_0_MEMBER_10_FILL"/>
</g>

<g transform="matrix( 1, 0, 0, 1.0003814697265625, -2.2,0) ">
<use xlink:href="#METSP16_IAB_320x480___CROPPED_psd_Asset_Group_1_copy_01_Frame_I_bet_you_Metropolis_has_it__0_Layer0_0_MEMBER_11_FILL"/>
</g>

<g transform="matrix( 1, 0, 0, 1.0003814697265625, -2.2,0) ">
<use xlink:href="#METSP16_IAB_320x480___CROPPED_psd_Asset_Group_1_copy_01_Frame_I_bet_you_Metropolis_has_it__0_Layer0_0_MEMBER_12_FILL"/>
</g>

<g transform="matrix( 1, 0, 0, 1.0003814697265625, -2.2,0) ">
<use xlink:href="#METSP16_IAB_320x480___CROPPED_psd_Asset_Group_1_copy_01_Frame_I_bet_you_Metropolis_has_it__0_Layer0_0_MEMBER_13_FILL"/>
</g>

<g transform="matrix( 1, 0, 0, 1.0003814697265625, -2.2,0) ">
<use xlink:href="#METSP16_IAB_320x480___CROPPED_psd_Asset_Group_1_copy_01_Frame_I_bet_you_Metropolis_has_it__0_Layer0_0_MEMBER_14_FILL"/>
</g>

<g transform="matrix( 1, 0, 0, 1.0003814697265625, -2.2,0) ">
<use xlink:href="#METSP16_IAB_320x480___CROPPED_psd_Asset_Group_1_copy_01_Frame_I_bet_you_Metropolis_has_it__0_Layer0_0_MEMBER_15_FILL"/>
</g>

<g transform="matrix( 1, 0, 0, 1.0003814697265625, -2.2,0) ">
<use xlink:href="#METSP16_IAB_320x480___CROPPED_psd_Asset_Group_1_copy_01_Frame_I_bet_you_Metropolis_has_it__0_Layer0_0_MEMBER_16_FILL"/>
</g>

<g transform="matrix( 1, 0, 0, 1.0003814697265625, -2.2,0) ">
<use xlink:href="#METSP16_IAB_320x480___CROPPED_psd_Asset_Group_1_copy_01_Frame_I_bet_you_Metropolis_has_it__0_Layer0_0_MEMBER_17_FILL"/>
</g>

<g transform="matrix( 1, 0, 0, 1.0003814697265625, -2.2,0) ">
<use xlink:href="#METSP16_IAB_320x480___CROPPED_psd_Asset_Group_1_copy_01_Frame_I_bet_you_Metropolis_has_it__0_Layer0_0_MEMBER_18_FILL"/>
</g>

<g transform="matrix( 1, 0, 0, 1.0003814697265625, -2.2,0) ">
<use xlink:href="#METSP16_IAB_320x480___CROPPED_psd_Asset_Group_1_copy_01_Frame_I_bet_you_Metropolis_has_it__0_Layer0_0_MEMBER_19_FILL"/>
</g>

<g transform="matrix( 1, 0, 0, 1.0003814697265625, -2.2,0) ">
<use xlink:href="#METSP16_IAB_320x480___CROPPED_psd_Asset_Group_1_copy_01_Frame_I_bet_you_Metropolis_has_it__0_Layer0_0_MEMBER_20_FILL"/>
</g>

<g transform="matrix( 1, 0, 0, 1.0003814697265625, -2.2,0) ">
<use xlink:href="#METSP16_IAB_320x480___CROPPED_psd_Asset_Group_1_copy_01_Frame_I_bet_you_Metropolis_has_it__0_Layer0_0_MEMBER_21_FILL"/>
</g>

<g transform="matrix( 1, 0, 0, 1.0003814697265625, -2.2,0) ">
<use xlink:href="#METSP16_IAB_320x480___CROPPED_psd_Asset_Group_1_copy_01_Frame_I_bet_you_Metropolis_has_it__0_Layer0_0_MEMBER_22_FILL"/>
</g>
</g>

<g transform="matrix( 1, 0, 0, 1, 82,40) ">
<g transform="matrix( 1, 0, 0, 1.0003814697265625, -1.2,0.45) ">
<use xlink:href="#METSP16_IAB_320x480___CROPPED_psd_Asset_Group_1_copy_01_Frame_Didn_t_find_what_you_were_looking_for_on_Robson__0_Layer0_0_MEMBER_0_FILL"/>
</g>

<g transform="matrix( 1, 0, 0, 1.0003814697265625, -1.2,0.45) ">
<use xlink:href="#METSP16_IAB_320x480___CROPPED_psd_Asset_Group_1_copy_01_Frame_Didn_t_find_what_you_were_looking_for_on_Robson__0_Layer0_0_MEMBER_1_FILL"/>
</g>

<g transform="matrix( 1, 0, 0, 1.0003814697265625, -1.2,0.45) ">
<use xlink:href="#METSP16_IAB_320x480___CROPPED_psd_Asset_Group_1_copy_01_Frame_Didn_t_find_what_you_were_looking_for_on_Robson__0_Layer0_0_MEMBER_2_FILL"/>
</g>

<g transform="matrix( 1, 0, 0, 1.0003814697265625, -1.2,0.45) ">
<use xlink:href="#METSP16_IAB_320x480___CROPPED_psd_Asset_Group_1_copy_01_Frame_Didn_t_find_what_you_were_looking_for_on_Robson__0_Layer0_0_MEMBER_3_FILL"/>
</g>

<g transform="matrix( 1, 0, 0, 1.0003814697265625, -1.2,0.45) ">
<use xlink:href="#METSP16_IAB_320x480___CROPPED_psd_Asset_Group_1_copy_01_Frame_Didn_t_find_what_you_were_looking_for_on_Robson__0_Layer0_0_MEMBER_4_FILL"/>
</g>

<g transform="matrix( 1, 0, 0, 1.0003814697265625, -1.2,0.45) ">
<use xlink:href="#METSP16_IAB_320x480___CROPPED_psd_Asset_Group_1_copy_01_Frame_Didn_t_find_what_you_were_looking_for_on_Robson__0_Layer0_0_MEMBER_5_FILL"/>
</g>

<g transform="matrix( 1, 0, 0, 1.0003814697265625, -1.2,0.45) ">
<use xlink:href="#METSP16_IAB_320x480___CROPPED_psd_Asset_Group_1_copy_01_Frame_Didn_t_find_what_you_were_looking_for_on_Robson__0_Layer0_0_MEMBER_6_FILL"/>
</g>

<g transform="matrix( 1, 0, 0, 1.0003814697265625, -1.2,0.45) ">
<use xlink:href="#METSP16_IAB_320x480___CROPPED_psd_Asset_Group_1_copy_01_Frame_Didn_t_find_what_you_were_looking_for_on_Robson__0_Layer0_0_MEMBER_7_FILL"/>
</g>

<g transform="matrix( 1, 0, 0, 1.0003814697265625, -1.2,0.45) ">
<use xlink:href="#METSP16_IAB_320x480___CROPPED_psd_Asset_Group_1_copy_01_Frame_Didn_t_find_what_you_were_looking_for_on_Robson__0_Layer0_0_MEMBER_8_FILL"/>
</g>

<g transform="matrix( 1, 0, 0, 1.0003814697265625, -1.2,0.45) ">
<use xlink:href="#METSP16_IAB_320x480___CROPPED_psd_Asset_Group_1_copy_01_Frame_Didn_t_find_what_you_were_looking_for_on_Robson__0_Layer0_0_MEMBER_9_FILL"/>
</g>

<g transform="matrix( 1, 0, 0, 1.0003814697265625, -1.2,0.45) ">
<use xlink:href="#METSP16_IAB_320x480___CROPPED_psd_Asset_Group_1_copy_01_Frame_Didn_t_find_what_you_were_looking_for_on_Robson__0_Layer0_0_MEMBER_10_FILL"/>
</g>

<g transform="matrix( 1, 0, 0, 1.0003814697265625, -1.2,0.45) ">
<use xlink:href="#METSP16_IAB_320x480___CROPPED_psd_Asset_Group_1_copy_01_Frame_Didn_t_find_what_you_were_looking_for_on_Robson__0_Layer0_0_MEMBER_11_FILL"/>
</g>

<g transform="matrix( 1, 0, 0, 1.0003814697265625, -1.2,0.45) ">
<use xlink:href="#METSP16_IAB_320x480___CROPPED_psd_Asset_Group_1_copy_01_Frame_Didn_t_find_what_you_were_looking_for_on_Robson__0_Layer0_0_MEMBER_12_FILL"/>
</g>

<g transform="matrix( 1, 0, 0, 1.0003814697265625, -1.2,0.45) ">
<use xlink:href="#METSP16_IAB_320x480___CROPPED_psd_Asset_Group_1_copy_01_Frame_Didn_t_find_what_you_were_looking_for_on_Robson__0_Layer0_0_MEMBER_13_FILL"/>
</g>

<g transform="matrix( 1, 0, 0, 1.0003814697265625, -1.2,0.45) ">
<use xlink:href="#METSP16_IAB_320x480___CROPPED_psd_Asset_Group_1_copy_01_Frame_Didn_t_find_what_you_were_looking_for_on_Robson__0_Layer0_0_MEMBER_14_FILL"/>
</g>

<g transform="matrix( 1, 0, 0, 1.0003814697265625, -1.2,0.45) ">
<use xlink:href="#METSP16_IAB_320x480___CROPPED_psd_Asset_Group_1_copy_01_Frame_Didn_t_find_what_you_were_looking_for_on_Robson__0_Layer0_0_MEMBER_15_FILL"/>
</g>

<g transform="matrix( 1, 0, 0, 1.0003814697265625, -1.2,0.45) ">
<use xlink:href="#METSP16_IAB_320x480___CROPPED_psd_Asset_Group_1_copy_01_Frame_Didn_t_find_what_you_were_looking_for_on_Robson__0_Layer0_0_MEMBER_16_FILL"/>
</g>

<g transform="matrix( 1, 0, 0, 1.0003814697265625, -1.2,0.45) ">
<use xlink:href="#METSP16_IAB_320x480___CROPPED_psd_Asset_Group_1_copy_01_Frame_Didn_t_find_what_you_were_looking_for_on_Robson__0_Layer0_0_MEMBER_17_FILL"/>
</g>

<g transform="matrix( 1, 0, 0, 1.0003814697265625, -1.2,0.45) ">
<use xlink:href="#METSP16_IAB_320x480___CROPPED_psd_Asset_Group_1_copy_01_Frame_Didn_t_find_what_you_were_looking_for_on_Robson__0_Layer0_0_MEMBER_18_FILL"/>
</g>

<g transform="matrix( 1, 0, 0, 1.0003814697265625, -1.2,0.45) ">
<use xlink:href="#METSP16_IAB_320x480___CROPPED_psd_Asset_Group_1_copy_01_Frame_Didn_t_find_what_you_were_looking_for_on_Robson__0_Layer0_0_MEMBER_19_FILL"/>
</g>

<g transform="matrix( 1, 0, 0, 1.0003814697265625, -1.2,0.45) ">
<use xlink:href="#METSP16_IAB_320x480___CROPPED_psd_Asset_Group_1_copy_01_Frame_Didn_t_find_what_you_were_looking_for_on_Robson__0_Layer0_0_MEMBER_20_FILL"/>
</g>

<g transform="matrix( 1, 0, 0, 1.0003814697265625, -1.2,0.45) ">
<use xlink:href="#METSP16_IAB_320x480___CROPPED_psd_Asset_Group_1_copy_01_Frame_Didn_t_find_what_you_were_looking_for_on_Robson__0_Layer0_0_MEMBER_21_FILL"/>
</g>

<g transform="matrix( 1, 0, 0, 1.0003814697265625, -1.2,0.45) ">
<use xlink:href="#METSP16_IAB_320x480___CROPPED_psd_Asset_Group_1_copy_01_Frame_Didn_t_find_what_you_were_looking_for_on_Robson__0_Layer0_0_MEMBER_22_FILL"/>
</g>

<g transform="matrix( 1, 0, 0, 1.0003814697265625, -1.2,0.45) ">
<use xlink:href="#METSP16_IAB_320x480___CROPPED_psd_Asset_Group_1_copy_01_Frame_Didn_t_find_what_you_were_looking_for_on_Robson__0_Layer0_0_MEMBER_23_FILL"/>
</g>

<g transform="matrix( 1, 0, 0, 1.0003814697265625, -1.2,0.45) ">
<use xlink:href="#METSP16_IAB_320x480___CROPPED_psd_Asset_Group_1_copy_01_Frame_Didn_t_find_what_you_were_looking_for_on_Robson__0_Layer0_0_MEMBER_24_FILL"/>
</g>

<g transform="matrix( 1, 0, 0, 1.0003814697265625, -1.2,0.45) ">
<use xlink:href="#METSP16_IAB_320x480___CROPPED_psd_Asset_Group_1_copy_01_Frame_Didn_t_find_what_you_were_looking_for_on_Robson__0_Layer0_0_MEMBER_25_FILL"/>
</g>

<g transform="matrix( 1, 0, 0, 1.0003814697265625, -1.2,0.45) ">
<use xlink:href="#METSP16_IAB_320x480___CROPPED_psd_Asset_Group_1_copy_01_Frame_Didn_t_find_what_you_were_looking_for_on_Robson__0_Layer0_0_MEMBER_26_FILL"/>
</g>

<g transform="matrix( 1, 0, 0, 1.0003814697265625, -1.2,0.45) ">
<use xlink:href="#METSP16_IAB_320x480___CROPPED_psd_Asset_Group_1_copy_01_Frame_Didn_t_find_what_you_were_looking_for_on_Robson__0_Layer0_0_MEMBER_27_FILL"/>
</g>

<g transform="matrix( 1, 0, 0, 1.0003814697265625, -1.2,0.45) ">
<use xlink:href="#METSP16_IAB_320x480___CROPPED_psd_Asset_Group_1_copy_01_Frame_Didn_t_find_what_you_were_looking_for_on_Robson__0_Layer0_0_MEMBER_28_FILL"/>
</g>

<g transform="matrix( 1, 0, 0, 1.0003814697265625, -1.2,0.45) ">
<use xlink:href="#METSP16_IAB_320x480___CROPPED_psd_Asset_Group_1_copy_01_Frame_Didn_t_find_what_you_were_looking_for_on_Robson__0_Layer0_0_MEMBER_29_FILL"/>
</g>

<g transform="matrix( 1, 0, 0, 1.0003814697265625, -1.2,0.45) ">
<use xlink:href="#METSP16_IAB_320x480___CROPPED_psd_Asset_Group_1_copy_01_Frame_Didn_t_find_what_you_were_looking_for_on_Robson__0_Layer0_0_MEMBER_30_FILL"/>
</g>

<g transform="matrix( 1, 0, 0, 1.0003814697265625, -1.2,0.45) ">
<use xlink:href="#METSP16_IAB_320x480___CROPPED_psd_Asset_Group_1_copy_01_Frame_Didn_t_find_what_you_were_looking_for_on_Robson__0_Layer0_0_MEMBER_31_FILL"/>
</g>

<g transform="matrix( 1, 0, 0, 1.0003814697265625, -1.2,0.45) ">
<use xlink:href="#METSP16_IAB_320x480___CROPPED_psd_Asset_Group_1_copy_01_Frame_Didn_t_find_what_you_were_looking_for_on_Robson__0_Layer0_0_MEMBER_32_FILL"/>
</g>

<g transform="matrix( 1, 0, 0, 1.0003814697265625, -1.2,0.45) ">
<use xlink:href="#METSP16_IAB_320x480___CROPPED_psd_Asset_Group_1_copy_01_Frame_Didn_t_find_what_you_were_looking_for_on_Robson__0_Layer0_0_MEMBER_33_FILL"/>
</g>

<g transform="matrix( 1, 0, 0, 1.0003814697265625, -1.2,0.45) ">
<use xlink:href="#METSP16_IAB_320x480___CROPPED_psd_Asset_Group_1_copy_01_Frame_Didn_t_find_what_you_were_looking_for_on_Robson__0_Layer0_0_MEMBER_34_FILL"/>
</g>

<g transform="matrix( 1, 0, 0, 1.0003814697265625, -1.2,0.45) ">
<use xlink:href="#METSP16_IAB_320x480___CROPPED_psd_Asset_Group_1_copy_01_Frame_Didn_t_find_what_you_were_looking_for_on_Robson__0_Layer0_0_MEMBER_35_FILL"/>
</g>

<g transform="matrix( 1, 0, 0, 1.0003814697265625, -1.2,0.45) ">
<use xlink:href="#METSP16_IAB_320x480___CROPPED_psd_Asset_Group_1_copy_01_Frame_Didn_t_find_what_you_were_looking_for_on_Robson__0_Layer0_0_MEMBER_36_FILL"/>
</g>

<g transform="matrix( 1, 0, 0, 1.0003814697265625, -1.2,0.45) ">
<use xlink:href="#METSP16_IAB_320x480___CROPPED_psd_Asset_Group_1_copy_01_Frame_Didn_t_find_what_you_were_looking_for_on_Robson__0_Layer0_0_MEMBER_37_FILL"/>
</g>

<g transform="matrix( 1, 0, 0, 1.0003814697265625, -1.2,0.45) ">
<use xlink:href="#METSP16_IAB_320x480___CROPPED_psd_Asset_Group_1_copy_01_Frame_Didn_t_find_what_you_were_looking_for_on_Robson__0_Layer0_0_MEMBER_38_FILL"/>
</g>
</g>

<g transform="matrix( 0.2866363525390625, 0, 0, 0.2866363525390625, 81.05,406) ">
<mask id="Mask_Mask_1">
<g transform="matrix( 1, 0, 0, 1, 0,0) ">
<use xlink:href="#Mask_flash0_ai_Assets_Layer_1__Clip_Group__0_2_MASK_0_FILL"/>
</g>
</mask>

<g mask="url(#Mask_Mask_1)">
<g transform="matrix( 1, 0, 0, 1, 0,0) ">
<use xlink:href="#flash0_ai_Assets_Layer_1__Clip_Group__0_Layer2_0_FILL"/>
</g>
</g>
</g>
</g>
</svg>
