
<svg xmlns="http://www.w3.org/2000/svg" version="1.1" xmlns:xlink="http://www.w3.org/1999/xlink" preserveAspectRatio="none" x="0px" y="0px" width="480px" height="320px" viewBox="0 0 480 320">
<defs>
<g id="METSP16_IAB_480x320_psd_Asset_Group_1_copy_2_01_Frame_I_bet_you_Metropolis_has_it__0_Layer0_0_MEMBER_0_FILL">
<path fill="#FFFFFF" stroke="none" d="
M 2.1 0.35
Q 1.75 0.75 1.75 1.25
L 1.75 12.7
Q 1.75 13.25 2.1 13.6 2.5 14 3 14 3.5 14 3.9 13.6 4.25 13.25 4.25 12.7
L 4.25 1.25
Q 4.25 0.75 3.9 0.35 3.55 0 3 0 2.5 0 2.1 0.35 Z"/>
</g>

<g id="METSP16_IAB_480x320_psd_Asset_Group_1_copy_2_01_Frame_I_bet_you_Metropolis_has_it__0_Layer0_0_MEMBER_1_FILL">
<path fill="#FFFFFF" stroke="none" d="
M 22.7 12.6
Q 23.75 11.3 23.75 9.35 23.75 7.45 22.7 6.1 21.55 4.65 19.6 4.65 17.7 4.65 16.85 6.15
L 16.85 1.25
Q 16.85 0.75 16.5 0.35 16.15 0 15.6 0 15.1 0 14.75 0.35 14.4 0.75 14.4 1.25
L 14.4 12.75
Q 14.4 13.3 14.7 13.65 15.05 14 15.6 14 16.1 14 16.45 13.6 16.75 13.25 16.75 12.75
L 16.75 12.6
Q 17.7 14.05 19.6 14.05 21.55 14.05 22.7 12.6
M 20.7 7.55
Q 21.3 8.25 21.3 9.35 21.3 10.45 20.7 11.2 20.1 11.95 19.05 11.95 18.05 11.95 17.45 11.2 16.85 10.45 16.85 9.35 16.85 8.3 17.45 7.55 18.05 6.75 19.05 6.75 20.05 6.75 20.7 7.55 Z"/>
</g>

<g id="METSP16_IAB_480x320_psd_Asset_Group_1_copy_2_01_Frame_I_bet_you_Metropolis_has_it__0_Layer0_0_MEMBER_2_FILL">
<path fill="#FFFFFF" stroke="none" d="
M 33.9 10.15
Q 34.8 10.15 34.8 9.35 34.8 7.35 33.65 6 32.45 4.65 30.55 4.65 28.55 4.65 27.2 6 25.9 7.3 25.9 9.35 25.9 11.4 27.1 12.7 28.35 14.05 30.55 14.05 32.4 14.05 33.55 13.25 34.45 12.75 34.45 12 34.45 11.1 33.45 11.1 33.15 11.1 32.55 11.5 31.9 12.1 30.7 12.1 28.7 12.1 28.45 10.15
L 33.9 10.15
M 31.85 7.2
Q 32.35 7.7 32.45 8.45
L 28.5 8.45
Q 28.6 7.65 29.15 7.15 29.7 6.65 30.55 6.65 31.3 6.65 31.85 7.2 Z"/>
</g>

<g id="METSP16_IAB_480x320_psd_Asset_Group_1_copy_2_01_Frame_I_bet_you_Metropolis_has_it__0_Layer0_0_MEMBER_3_FILL">
<path fill="#FFFFFF" stroke="none" d="
M 41.15 2.4
Q 41.15 1.9 40.8 1.5 40.45 1.15 39.95 1.15 39.45 1.15 39.05 1.5 38.7 1.9 38.7 2.4
L 38.7 4.9 37.35 4.9
Q 36.35 4.9 36.35 5.95 36.35 6.95 37.35 6.95
L 38.7 6.95 38.7 12.75
Q 38.7 13.3 39.05 13.65 39.45 14 39.95 14 40.45 14 40.8 13.65 41.15 13.25 41.15 12.75
L 41.15 6.95 42.75 6.95
Q 43.2 6.95 43.5 6.65 43.8 6.35 43.8 5.95 43.8 5.5 43.5 5.2 43.2 4.9 42.75 4.9
L 41.15 4.9 41.15 2.4 Z"/>
</g>

<g id="METSP16_IAB_480x320_psd_Asset_Group_1_copy_2_01_Frame_I_bet_you_Metropolis_has_it__0_Layer0_0_MEMBER_4_FILL">
<path fill="#FFFFFF" stroke="none" d="
M 59.55 5.9
Q 59.55 5.4 59.25 5.1 58.95 4.75 58.45 4.75 57.6 4.75 57.45 5.4
L 55.5 11.3 53.2 5.4
Q 52.95 4.75 52.2 4.75 51.7 4.75 51.4 5.1 51.1 5.4 51.1 5.9 51.1 6.2 51.2 6.35
L 54.1 13.55
Q 53.6 14.75 52.3 15.8 51.7 16.25 51.7 16.8 51.7 17.2 52.05 17.5 52.35 17.8 52.8 17.8 53.2 17.8 53.35 17.7 55.7 16.25 57.15 12.55 58.5 9.25 59.45 6.35
L 59.55 5.9 Z"/>
</g>

<g id="METSP16_IAB_480x320_psd_Asset_Group_1_copy_2_01_Frame_I_bet_you_Metropolis_has_it__0_Layer0_0_MEMBER_5_FILL">
<path fill="#FFFFFF" stroke="none" d="
M 69.4 6.05
Q 68.05 4.65 66 4.65 63.95 4.65 62.6 6.05 61.3 7.4 61.3 9.35 61.3 11.35 62.6 12.7 63.95 14.05 66 14.05 68.05 14.05 69.4 12.7 70.7 11.35 70.7 9.35 70.7 7.4 69.4 6.05
M 64.3 11.2
Q 63.7 10.45 63.7 9.35 63.7 8.3 64.3 7.55 64.95 6.8 66 6.8 67 6.8 67.65 7.55 68.25 8.3 68.25 9.35 68.25 10.45 67.65 11.2 67 11.95 66 11.95 64.95 11.95 64.3 11.2 Z"/>
</g>

<g id="METSP16_IAB_480x320_psd_Asset_Group_1_copy_2_01_Frame_I_bet_you_Metropolis_has_it__0_Layer0_0_MEMBER_6_FILL">
<path fill="#FFFFFF" stroke="none" d="
M 82.05 6
Q 82.05 5.5 81.7 5.1 81.35 4.75 80.85 4.75 80.35 4.75 79.95 5.1 79.6 5.5 79.6 6
L 79.6 9.7
Q 79.6 11.85 77.65 11.85 76.75 11.85 76.25 11.25 75.8 10.65 75.8 9.7
L 75.8 6
Q 75.8 5.5 75.45 5.1 75.1 4.75 74.6 4.75 74.1 4.75 73.7 5.1 73.35 5.5 73.35 6
L 73.35 9.85
Q 73.35 11.75 74.3 12.85 75.25 14.05 76.95 14.05 78.75 14.05 79.6 12.55
L 79.6 12.75
Q 79.6 13.3 79.95 13.65 80.3 14 80.85 14 82.05 14 82.05 12.75
L 82.05 6 Z"/>
</g>

<g id="METSP16_IAB_480x320_psd_Asset_Group_1_copy_2_01_Frame_I_bet_you_Metropolis_has_it__0_Layer0_0_MEMBER_7_FILL">
<path fill="#FFFFFF" stroke="none" d="
M 105.55 13.65
Q 105.9 13.3 105.9 12.8
L 105.9 1.2
Q 105.9 0 104.7 0 103.95 0 103.6 0.75
L 99 10.35 94.4 0.75
Q 93.95 0 93.3 0 92.8 0 92.45 0.35 92.1 0.7 92.1 1.15
L 92.1 12.8
Q 92.1 13.3 92.45 13.65 92.8 14 93.3 14 93.8 14 94.1 13.65 94.45 13.3 94.45 12.8
L 94.45 6 98 13.35
Q 98.3 14 99 14 99.75 14 100.05 13.35
L 103.55 6 103.55 12.8
Q 103.55 13.3 103.9 13.65 104.2 14 104.7 14 105.2 14 105.55 13.65 Z"/>
</g>

<g id="METSP16_IAB_480x320_psd_Asset_Group_1_copy_2_01_Frame_I_bet_you_Metropolis_has_it__0_Layer0_0_MEMBER_8_FILL">
<path fill="#FFFFFF" stroke="none" d="
M 115.5 11.5
Q 114.85 12.1 113.65 12.1 111.65 12.1 111.4 10.15
L 116.9 10.15
Q 117.75 10.15 117.75 9.35 117.75 7.35 116.6 6 115.4 4.65 113.5 4.65 111.5 4.65 110.15 6 108.85 7.3 108.85 9.35 108.85 11.4 110.05 12.7 111.3 14.05 113.55 14.05 115.3 14.05 116.55 13.25 117.4 12.7 117.4 12 117.4 11.1 116.45 11.1 116.1 11.1 115.5 11.5
M 113.5 6.65
Q 115.1 6.65 115.4 8.45
L 111.45 8.45
Q 111.55 7.65 112.1 7.15 112.65 6.65 113.5 6.65 Z"/>
</g>

<g id="METSP16_IAB_480x320_psd_Asset_Group_1_copy_2_01_Frame_I_bet_you_Metropolis_has_it__0_Layer0_0_MEMBER_9_FILL">
<path fill="#FFFFFF" stroke="none" d="
M 121.7 2.4
L 121.7 4.9 120.3 4.9
Q 119.9 4.9 119.6 5.2 119.3 5.5 119.3 5.95 119.3 6.35 119.6 6.65 119.9 6.95 120.3 6.95
L 121.7 6.95 121.7 12.75
Q 121.7 13.25 122.05 13.65 122.4 14 122.9 14 123.45 14 123.8 13.65 124.15 13.3 124.15 12.75
L 124.15 6.95 125.75 6.95
Q 126.15 6.95 126.45 6.65 126.75 6.35 126.75 5.95 126.75 5.5 126.45 5.2 126.15 4.9 125.75 4.9
L 124.15 4.9 124.15 2.4
Q 124.15 1.9 123.8 1.5 123.45 1.15 122.9 1.15 122.4 1.15 122.05 1.5 121.7 1.9 121.7 2.4 Z"/>
</g>

<g id="METSP16_IAB_480x320_psd_Asset_Group_1_copy_2_01_Frame_I_bet_you_Metropolis_has_it__0_Layer0_0_MEMBER_10_FILL">
<path fill="#FFFFFF" stroke="none" d="
M 134.5 6.6
Q 134.8 6.25 134.8 5.8 134.8 4.65 133.7 4.65 131.95 4.65 131.3 6.25
L 131.3 6
Q 131.3 5.5 130.95 5.15 130.55 4.75 130.05 4.75 128.8 4.75 128.8 6
L 128.8 12.75
Q 128.8 13.25 129.2 13.65 129.55 14 130.05 14 130.6 14 130.95 13.65 131.3 13.3 131.3 12.75
L 131.3 9.55
Q 131.3 8.3 131.95 7.6 132.6 6.9 133.7 6.9 134.2 6.9 134.5 6.6 Z"/>
</g>

<g id="METSP16_IAB_480x320_psd_Asset_Group_1_copy_2_01_Frame_I_bet_you_Metropolis_has_it__0_Layer0_0_MEMBER_11_FILL">
<path fill="#FFFFFF" stroke="none" d="
M 145.5 9.35
Q 145.5 7.4 144.2 6.05 142.85 4.65 140.85 4.65 138.8 4.65 137.45 6.05 136.15 7.4 136.15 9.35 136.15 11.35 137.45 12.7 138.8 14.05 140.85 14.05 142.9 14.05 144.2 12.7 145.5 11.35 145.5 9.35
M 142.5 7.55
Q 143.1 8.3 143.1 9.35 143.1 10.45 142.5 11.2 141.85 11.95 140.85 11.95 139.8 11.95 139.15 11.2 138.55 10.45 138.55 9.35 138.55 8.3 139.15 7.55 139.8 6.8 140.85 6.8 141.85 6.8 142.5 7.55 Z"/>
</g>

<g id="METSP16_IAB_480x320_psd_Asset_Group_1_copy_2_01_Frame_I_bet_you_Metropolis_has_it__0_Layer0_0_MEMBER_12_FILL">
<path fill="#FFFFFF" stroke="none" d="
M 156.65 6.1
Q 155.45 4.65 153.5 4.65 151.7 4.65 150.7 6.15
L 150.7 6
Q 150.7 5.5 150.4 5.15 150.05 4.75 149.5 4.75 149 4.75 148.65 5.1 148.35 5.45 148.35 6
L 148.35 16.6
Q 148.35 17.1 148.7 17.45 149.05 17.8 149.55 17.8 150.05 17.8 150.45 17.45 150.8 17.1 150.8 16.6
L 150.8 12.6
Q 151.65 14.05 153.5 14.05 155.45 14.05 156.65 12.6 157.7 11.3 157.7 9.35 157.7 7.45 156.65 6.1
M 154.65 7.55
Q 155.2 8.25 155.2 9.35 155.2 10.5 154.65 11.2 154 11.95 153 11.95 152 11.95 151.4 11.2 150.8 10.45 150.8 9.35 150.8 8.25 151.35 7.55 151.95 6.75 153 6.75 154 6.75 154.65 7.55 Z"/>
</g>

<g id="METSP16_IAB_480x320_psd_Asset_Group_1_copy_2_01_Frame_I_bet_you_Metropolis_has_it__0_Layer0_0_MEMBER_13_FILL">
<path fill="#FFFFFF" stroke="none" d="
M 169.25 9.35
Q 169.25 7.4 167.95 6.05 166.6 4.65 164.55 4.65 162.55 4.65 161.2 6.05 159.9 7.4 159.9 9.35 159.9 11.35 161.2 12.7 162.5 14.05 164.55 14.05 166.6 14.05 167.95 12.7 169.25 11.35 169.25 9.35
M 166.25 7.55
Q 166.85 8.3 166.85 9.35 166.85 10.45 166.25 11.2 165.6 11.95 164.55 11.95 163.55 11.95 162.9 11.2 162.3 10.45 162.3 9.35 162.3 8.3 162.9 7.55 163.55 6.8 164.55 6.8 165.6 6.8 166.25 7.55 Z"/>
</g>

<g id="METSP16_IAB_480x320_psd_Asset_Group_1_copy_2_01_Frame_I_bet_you_Metropolis_has_it__0_Layer0_0_MEMBER_14_FILL">
<path fill="#FFFFFF" stroke="none" d="
M 173.3 0
Q 172.8 0 172.45 0.35 172.1 0.75 172.1 1.25
L 172.1 12.75
Q 172.1 13.25 172.45 13.65 172.8 14 173.3 14 173.85 14 174.2 13.65 174.55 13.3 174.55 12.75
L 174.55 1.25
Q 174.55 0.75 174.2 0.35 173.85 0 173.3 0 Z"/>
</g>

<g id="METSP16_IAB_480x320_psd_Asset_Group_1_copy_2_01_Frame_I_bet_you_Metropolis_has_it__0_Layer0_0_MEMBER_15_FILL">
<path fill="#FFFFFF" stroke="none" d="
M 178.25 5.1
Q 177.9 5.5 177.9 6
L 177.9 12.75
Q 177.9 13.3 178.25 13.65 178.65 14 179.15 14 179.7 14 180.05 13.65 180.4 13.3 180.4 12.75
L 180.4 6
Q 180.4 5.5 180.05 5.1 179.7 4.75 179.15 4.75 178.65 4.75 178.25 5.1
M 180.55 2.05
Q 180.55 1.5 180.15 1.05 179.75 0.65 179.15 0.65 178.55 0.65 178.15 1.05 177.75 1.5 177.75 2.05 177.75 2.65 178.15 3.05 178.55 3.45 179.15 3.45 179.75 3.45 180.15 3.05 180.55 2.65 180.55 2.05 Z"/>
</g>

<g id="METSP16_IAB_480x320_psd_Asset_Group_1_copy_2_01_Frame_I_bet_you_Metropolis_has_it__0_Layer0_0_MEMBER_16_FILL">
<path fill="#FFFFFF" stroke="none" d="
M 187.2 4.65
Q 185.45 4.65 184.5 5.45 183.55 6.2 183.55 7.35 183.55 8.5 184.25 9.2 185.05 10 186.9 10.5 188.6 11 188.6 11.5 188.6 12.25 187.3 12.25 186.4 12.25 185.3 11.65 184.85 11.3 184.35 11.3 184 11.3 183.7 11.55 183.45 11.75 183.45 12.1 183.45 12.75 184 13.15 185.25 14.05 187.25 14.05 188.95 14.05 189.95 13.3 190.9 12.55 190.9 11.3 190.9 10.05 190 9.35 189.3 8.85 187.6 8.35 186.55 8.1 186.25 7.9 185.9 7.7 185.9 7.3 185.9 6.65 187.15 6.65 187.85 6.65 188.65 6.95 189.45 7.35 189.75 7.35 190.7 7.35 190.7 6.45 190.7 5.7 189.45 5.15 188.45 4.65 187.2 4.65 Z"/>
</g>

<g id="METSP16_IAB_480x320_psd_Asset_Group_1_copy_2_01_Frame_I_bet_you_Metropolis_has_it__0_Layer0_0_MEMBER_17_FILL">
<path fill="#FFFFFF" stroke="none" d="
M 205.25 4.65
Q 203.45 4.65 202.6 6.15
L 202.6 1.25
Q 202.6 0.75 202.25 0.35 201.9 0 201.4 0 200.9 0 200.5 0.35 200.15 0.75 200.15 1.25
L 200.15 12.75
Q 200.15 13.3 200.5 13.65 200.9 14 201.4 14 201.9 14 202.25 13.65 202.6 13.25 202.6 12.75
L 202.6 9
Q 202.6 8.1 203.05 7.55 203.55 6.9 204.55 6.9 205.45 6.9 205.95 7.5 206.4 8.1 206.4 9
L 206.4 12.75
Q 206.4 13.3 206.75 13.65 207.15 14 207.65 14 208.15 14 208.5 13.65 208.85 13.25 208.85 12.75
L 208.85 8.9
Q 208.85 7 207.9 5.85 206.95 4.65 205.25 4.65 Z"/>
</g>

<g id="METSP16_IAB_480x320_psd_Asset_Group_1_copy_2_01_Frame_I_bet_you_Metropolis_has_it__0_Layer0_0_MEMBER_18_FILL">
<path fill="#FFFFFF" stroke="none" d="
M 215.75 4.65
Q 214.6 4.65 213.55 4.95 212.05 5.35 212.05 6.2 212.05 7.2 213.1 7.2 213.3 7.2 214.1 7 214.9 6.75 215.55 6.75 216.75 6.75 217.2 7.25 217.65 7.7 217.65 8.75
L 217.65 9.4
Q 216.75 8.45 215.15 8.45 213.65 8.45 212.8 9.15 211.85 9.9 211.85 11.25 211.85 12.5 212.7 13.25 213.55 14.05 215.05 14.05 216.85 14.05 217.7 12.7
L 217.7 12.75
Q 217.7 13.3 218.05 13.65 218.4 14 218.9 14 219.4 14 219.75 13.65 220.1 13.3 220.1 12.75
L 220.1 8.55
Q 220.1 6.65 219 5.65 217.85 4.65 215.75 4.65
M 214.75 12.1
Q 214.3 11.8 214.3 11.25 214.3 10.1 215.9 10.1 216.65 10.1 217.15 10.45 217.65 10.75 217.65 11.25 217.65 11.75 217.15 12.1 216.65 12.45 215.9 12.45 215.2 12.45 214.75 12.1 Z"/>
</g>

<g id="METSP16_IAB_480x320_psd_Asset_Group_1_copy_2_01_Frame_I_bet_you_Metropolis_has_it__0_Layer0_0_MEMBER_19_FILL">
<path fill="#FFFFFF" stroke="none" d="
M 226.7 4.65
Q 224.95 4.65 224 5.45 223.05 6.2 223.05 7.35 223.05 8.5 223.75 9.2 224.55 10 226.4 10.5 228.1 11 228.1 11.5 228.1 12.25 226.8 12.25 225.8 12.25 224.85 11.65 224.35 11.3 223.85 11.3 223.5 11.3 223.25 11.55 222.95 11.75 222.95 12.1 222.95 12.75 223.5 13.15 224.8 14.05 226.75 14.05 228.45 14.05 229.45 13.3 230.45 12.55 230.45 11.3 230.45 10.05 229.5 9.35 228.8 8.85 227.1 8.35 226.05 8.05 225.75 7.9 225.4 7.7 225.4 7.3 225.4 6.65 226.65 6.65 227.3 6.65 228.2 6.95 228.9 7.35 229.25 7.35 230.2 7.35 230.2 6.45 230.2 5.7 228.95 5.15 227.95 4.65 226.7 4.65 Z"/>
</g>

<g id="METSP16_IAB_480x320_psd_Asset_Group_1_copy_2_01_Frame_I_bet_you_Metropolis_has_it__0_Layer0_0_MEMBER_20_FILL">
<path fill="#FFFFFF" stroke="none" d="
M 240 5.1
Q 239.65 5.5 239.65 6
L 239.65 12.75
Q 239.65 13.3 240 13.65 240.4 14 240.9 14 241.4 14 241.75 13.65 242.1 13.25 242.1 12.75
L 242.1 6
Q 242.1 5.5 241.75 5.1 241.4 4.75 240.9 4.75 240.4 4.75 240 5.1
M 241.9 1.05
Q 241.45 0.65 240.9 0.65 240.3 0.65 239.9 1.05 239.5 1.5 239.5 2.05 239.5 2.65 239.9 3.05 240.3 3.45 240.9 3.45 241.45 3.45 241.9 3.05 242.3 2.65 242.3 2.05 242.3 1.5 241.9 1.05 Z"/>
</g>

<g id="METSP16_IAB_480x320_psd_Asset_Group_1_copy_2_01_Frame_I_bet_you_Metropolis_has_it__0_Layer0_0_MEMBER_21_FILL">
<path fill="#FFFFFF" stroke="none" d="
M 251.75 5.95
Q 251.75 5.5 251.45 5.2 251.15 4.9 250.7 4.9
L 249.1 4.9 249.1 2.4
Q 249.1 1.9 248.75 1.5 248.4 1.15 247.9 1.15 247.4 1.15 247 1.5 246.65 1.9 246.65 2.4
L 246.65 4.9 245.3 4.9
Q 244.85 4.9 244.55 5.2 244.25 5.5 244.25 5.95 244.25 6.35 244.55 6.65 244.85 6.95 245.3 6.95
L 246.65 6.95 246.65 12.75
Q 246.65 13.3 247 13.65 247.4 14 247.9 14 248.4 14 248.75 13.65 249.1 13.25 249.1 12.75
L 249.1 6.95 250.7 6.95
Q 251.15 6.95 251.45 6.65 251.75 6.35 251.75 5.95 Z"/>
</g>

<g id="METSP16_IAB_480x320_psd_Asset_Group_1_copy_2_01_Frame_I_bet_you_Metropolis_has_it__0_Layer0_0_MEMBER_22_FILL">
<path fill="#FFFFFF" stroke="none" d="
M 254.95 13.55
Q 255.35 13.15 255.35 12.55 255.35 11.95 254.95 11.55 254.55 11.15 253.95 11.15 253.35 11.15 252.95 11.55 252.55 11.95 252.55 12.55 252.55 13.15 252.95 13.55 253.35 13.95 253.95 13.95 254.55 13.95 254.95 13.55 Z"/>
</g>

<g id="METSP16_IAB_480x320_psd_Asset_Group_1_copy_2_01_Frame_Didn_t_find_what_you_were_looking_for_on_Robson__0_Layer0_0_MEMBER_0_FILL">
<path fill="#FFFFFF" stroke="none" d="
M 22.95 23.4
Q 26.6 19.6 26.6 13.8 26.6 8.05 22.95 4.25 19.2 0.3 13.15 0.3
L 5.75 0.3
Q 4.75 0.3 4 1.05 3.25 1.75 3.25 2.8
L 3.25 24.8
Q 3.25 25.8 4 26.55 4.75 27.3 5.75 27.3
L 13.15 27.3
Q 19.2 27.3 22.95 23.4
M 12.9 4.9
Q 17 4.9 19.4 7.4 21.65 9.8 21.65 13.8 21.65 17.85 19.4 20.25 17 22.75 12.9 22.75
L 8.2 22.75 8.2 4.9 12.9 4.9 Z"/>
</g>

<g id="METSP16_IAB_480x320_psd_Asset_Group_1_copy_2_01_Frame_Didn_t_find_what_you_were_looking_for_on_Robson__0_Layer0_0_MEMBER_1_FILL">
<path fill="#FFFFFF" stroke="none" d="
M 32.85 10.1
Q 32.15 10.85 32.15 11.85
L 32.15 25.2
Q 32.15 26.2 32.85 26.95 33.6 27.65 34.6 27.65 35.6 27.65 36.35 26.95 37.05 26.2 37.05 25.2
L 37.05 11.85
Q 37.05 10.85 36.35 10.1 35.6 9.4 34.6 9.4 33.6 9.4 32.85 10.1
M 36.55 6.05
Q 37.35 5.25 37.35 4.1 37.35 2.95 36.55 2.15 35.75 1.35 34.6 1.35 33.45 1.35 32.65 2.15 31.85 2.95 31.85 4.1 31.85 5.25 32.65 6.05 33.45 6.85 34.6 6.85 35.75 6.85 36.55 6.05 Z"/>
</g>

<g id="METSP16_IAB_480x320_psd_Asset_Group_1_copy_2_01_Frame_Didn_t_find_what_you_were_looking_for_on_Robson__0_Layer0_0_MEMBER_2_FILL">
<path fill="#FFFFFF" stroke="none" d="
M 56.1 12.1
Q 54.35 9.25 50.7 9.25 46.9 9.25 44.6 12.1 42.5 14.7 42.5 18.5 42.5 22.35 44.6 24.95 46.9 27.8 50.7 27.8 54.4 27.8 56.25 24.9
L 56.25 25.15
Q 56.25 26.2 56.9 26.9 57.55 27.65 58.6 27.65 59.65 27.65 60.3 26.95 60.95 26.25 60.95 25.2
L 60.95 2.45
Q 60.95 1.45 60.25 0.7 59.55 0 58.55 0 57.55 0 56.8 0.7 56.1 1.45 56.1 2.45
L 56.1 12.1
M 48.5 22.15
Q 47.35 20.7 47.35 18.5 47.35 16.35 48.5 14.9 49.75 13.35 51.75 13.35 53.75 13.35 55 14.9 56.1 16.35 56.1 18.5 56.1 20.65 55 22.1 53.75 23.65 51.75 23.65 49.75 23.65 48.5 22.15 Z"/>
</g>

<g id="METSP16_IAB_480x320_psd_Asset_Group_1_copy_2_01_Frame_Didn_t_find_what_you_were_looking_for_on_Robson__0_Layer0_0_MEMBER_3_FILL">
<path fill="#FFFFFF" stroke="none" d="
M 84.85 17.6
Q 84.85 13.85 83 11.6 81.1 9.25 77.75 9.25 74.15 9.25 72.5 12.2
L 72.5 11.85
Q 72.5 10.75 71.8 10.05 71.15 9.4 70.1 9.4 69.05 9.4 68.35 10.05 67.65 10.75 67.65 11.85
L 67.65 25.2
Q 67.65 26.2 68.35 26.95 69.1 27.65 70.1 27.65 71.1 27.65 71.8 26.95 72.5 26.2 72.5 25.2
L 72.5 17.8
Q 72.5 16.05 73.4 14.9 74.4 13.6 76.3 13.6 78.15 13.6 79.1 14.8 80 15.95 80 17.8
L 80 25.2
Q 80 26.2 80.7 26.95 81.45 27.65 82.45 27.65 83.45 27.65 84.15 26.95 84.85 26.2 84.85 25.2
L 84.85 17.6 Z"/>
</g>

<g id="METSP16_IAB_480x320_psd_Asset_Group_1_copy_2_01_Frame_Didn_t_find_what_you_were_looking_for_on_Robson__0_Layer0_0_MEMBER_4_FILL">
<path fill="#FFFFFF" stroke="none" d="
M 94.25 10.75
Q 96.1 7.9 96.1 3.25
L 96.1 2.25
Q 96.1 1.2 95.55 0.6 94.95 -0.05 93.95 -0.05 92.95 -0.05 92.35 0.6 91.8 1.25 91.8 2.25
L 91.8 3.45
Q 91.8 5.25 91.6 6.3 91.3 7.6 90.5 9.05 90.05 9.85 90.05 10.4 90.05 11.1 90.6 11.55 91.2 12.1 92.15 12.1 93.4 12.1 94.25 10.75 Z"/>
</g>

<g id="METSP16_IAB_480x320_psd_Asset_Group_1_copy_2_01_Frame_Didn_t_find_what_you_were_looking_for_on_Robson__0_Layer0_0_MEMBER_5_FILL">
<path fill="#FFFFFF" stroke="none" d="
M 114.5 11.75
Q 114.5 10.9 113.9 10.3 113.3 9.7 112.45 9.7
L 109.3 9.7 109.3 4.7
Q 109.3 3.7 108.6 2.95 107.85 2.25 106.85 2.25 105.85 2.25 105.15 2.95 104.45 3.7 104.45 4.7
L 104.45 9.7 101.7 9.7
Q 100.9 9.7 100.3 10.3 99.75 10.9 99.75 11.75 99.75 12.6 100.3 13.2 100.85 13.75 101.7 13.75
L 104.45 13.75 104.45 25.2
Q 104.45 26.2 105.15 26.95 105.85 27.65 106.85 27.65 107.85 27.65 108.6 26.95 109.3 26.2 109.3 25.2
L 109.3 13.75 112.45 13.75
Q 113.3 13.75 113.9 13.2 114.5 12.6 114.5 11.75 Z"/>
</g>

<g id="METSP16_IAB_480x320_psd_Asset_Group_1_copy_2_01_Frame_Didn_t_find_what_you_were_looking_for_on_Robson__0_Layer0_0_MEMBER_6_FILL">
<path fill="#FFFFFF" stroke="none" d="
M 146.8 10.1
Q 146.1 10.85 146.1 11.85
L 146.1 25.2
Q 146.1 26.2 146.8 26.95 147.55 27.65 148.55 27.65 149.55 27.65 150.3 26.95 151 26.2 151 25.2
L 151 11.85
Q 151 10.85 150.3 10.1 149.55 9.4 148.55 9.4 147.55 9.4 146.8 10.1
M 143.15 2.2
Q 143.15 1.35 142.55 0.75 142 0.15 141.15 0.15
L 139.5 0.15
Q 136.05 0.15 134.25 2.15 132.55 4 132.55 7.25
L 132.55 9.7 130.5 9.7
Q 129.65 9.7 129.05 10.3 128.45 10.9 128.45 11.75 128.45 12.6 129.05 13.2 129.65 13.75 130.5 13.75
L 132.55 13.75 132.55 25.2
Q 132.55 26.2 133.25 26.95 134 27.65 135 27.65 136 27.65 136.7 26.95 137.4 26.2 137.4 25.2
L 137.4 13.75 140.75 13.75
Q 141.6 13.75 142.15 13.2 142.75 12.6 142.75 11.75 142.75 10.9 142.15 10.3 141.6 9.7 140.75 9.7
L 137.4 9.7 137.4 6.75
Q 137.4 4.2 140 4.2
L 141.15 4.2
Q 142 4.2 142.55 3.6 143.15 3.05 143.15 2.2
M 150.5 6.05
Q 151.3 5.25 151.3 4.1 151.3 2.95 150.5 2.15 149.7 1.35 148.55 1.35 147.4 1.35 146.6 2.15 145.8 2.95 145.8 4.1 145.8 5.25 146.6 6.05 147.4 6.85 148.55 6.85 149.7 6.85 150.5 6.05 Z"/>
</g>

<g id="METSP16_IAB_480x320_psd_Asset_Group_1_copy_2_01_Frame_Didn_t_find_what_you_were_looking_for_on_Robson__0_Layer0_0_MEMBER_7_FILL">
<path fill="#FFFFFF" stroke="none" d="
M 169.1 14.8
Q 170 15.95 170 17.8
L 170 25.2
Q 170 26.2 170.7 26.95 171.45 27.65 172.45 27.65 173.45 27.65 174.2 26.95 174.9 26.2 174.9 25.2
L 174.9 17.6
Q 174.9 13.85 173.05 11.6 171.1 9.25 167.75 9.25 164.15 9.25 162.5 12.2
L 162.5 11.85
Q 162.5 10.75 161.8 10.05 161.15 9.4 160.1 9.4 159.05 9.4 158.35 10.05 157.65 10.75 157.65 11.85
L 157.65 25.2
Q 157.65 26.2 158.35 26.95 159.1 27.65 160.1 27.65 161.1 27.65 161.8 26.95 162.5 26.2 162.5 25.2
L 162.5 17.8
Q 162.5 16.05 163.4 14.9 164.45 13.6 166.35 13.6 168.15 13.6 169.1 14.8 Z"/>
</g>

<g id="METSP16_IAB_480x320_psd_Asset_Group_1_copy_2_01_Frame_Didn_t_find_what_you_were_looking_for_on_Robson__0_Layer0_0_MEMBER_8_FILL">
<path fill="#FFFFFF" stroke="none" d="
M 193.75 2.45
L 193.75 12.1
Q 192 9.25 188.35 9.25 184.55 9.25 182.25 12.1 180.15 14.7 180.15 18.5 180.15 22.35 182.25 24.95 184.55 27.8 188.35 27.8 192.05 27.8 193.9 24.9
L 193.9 25.15
Q 193.9 26.2 194.55 26.9 195.2 27.65 196.25 27.65 197.3 27.65 197.95 26.95 198.6 26.25 198.6 25.2
L 198.6 2.45
Q 198.6 1.45 197.9 0.7 197.2 0 196.2 0 195.2 0 194.45 0.7 193.75 1.45 193.75 2.45
M 186.15 22.15
Q 185 20.7 185 18.5 185 16.35 186.15 14.9 187.4 13.35 189.4 13.35 191.4 13.35 192.65 14.9 193.75 16.35 193.75 18.5 193.75 20.65 192.65 22.1 191.4 23.65 189.4 23.65 187.4 23.65 186.15 22.15 Z"/>
</g>

<g id="METSP16_IAB_480x320_psd_Asset_Group_1_copy_2_01_Frame_Didn_t_find_what_you_were_looking_for_on_Robson__0_Layer0_0_MEMBER_9_FILL">
<path fill="#FFFFFF" stroke="none" d="
M 23.6 46.9
Q 22.15 46.9 21.7 48.3
L 18.9 57.7 15.5 48.35
Q 15 46.9 13.55 46.9 12.05 46.9 11.55 48.35
L 8.2 57.7 5.35 48.3
Q 4.9 46.9 3.45 46.9 2.5 46.9 1.85 47.5 1.2 48.1 1.2 49 1.2 49.4 1.4 49.8
L 6.05 63.75
Q 6.45 65.15 8.1 65.15 9.55 65.15 10.15 63.7
L 13.55 53.85 16.95 63.7
Q 17.45 65.15 18.95 65.15 20.55 65.15 21.05 63.75
L 25.7 49.8 25.85 49
Q 25.85 48.1 25.2 47.5 24.55 46.9 23.6 46.9 Z"/>
</g>

<g id="METSP16_IAB_480x320_psd_Asset_Group_1_copy_2_01_Frame_Didn_t_find_what_you_were_looking_for_on_Robson__0_Layer0_0_MEMBER_10_FILL">
<path fill="#FFFFFF" stroke="none" d="
M 46.3 49.1
Q 44.35 46.75 41 46.75 37.4 46.75 35.75 49.7
L 35.75 39.95
Q 35.75 38.95 35.05 38.2 34.35 37.5 33.35 37.5 32.35 37.5 31.6 38.2 30.9 38.95 30.9 39.95
L 30.9 62.7
Q 30.9 63.7 31.6 64.45 32.35 65.15 33.35 65.15 34.35 65.15 35.05 64.45 35.75 63.7 35.75 62.7
L 35.75 55.35
Q 35.75 53.55 36.65 52.4 37.65 51.1 39.6 51.1 41.4 51.1 42.35 52.35 43.25 53.5 43.25 55.35
L 43.25 62.7
Q 43.25 63.7 43.95 64.45 44.7 65.15 45.7 65.15 46.7 65.15 47.45 64.45 48.15 63.7 48.15 62.7
L 48.15 55.1
Q 48.15 51.4 46.3 49.1 Z"/>
</g>

<g id="METSP16_IAB_480x320_psd_Asset_Group_1_copy_2_01_Frame_Didn_t_find_what_you_were_looking_for_on_Robson__0_Layer0_0_MEMBER_11_FILL">
<path fill="#FFFFFF" stroke="none" d="
M 61.8 46.75
Q 59.35 46.75 57.4 47.3 54.45 48.1 54.45 49.8 54.45 50.65 55.05 51.2 55.65 51.75 56.5 51.75 56.9 51.75 58.45 51.35 60 50.9 61.35 50.9 63.65 50.9 64.6 51.8 65.45 52.65 65.45 54.75
L 65.45 56.05
Q 63.75 54.2 60.55 54.2 57.65 54.2 55.9 55.6 54 57.05 54 59.75 54 62.2 55.7 63.75 57.45 65.3 60.3 65.3 63.85 65.3 65.55 62.6
L 65.55 62.7
Q 65.55 63.75 66.25 64.45 66.9 65.15 67.95 65.15 69 65.15 69.7 64.45 70.35 63.75 70.35 62.7
L 70.35 54.45
Q 70.35 50.7 68.15 48.7 65.95 46.75 61.8 46.75
M 64.45 58.15
Q 65.45 58.8 65.45 59.75 65.45 60.7 64.45 61.4 63.5 62.05 62.05 62.05 60.65 62.05 59.75 61.45 58.8 60.8 58.8 59.75 58.8 58.7 59.7 58.1 60.6 57.45 62.05 57.45 63.45 57.45 64.45 58.15 Z"/>
</g>

<g id="METSP16_IAB_480x320_psd_Asset_Group_1_copy_2_01_Frame_Didn_t_find_what_you_were_looking_for_on_Robson__0_Layer0_0_MEMBER_12_FILL">
<path fill="#FFFFFF" stroke="none" d="
M 82.9 40.5
Q 82.2 39.8 81.2 39.8 80.2 39.8 79.45 40.5 78.75 41.2 78.75 42.2
L 78.75 47.25 76.05 47.25
Q 75.2 47.25 74.6 47.8 74.05 48.4 74.05 49.25 74.05 50.1 74.6 50.7 75.2 51.3 76.05 51.3
L 78.75 51.3 78.75 62.7
Q 78.75 63.7 79.45 64.45 80.2 65.15 81.2 65.15 82.2 65.15 82.9 64.45 83.6 63.7 83.6 62.7
L 83.6 51.3 86.75 51.3
Q 87.6 51.3 88.2 50.7 88.8 50.1 88.8 49.25 88.8 48.4 88.2 47.8 87.6 47.25 86.75 47.25
L 83.6 47.25 83.6 42.2
Q 83.6 41.2 82.9 40.5 Z"/>
</g>

<g id="METSP16_IAB_480x320_psd_Asset_Group_1_copy_2_01_Frame_Didn_t_find_what_you_were_looking_for_on_Robson__0_Layer0_0_MEMBER_13_FILL">
<path fill="#FFFFFF" stroke="none" d="
M 103.8 47.55
Q 103.2 48.2 103.2 49.15 103.2 49.65 103.4 50.05
L 109.15 64.35
Q 108.55 65.75 107.65 66.75 106.95 67.55 105.55 68.7 104.4 69.6 104.4 70.7 104.4 71.5 105.05 72.1 105.7 72.7 106.6 72.7 107.25 72.7 107.7 72.45 112.25 69.7 115.2 62.35 118.15 54.95 119.75 50.05 119.9 49.7 119.9 49.15 119.9 48.2 119.3 47.55 118.7 46.9 117.75 46.9 116.15 46.9 115.75 48.2
L 111.95 59.85 107.4 48.2
Q 106.85 46.9 105.35 46.9 104.4 46.9 103.8 47.55 Z"/>
</g>

<g id="METSP16_IAB_480x320_psd_Asset_Group_1_copy_2_01_Frame_Didn_t_find_what_you_were_looking_for_on_Robson__0_Layer0_0_MEMBER_14_FILL">
<path fill="#FFFFFF" stroke="none" d="
M 132.65 46.75
Q 128.6 46.75 125.95 49.45 123.35 52.1 123.35 56 123.35 59.95 125.95 62.6 128.6 65.3 132.65 65.3 136.7 65.3 139.3 62.6 141.9 59.9 141.9 56 141.9 52.1 139.3 49.45 136.7 46.75 132.65 46.75
M 135.95 52.45
Q 137.15 53.9 137.15 56 137.15 58.15 135.95 59.6 134.65 61.1 132.65 61.1 130.6 61.1 129.35 59.6 128.15 58.15 128.15 56 128.15 53.9 129.35 52.45 130.6 50.95 132.65 50.95 134.65 50.95 135.95 52.45 Z"/>
</g>

<g id="METSP16_IAB_480x320_psd_Asset_Group_1_copy_2_01_Frame_Didn_t_find_what_you_were_looking_for_on_Robson__0_Layer0_0_MEMBER_15_FILL">
<path fill="#FFFFFF" stroke="none" d="
M 164.4 49.35
Q 164.4 48.35 163.7 47.6 162.95 46.9 161.95 46.9 160.95 46.9 160.25 47.6 159.55 48.35 159.55 49.35
L 159.55 56.7
Q 159.55 58.5 158.65 59.6 157.65 60.9 155.7 60.9 153.9 60.9 152.95 59.7 152.05 58.55 152.05 56.7
L 152.05 49.35
Q 152.05 48.35 151.35 47.6 150.6 46.9 149.6 46.9 148.6 46.9 147.85 47.6 147.15 48.35 147.15 49.35
L 147.15 56.95
Q 147.15 60.65 149 62.95 150.95 65.3 154.3 65.3 157.85 65.3 159.55 62.35
L 159.55 62.65
Q 159.55 63.8 160.25 64.5 160.9 65.15 161.95 65.15 163 65.15 163.7 64.5 164.4 63.8 164.4 62.65
L 164.4 49.35 Z"/>
</g>

<g id="METSP16_IAB_480x320_psd_Asset_Group_1_copy_2_01_Frame_Didn_t_find_what_you_were_looking_for_on_Robson__0_Layer0_0_MEMBER_16_FILL">
<path fill="#FFFFFF" stroke="none" d="
M 205.2 47.5
Q 204.55 46.9 203.6 46.9 202.15 46.9 201.7 48.3
L 198.85 57.7 195.5 48.35
Q 195 46.9 193.5 46.9 192.05 46.9 191.55 48.35
L 188.15 57.7 185.35 48.3
Q 184.9 46.9 183.45 46.9 182.45 46.9 181.85 47.5 181.2 48.05 181.2 49
L 181.35 49.8 186 63.75
Q 186.5 65.15 188.1 65.15 189.6 65.15 190.1 63.7
L 193.5 53.85 196.9 63.7
Q 197.5 65.15 198.95 65.15 200.6 65.15 201 63.75
L 205.65 49.8
Q 205.85 49.4 205.85 49 205.85 48.1 205.2 47.5 Z"/>
</g>

<g id="METSP16_IAB_480x320_psd_Asset_Group_1_copy_2_01_Frame_Didn_t_find_what_you_were_looking_for_on_Robson__0_Layer0_0_MEMBER_17_FILL">
<path fill="#FFFFFF" stroke="none" d="
M 218.45 46.75
Q 214.45 46.75 211.85 49.35 209.25 52 209.25 56 209.25 60 211.6 62.55 214.15 65.3 218.5 65.3 221.95 65.3 224.4 63.7 226.15 62.65 226.15 61.25 226.15 60.45 225.65 60 225.1 59.45 224.2 59.45 223.5 59.45 222.45 60.3 220.9 61.45 218.7 61.45 216.7 61.45 215.55 60.3 214.55 59.3 214.35 57.6
L 225.1 57.6
Q 226.85 57.6 226.85 56 226.85 52 224.55 49.4 222.2 46.75 218.45 46.75
M 221 51.7
Q 221.95 52.65 222.25 54.15
L 214.4 54.15
Q 214.6 52.6 215.7 51.65 216.8 50.65 218.45 50.65 219.95 50.65 221 51.7 Z"/>
</g>

<g id="METSP16_IAB_480x320_psd_Asset_Group_1_copy_2_01_Frame_Didn_t_find_what_you_were_looking_for_on_Robson__0_Layer0_0_MEMBER_18_FILL">
<path fill="#FFFFFF" stroke="none" d="
M 244.35 48.95
Q 244.35 48 243.8 47.4 243.2 46.75 242.15 46.75 238.8 46.75 237.45 49.8
L 237.45 49.4
Q 237.45 48.4 236.75 47.65 236 46.9 235 46.9 233.9 46.9 233.25 47.6 232.55 48.3 232.55 49.4
L 232.55 62.7
Q 232.55 63.7 233.25 64.45 234 65.15 235 65.15 236 65.15 236.75 64.45 237.45 63.7 237.45 62.7
L 237.45 56.4
Q 237.45 53.95 238.75 52.5 240 51.1 242.15 51.1 243.1 51.1 243.75 50.5 244.35 49.85 244.35 48.95 Z"/>
</g>

<g id="METSP16_IAB_480x320_psd_Asset_Group_1_copy_2_01_Frame_Didn_t_find_what_you_were_looking_for_on_Robson__0_Layer0_0_MEMBER_19_FILL">
<path fill="#FFFFFF" stroke="none" d="
M 256.15 46.75
Q 252.2 46.75 249.6 49.35 247 52 247 56 247 60 249.35 62.55 251.85 65.3 256.2 65.3 259.6 65.3 262.15 63.7 263.9 62.55 263.9 61.25 263.9 60.5 263.4 60 262.85 59.45 261.95 59.45 261.2 59.45 260.15 60.3 258.6 61.45 256.45 61.45 254.45 61.45 253.3 60.3 252.25 59.3 252.05 57.6
L 262.85 57.6
Q 264.55 57.6 264.55 56 264.55 52 262.25 49.4 259.9 46.75 256.15 46.75
M 258.75 51.7
Q 259.65 52.65 259.95 54.15
L 252.15 54.15
Q 252.35 52.6 253.4 51.65 254.5 50.65 256.15 50.65 257.7 50.65 258.75 51.7 Z"/>
</g>

<g id="METSP16_IAB_480x320_psd_Asset_Group_1_copy_2_01_Frame_Didn_t_find_what_you_were_looking_for_on_Robson__0_Layer0_0_MEMBER_20_FILL">
<path fill="#FFFFFF" stroke="none" d="
M 3.55 75.7
Q 2.85 76.45 2.85 77.45
L 2.85 100.2
Q 2.85 101.2 3.55 101.95 4.25 102.65 5.25 102.65 6.25 102.65 7 101.95 7.7 101.2 7.7 100.2
L 7.7 77.45
Q 7.7 76.45 7 75.7 6.25 75 5.25 75 4.25 75 3.55 75.7 Z"/>
</g>

<g id="METSP16_IAB_480x320_psd_Asset_Group_1_copy_2_01_Frame_Didn_t_find_what_you_were_looking_for_on_Robson__0_Layer0_0_MEMBER_21_FILL">
<path fill="#FFFFFF" stroke="none" d="
M 15.85 87
Q 13.25 89.65 13.25 93.55 13.25 97.45 15.85 100.1 18.45 102.8 22.5 102.8 26.55 102.8 29.2 100.1 31.8 97.45 31.8 93.55 31.8 89.65 29.2 87 26.55 84.25 22.5 84.25 18.5 84.25 15.85 87
M 19.25 97.1
Q 18.05 95.65 18.05 93.55 18.05 91.4 19.25 89.95 20.5 88.45 22.5 88.45 24.55 88.45 25.8 89.95 27 91.4 27 93.55 27 95.65 25.8 97.1 24.55 98.6 22.5 98.6 20.5 98.6 19.25 97.1 Z"/>
</g>

<g id="METSP16_IAB_480x320_psd_Asset_Group_1_copy_2_01_Frame_Didn_t_find_what_you_were_looking_for_on_Robson__0_Layer0_0_MEMBER_22_FILL">
<path fill="#FFFFFF" stroke="none" d="
M 38.8 87
Q 36.2 89.65 36.2 93.55 36.2 97.45 38.8 100.1 41.45 102.8 45.5 102.8 49.55 102.8 52.15 100.1 54.75 97.45 54.75 93.55 54.75 89.65 52.15 87 49.5 84.25 45.5 84.25 41.45 84.25 38.8 87
M 48.8 89.95
Q 50 91.4 50 93.55 50 95.65 48.8 97.1 47.55 98.6 45.5 98.6 43.45 98.6 42.2 97.1 41 95.65 41 93.55 41 91.4 42.2 89.95 43.45 88.45 45.5 88.45 47.55 88.45 48.8 89.95 Z"/>
</g>

<g id="METSP16_IAB_480x320_psd_Asset_Group_1_copy_2_01_Frame_Didn_t_find_what_you_were_looking_for_on_Robson__0_Layer0_0_MEMBER_23_FILL">
<path fill="#FFFFFF" stroke="none" d="
M 73.95 84.4
Q 73.25 84.4 72.6 84.9
L 65.2 90.6 65.2 77.5
Q 65.2 76.5 64.5 75.75 63.75 75 62.75 75 61.75 75 61 75.75 60.3 76.5 60.3 77.5
L 60.3 100.2
Q 60.3 101.2 61 101.95 61.75 102.65 62.75 102.65 63.75 102.65 64.5 101.95 65.2 101.2 65.2 100.2
L 65.2 96.1 67.25 94.5 72.6 101.7
Q 73.25 102.65 74.25 102.65 75.25 102.65 75.9 101.95 76.5 101.3 76.5 100.35 76.5 99.55 76.1 99.1
L 70.75 91.8 75.25 88.3
Q 76.3 87.45 76.3 86.7 76.3 85.75 75.65 85.1 75 84.4 73.95 84.4 Z"/>
</g>

<g id="METSP16_IAB_480x320_psd_Asset_Group_1_copy_2_01_Frame_Didn_t_find_what_you_were_looking_for_on_Robson__0_Layer0_0_MEMBER_24_FILL">
<path fill="#FFFFFF" stroke="none" d="
M 84.25 84.4
Q 83.25 84.4 82.55 85.1 81.85 85.85 81.85 86.85
L 81.85 100.2
Q 81.85 101.2 82.55 101.95 83.25 102.65 84.25 102.65 85.25 102.65 86 101.95 86.7 101.2 86.7 100.2
L 86.7 86.85
Q 86.7 85.85 86 85.1 85.25 84.4 84.25 84.4
M 87 79.1
Q 87 77.95 86.2 77.15 85.4 76.35 84.25 76.35 83.1 76.35 82.3 77.15 81.5 77.95 81.5 79.1 81.5 80.25 82.3 81.05 83.1 81.85 84.25 81.85 85.4 81.85 86.2 81.05 87 80.25 87 79.1 Z"/>
</g>

<g id="METSP16_IAB_480x320_psd_Asset_Group_1_copy_2_01_Frame_Didn_t_find_what_you_were_looking_for_on_Robson__0_Layer0_0_MEMBER_25_FILL">
<path fill="#FFFFFF" stroke="none" d="
M 98.25 87.2
L 98.25 86.9
Q 98.25 85.75 97.55 85.05 96.85 84.4 95.8 84.4 94.75 84.4 94.05 85.05 93.35 85.75 93.35 86.9
L 93.35 100.2
Q 93.35 101.2 94.05 101.95 94.8 102.65 95.8 102.65 96.8 102.65 97.55 101.95 98.25 101.2 98.25 100.2
L 98.25 92.85
Q 98.25 91.1 99.15 89.95 100.15 88.65 102.05 88.65 103.85 88.65 104.85 89.85 105.75 91 105.75 92.85
L 105.75 100.2
Q 105.75 101.2 106.45 101.95 107.15 102.65 108.15 102.65 109.15 102.65 109.9 101.95 110.6 101.2 110.6 100.2
L 110.6 92.6
Q 110.6 88.9 108.75 86.6 106.8 84.25 103.45 84.25 99.85 84.25 98.25 87.2 Z"/>
</g>

<g id="METSP16_IAB_480x320_psd_Asset_Group_1_copy_2_01_Frame_Didn_t_find_what_you_were_looking_for_on_Robson__0_Layer0_0_MEMBER_26_FILL">
<path fill="#FFFFFF" stroke="none" d="
M 117.95 86.9
Q 115.85 89.4 115.85 93.15 115.85 96.95 117.95 99.45 120.25 102.1 124.1 102.1 127.7 102.1 129.45 99.2
L 129.45 101.5
Q 129.45 104.05 128.4 105.15 127.3 106.35 124.75 106.35 123.15 106.35 121.3 105.7 119.75 105 118.95 105 117 105 117 106.8 117 108.05 118.3 108.7 121.05 110.2 124.65 110.2 134.35 110.2 134.35 101.25
L 134.35 86.85
Q 134.35 85.8 133.7 85.1 133.05 84.4 132 84.4 130.95 84.4 130.3 85.15 129.65 85.85 129.65 86.9
L 129.65 87.15
Q 127.7 84.25 124.1 84.25 120.2 84.25 117.95 86.9
M 125.15 97.95
Q 123.1 97.95 121.9 96.6 120.7 95.25 120.7 93.15 120.7 91.05 121.9 89.75 123.1 88.4 125.15 88.4 127.15 88.4 128.35 89.8 129.45 91.15 129.45 93.15 129.45 95.15 128.35 96.5 127.15 97.95 125.15 97.95 Z"/>
</g>

<g id="METSP16_IAB_480x320_psd_Asset_Group_1_copy_2_01_Frame_Didn_t_find_what_you_were_looking_for_on_Robson__0_Layer0_0_MEMBER_27_FILL">
<path fill="#FFFFFF" stroke="none" d="
M 163.6 75.2
L 162 75.2
Q 158.55 75.2 156.75 77.2 155.05 79.05 155.05 82.25
L 155.05 84.75 152.95 84.75
Q 152.15 84.75 151.55 85.35 150.95 85.95 150.95 86.75 150.95 87.6 151.55 88.2 152.1 88.8 152.95 88.8
L 155.05 88.8 155.05 100.2
Q 155.05 101.2 155.75 101.95 156.45 102.65 157.45 102.65 158.45 102.65 159.2 101.95 159.9 101.2 159.9 100.2
L 159.9 88.8 163.2 88.8
Q 164.05 88.8 164.65 88.2 165.25 87.6 165.25 86.75 165.25 85.9 164.65 85.35 164.05 84.75 163.2 84.75
L 159.9 84.75 159.9 81.8
Q 159.9 79.25 162.5 79.25
L 163.6 79.25
Q 164.45 79.25 165.05 78.65 165.65 78.05 165.65 77.2 165.65 76.35 165.05 75.75 164.45 75.2 163.6 75.2 Z"/>
</g>

<g id="METSP16_IAB_480x320_psd_Asset_Group_1_copy_2_01_Frame_Didn_t_find_what_you_were_looking_for_on_Robson__0_Layer0_0_MEMBER_28_FILL">
<path fill="#FFFFFF" stroke="none" d="
M 170.25 87
Q 167.65 89.65 167.65 93.55 167.65 97.45 170.25 100.1 172.9 102.8 176.95 102.8 181 102.8 183.6 100.1 186.2 97.45 186.2 93.55 186.2 89.65 183.6 87 180.95 84.25 176.95 84.25 172.9 84.25 170.25 87
M 180.25 89.95
Q 181.45 91.4 181.45 93.55 181.45 95.65 180.25 97.1 179 98.6 176.95 98.6 174.9 98.6 173.65 97.1 172.45 95.65 172.45 93.55 172.45 91.4 173.65 89.95 174.9 88.45 176.95 88.45 179 88.45 180.25 89.95 Z"/>
</g>

<g id="METSP16_IAB_480x320_psd_Asset_Group_1_copy_2_01_Frame_Didn_t_find_what_you_were_looking_for_on_Robson__0_Layer0_0_MEMBER_29_FILL">
<path fill="#FFFFFF" stroke="none" d="
M 197.95 90.05
Q 199.25 88.65 201.4 88.65 202.35 88.65 203 88 203.6 87.35 203.6 86.45 203.6 85.5 203.05 84.9 202.45 84.25 201.4 84.25 198 84.25 196.65 87.35
L 196.65 86.9
Q 196.65 85.9 195.95 85.15 195.25 84.4 194.25 84.4 193.15 84.4 192.45 85.1 191.75 85.8 191.75 86.9
L 191.75 100.2
Q 191.75 101.2 192.5 101.95 193.25 102.65 194.25 102.65 195.25 102.65 195.95 101.95 196.65 101.2 196.65 100.2
L 196.65 93.9
Q 196.65 91.45 197.95 90.05 Z"/>
</g>

<g id="METSP16_IAB_480x320_psd_Asset_Group_1_copy_2_01_Frame_Didn_t_find_what_you_were_looking_for_on_Robson__0_Layer0_0_MEMBER_30_FILL">
<path fill="#FFFFFF" stroke="none" d="
M 4.3 124.5
Q 1.7 127.15 1.7 131.05 1.7 134.95 4.3 137.6 6.95 140.3 11 140.3 15.05 140.3 17.65 137.6 20.25 134.95 20.25 131.05 20.25 127.15 17.65 124.5 15 121.75 11 121.75 6.95 121.75 4.3 124.5
M 14.3 127.5
Q 15.5 128.95 15.5 131.05 15.5 133.15 14.3 134.6 13 136.1 11 136.1 8.95 136.1 7.7 134.6 6.5 133.15 6.5 131.05 6.5 128.95 7.7 127.5 8.95 126 11 126 13 126 14.3 127.5 Z"/>
</g>

<g id="METSP16_IAB_480x320_psd_Asset_Group_1_copy_2_01_Frame_Didn_t_find_what_you_were_looking_for_on_Robson__0_Layer0_0_MEMBER_31_FILL">
<path fill="#FFFFFF" stroke="none" d="
M 43 130.1
Q 43 126.35 41.15 124.1 39.25 121.75 35.9 121.75 32.35 121.75 30.65 124.7
L 30.65 124.4
Q 30.65 123.25 29.95 122.55 29.3 121.9 28.25 121.9 27.2 121.9 26.5 122.55 25.8 123.25 25.8 124.4
L 25.8 137.7
Q 25.8 138.7 26.5 139.45 27.25 140.15 28.25 140.15 29.25 140.15 29.95 139.45 30.65 138.7 30.65 137.7
L 30.65 130.35
Q 30.65 128.6 31.55 127.45 32.55 126.15 34.45 126.15 36.3 126.15 37.25 127.35 38.15 128.5 38.15 130.35
L 38.15 137.7
Q 38.15 138.7 38.85 139.45 39.6 140.15 40.6 140.15 41.6 140.15 42.3 139.45 43 138.7 43 137.7
L 43 130.1 Z"/>
</g>

<g id="METSP16_IAB_480x320_psd_Asset_Group_1_copy_2_01_Frame_Didn_t_find_what_you_were_looking_for_on_Robson__0_Layer0_0_MEMBER_32_FILL">
<path fill="#FFFFFF" stroke="none" d="
M 75.55 112.85
L 65.15 112.85
Q 64.1 112.85 63.4 113.55 62.65 114.3 62.65 115.3
L 62.65 137.7
Q 62.65 138.7 63.4 139.45 64.1 140.15 65.15 140.15 66.15 140.15 66.9 139.45 67.6 138.7 67.6 137.7
L 67.6 129.05 75.75 129.05 80.5 138.8
Q 81.15 140.15 82.7 140.15 83.8 140.15 84.5 139.4 85.15 138.7 85.15 137.7 85.15 137.1 84.85 136.65
L 80.7 128.15
Q 82.9 127.2 84.05 125.25 85.15 123.4 85.15 120.95 85.15 117.2 82.9 115.1 80.45 112.85 75.55 112.85
M 79.2 118.55
Q 80.15 119.5 80.15 121 80.15 122.5 79.2 123.6 78.15 124.8 76.25 124.8
L 67.6 124.8 67.6 117.4 76.25 117.4
Q 78.15 117.4 79.2 118.55 Z"/>
</g>

<g id="METSP16_IAB_480x320_psd_Asset_Group_1_copy_2_01_Frame_Didn_t_find_what_you_were_looking_for_on_Robson__0_Layer0_0_MEMBER_33_FILL">
<path fill="#FFFFFF" stroke="none" d="
M 92.25 124.5
Q 89.65 127.15 89.65 131.05 89.65 134.95 92.25 137.6 94.85 140.3 98.9 140.3 102.95 140.3 105.6 137.6 108.2 134.95 108.2 131.05 108.2 127.15 105.6 124.5 102.95 121.75 98.9 121.75 94.9 121.75 92.25 124.5
M 95.65 127.5
Q 96.9 126 98.9 126 100.95 126 102.2 127.5 103.4 128.95 103.4 131.05 103.4 133.15 102.2 134.6 100.95 136.1 98.9 136.1 96.9 136.1 95.65 134.6 94.45 133.15 94.45 131.05 94.45 128.95 95.65 127.5 Z"/>
</g>

<g id="METSP16_IAB_480x320_psd_Asset_Group_1_copy_2_01_Frame_Didn_t_find_what_you_were_looking_for_on_Robson__0_Layer0_0_MEMBER_34_FILL">
<path fill="#FFFFFF" stroke="none" d="
M 130.1 124.6
Q 127.85 121.75 124 121.75 120.4 121.75 118.6 124.65
L 118.6 114.95
Q 118.6 113.95 117.9 113.25 117.2 112.55 116.2 112.55 115.2 112.55 114.45 113.25 113.75 113.95 113.75 114.95
L 113.75 137.7
Q 113.75 138.75 114.4 139.45 115.05 140.15 116.1 140.15 117.15 140.15 117.8 139.4 118.45 138.7 118.45 137.7
L 118.45 137.45
Q 120.3 140.3 124 140.3 127.85 140.3 130.15 137.45 132.2 134.85 132.2 131.05 132.2 127.2 130.1 124.6
M 126.2 127.4
Q 127.35 128.85 127.35 131.05 127.35 133.25 126.2 134.7 125 136.2 122.95 136.2 120.95 136.2 119.75 134.65 118.6 133.2 118.6 131.05 118.6 128.9 119.75 127.45 120.95 125.9 122.95 125.9 125 125.9 126.2 127.4 Z"/>
</g>

<g id="METSP16_IAB_480x320_psd_Asset_Group_1_copy_2_01_Frame_Didn_t_find_what_you_were_looking_for_on_Robson__0_Layer0_0_MEMBER_35_FILL">
<path fill="#FFFFFF" stroke="none" d="
M 148.85 122.7
Q 146.8 121.75 144.4 121.75 140.95 121.75 139 123.3 137.15 124.7 137.15 127.05 137.15 129.3 138.55 130.7 140.1 132.3 143.8 133.25 145.7 133.75 146.4 134.15 147.15 134.6 147.15 135.3 147.15 135.95 146.45 136.35 145.75 136.75 144.6 136.75 142.75 136.75 140.7 135.55 139.65 134.85 138.8 134.85 138.05 134.85 137.55 135.3 137 135.75 137 136.45 137 137.75 138.05 138.5 140.5 140.3 144.45 140.3 147.85 140.3 149.85 138.8 151.75 137.35 151.75 134.9 151.75 132.4 149.9 131 148.5 129.95 145.15 129.05 143.15 128.5 142.5 128.15 141.8 127.75 141.8 127 141.8 125.65 144.3 125.65 145.7 125.65 147.3 126.3 147.7 126.45 148.4 126.8 149.05 127.05 149.45 127.05 151.3 127.05 151.3 125.3 151.3 123.85 148.85 122.7 Z"/>
</g>

<g id="METSP16_IAB_480x320_psd_Asset_Group_1_copy_2_01_Frame_Didn_t_find_what_you_were_looking_for_on_Robson__0_Layer0_0_MEMBER_36_FILL">
<path fill="#FFFFFF" stroke="none" d="
M 165.35 140.3
Q 169.4 140.3 172.05 137.6 174.65 134.95 174.65 131.05 174.65 127.15 172.05 124.5 169.4 121.75 165.35 121.75 161.35 121.75 158.7 124.5 156.1 127.15 156.1 131.05 156.1 134.95 158.7 137.6 161.3 140.3 165.35 140.3
M 165.35 126
Q 167.4 126 168.65 127.5 169.85 128.95 169.85 131.05 169.85 133.15 168.65 134.6 167.4 136.1 165.35 136.1 163.3 136.1 162.05 134.6 160.85 133.15 160.85 131.05 160.85 128.95 162.05 127.5 163.3 126 165.35 126 Z"/>
</g>

<g id="METSP16_IAB_480x320_psd_Asset_Group_1_copy_2_01_Frame_Didn_t_find_what_you_were_looking_for_on_Robson__0_Layer0_0_MEMBER_37_FILL">
<path fill="#FFFFFF" stroke="none" d="
M 184.35 122.55
Q 183.65 121.9 182.6 121.9 181.55 121.9 180.9 122.55 180.2 123.25 180.2 124.4
L 180.2 137.7
Q 180.2 138.7 180.9 139.45 181.6 140.15 182.6 140.15 183.6 140.15 184.35 139.45 185.05 138.7 185.05 137.7
L 185.05 130.35
Q 185.05 128.6 185.95 127.45 186.95 126.15 188.85 126.15 190.65 126.15 191.65 127.35 192.55 128.5 192.55 130.35
L 192.55 137.7
Q 192.55 138.7 193.25 139.45 193.95 140.15 194.95 140.15 195.95 140.15 196.7 139.45 197.4 138.7 197.4 137.7
L 197.4 130.1
Q 197.4 126.4 195.55 124.1 193.6 121.75 190.25 121.75 186.65 121.75 185.05 124.7
L 185.05 124.4
Q 185.05 123.25 184.35 122.55 Z"/>
</g>

<g id="METSP16_IAB_480x320_psd_Asset_Group_1_copy_2_01_Frame_Didn_t_find_what_you_were_looking_for_on_Robson__0_Layer0_0_MEMBER_38_FILL">
<path fill="#FFFFFF" stroke="none" d="
M 212 135.35
Q 211.15 134.55 210 134.55 208.9 134.55 208.05 135.35 207.25 136.2 207.25 137.3 207.25 138.45 208.05 139.3 208.85 140.1 210 140.1 211.15 140.1 212 139.3 212.8 138.45 212.8 137.3 212.8 136.15 212 135.35
M 207.7 117
Q 208.8 116.75 210.25 116.75 214.15 116.75 214.15 119.2 214.15 120.25 213.2 121.2 211.8 122.3 210.9 123 209.15 124.4 208.5 125.4 207.65 126.85 207.65 129.15
L 207.65 129.95
Q 207.65 130.9 208.25 131.5 208.9 132.15 209.9 132.15 211 132.15 211.65 131.5 212.3 130.9 212.3 129.9
L 212.3 129.25
Q 212.3 127.75 213 126.85 213.45 126.35 215.65 124.65 217.5 123.25 218.25 122 219 120.7 219 118.95 219 115.8 216.6 114.05 214.35 112.35 210.45 112.35 206.7 112.35 203.95 113.75 202.05 114.7 202.05 116.05 202.05 116.95 202.7 117.55 203.3 118.1 204.15 118.1 204.75 118.1 205.25 117.85 206.75 117.25 207.7 117 Z"/>
</g>
</defs>

<g transform="matrix( 1, 0, 0, 1, -48,-216) ">
<g transform="matrix( 1, 0, 0, 1, 66,453) ">
<g transform="matrix( 1, 0, 0, 0.999755859375, -1.2,0.4) ">
<use xlink:href="#METSP16_IAB_480x320_psd_Asset_Group_1_copy_2_01_Frame_I_bet_you_Metropolis_has_it__0_Layer0_0_MEMBER_0_FILL"/>
</g>

<g transform="matrix( 1, 0, 0, 0.999755859375, -1.2,0.4) ">
<use xlink:href="#METSP16_IAB_480x320_psd_Asset_Group_1_copy_2_01_Frame_I_bet_you_Metropolis_has_it__0_Layer0_0_MEMBER_1_FILL"/>
</g>

<g transform="matrix( 1, 0, 0, 0.999755859375, -1.2,0.4) ">
<use xlink:href="#METSP16_IAB_480x320_psd_Asset_Group_1_copy_2_01_Frame_I_bet_you_Metropolis_has_it__0_Layer0_0_MEMBER_2_FILL"/>
</g>

<g transform="matrix( 1, 0, 0, 0.999755859375, -1.2,0.4) ">
<use xlink:href="#METSP16_IAB_480x320_psd_Asset_Group_1_copy_2_01_Frame_I_bet_you_Metropolis_has_it__0_Layer0_0_MEMBER_3_FILL"/>
</g>

<g transform="matrix( 1, 0, 0, 0.999755859375, -1.2,0.4) ">
<use xlink:href="#METSP16_IAB_480x320_psd_Asset_Group_1_copy_2_01_Frame_I_bet_you_Metropolis_has_it__0_Layer0_0_MEMBER_4_FILL"/>
</g>

<g transform="matrix( 1, 0, 0, 0.999755859375, -1.2,0.4) ">
<use xlink:href="#METSP16_IAB_480x320_psd_Asset_Group_1_copy_2_01_Frame_I_bet_you_Metropolis_has_it__0_Layer0_0_MEMBER_5_FILL"/>
</g>

<g transform="matrix( 1, 0, 0, 0.999755859375, -1.2,0.4) ">
<use xlink:href="#METSP16_IAB_480x320_psd_Asset_Group_1_copy_2_01_Frame_I_bet_you_Metropolis_has_it__0_Layer0_0_MEMBER_6_FILL"/>
</g>

<g transform="matrix( 1, 0, 0, 0.999755859375, -1.2,0.4) ">
<use xlink:href="#METSP16_IAB_480x320_psd_Asset_Group_1_copy_2_01_Frame_I_bet_you_Metropolis_has_it__0_Layer0_0_MEMBER_7_FILL"/>
</g>

<g transform="matrix( 1, 0, 0, 0.999755859375, -1.2,0.4) ">
<use xlink:href="#METSP16_IAB_480x320_psd_Asset_Group_1_copy_2_01_Frame_I_bet_you_Metropolis_has_it__0_Layer0_0_MEMBER_8_FILL"/>
</g>

<g transform="matrix( 1, 0, 0, 0.999755859375, -1.2,0.4) ">
<use xlink:href="#METSP16_IAB_480x320_psd_Asset_Group_1_copy_2_01_Frame_I_bet_you_Metropolis_has_it__0_Layer0_0_MEMBER_9_FILL"/>
</g>

<g transform="matrix( 1, 0, 0, 0.999755859375, -1.2,0.4) ">
<use xlink:href="#METSP16_IAB_480x320_psd_Asset_Group_1_copy_2_01_Frame_I_bet_you_Metropolis_has_it__0_Layer0_0_MEMBER_10_FILL"/>
</g>

<g transform="matrix( 1, 0, 0, 0.999755859375, -1.2,0.4) ">
<use xlink:href="#METSP16_IAB_480x320_psd_Asset_Group_1_copy_2_01_Frame_I_bet_you_Metropolis_has_it__0_Layer0_0_MEMBER_11_FILL"/>
</g>

<g transform="matrix( 1, 0, 0, 0.999755859375, -1.2,0.4) ">
<use xlink:href="#METSP16_IAB_480x320_psd_Asset_Group_1_copy_2_01_Frame_I_bet_you_Metropolis_has_it__0_Layer0_0_MEMBER_12_FILL"/>
</g>

<g transform="matrix( 1, 0, 0, 0.999755859375, -1.2,0.4) ">
<use xlink:href="#METSP16_IAB_480x320_psd_Asset_Group_1_copy_2_01_Frame_I_bet_you_Metropolis_has_it__0_Layer0_0_MEMBER_13_FILL"/>
</g>

<g transform="matrix( 1, 0, 0, 0.999755859375, -1.2,0.4) ">
<use xlink:href="#METSP16_IAB_480x320_psd_Asset_Group_1_copy_2_01_Frame_I_bet_you_Metropolis_has_it__0_Layer0_0_MEMBER_14_FILL"/>
</g>

<g transform="matrix( 1, 0, 0, 0.999755859375, -1.2,0.4) ">
<use xlink:href="#METSP16_IAB_480x320_psd_Asset_Group_1_copy_2_01_Frame_I_bet_you_Metropolis_has_it__0_Layer0_0_MEMBER_15_FILL"/>
</g>

<g transform="matrix( 1, 0, 0, 0.999755859375, -1.2,0.4) ">
<use xlink:href="#METSP16_IAB_480x320_psd_Asset_Group_1_copy_2_01_Frame_I_bet_you_Metropolis_has_it__0_Layer0_0_MEMBER_16_FILL"/>
</g>

<g transform="matrix( 1, 0, 0, 0.999755859375, -1.2,0.4) ">
<use xlink:href="#METSP16_IAB_480x320_psd_Asset_Group_1_copy_2_01_Frame_I_bet_you_Metropolis_has_it__0_Layer0_0_MEMBER_17_FILL"/>
</g>

<g transform="matrix( 1, 0, 0, 0.999755859375, -1.2,0.4) ">
<use xlink:href="#METSP16_IAB_480x320_psd_Asset_Group_1_copy_2_01_Frame_I_bet_you_Metropolis_has_it__0_Layer0_0_MEMBER_18_FILL"/>
</g>

<g transform="matrix( 1, 0, 0, 0.999755859375, -1.2,0.4) ">
<use xlink:href="#METSP16_IAB_480x320_psd_Asset_Group_1_copy_2_01_Frame_I_bet_you_Metropolis_has_it__0_Layer0_0_MEMBER_19_FILL"/>
</g>

<g transform="matrix( 1, 0, 0, 0.999755859375, -1.2,0.4) ">
<use xlink:href="#METSP16_IAB_480x320_psd_Asset_Group_1_copy_2_01_Frame_I_bet_you_Metropolis_has_it__0_Layer0_0_MEMBER_20_FILL"/>
</g>

<g transform="matrix( 1, 0, 0, 0.999755859375, -1.2,0.4) ">
<use xlink:href="#METSP16_IAB_480x320_psd_Asset_Group_1_copy_2_01_Frame_I_bet_you_Metropolis_has_it__0_Layer0_0_MEMBER_21_FILL"/>
</g>

<g transform="matrix( 1, 0, 0, 0.999755859375, -1.2,0.4) ">
<use xlink:href="#METSP16_IAB_480x320_psd_Asset_Group_1_copy_2_01_Frame_I_bet_you_Metropolis_has_it__0_Layer0_0_MEMBER_22_FILL"/>
</g>
</g>

<g transform="matrix( 1, 0, 0, 1, 66,288) ">
<g transform="matrix( 1, 0, 0, 0.999755859375, -1.2,-0.55) ">
<use xlink:href="#METSP16_IAB_480x320_psd_Asset_Group_1_copy_2_01_Frame_Didn_t_find_what_you_were_looking_for_on_Robson__0_Layer0_0_MEMBER_0_FILL"/>
</g>

<g transform="matrix( 1, 0, 0, 0.999755859375, -1.2,-0.55) ">
<use xlink:href="#METSP16_IAB_480x320_psd_Asset_Group_1_copy_2_01_Frame_Didn_t_find_what_you_were_looking_for_on_Robson__0_Layer0_0_MEMBER_1_FILL"/>
</g>

<g transform="matrix( 1, 0, 0, 0.999755859375, -1.2,-0.55) ">
<use xlink:href="#METSP16_IAB_480x320_psd_Asset_Group_1_copy_2_01_Frame_Didn_t_find_what_you_were_looking_for_on_Robson__0_Layer0_0_MEMBER_2_FILL"/>
</g>

<g transform="matrix( 1, 0, 0, 0.999755859375, -1.2,-0.55) ">
<use xlink:href="#METSP16_IAB_480x320_psd_Asset_Group_1_copy_2_01_Frame_Didn_t_find_what_you_were_looking_for_on_Robson__0_Layer0_0_MEMBER_3_FILL"/>
</g>

<g transform="matrix( 1, 0, 0, 0.999755859375, -1.2,-0.55) ">
<use xlink:href="#METSP16_IAB_480x320_psd_Asset_Group_1_copy_2_01_Frame_Didn_t_find_what_you_were_looking_for_on_Robson__0_Layer0_0_MEMBER_4_FILL"/>
</g>

<g transform="matrix( 1, 0, 0, 0.999755859375, -1.2,-0.55) ">
<use xlink:href="#METSP16_IAB_480x320_psd_Asset_Group_1_copy_2_01_Frame_Didn_t_find_what_you_were_looking_for_on_Robson__0_Layer0_0_MEMBER_5_FILL"/>
</g>

<g transform="matrix( 1, 0, 0, 0.999755859375, -1.2,-0.55) ">
<use xlink:href="#METSP16_IAB_480x320_psd_Asset_Group_1_copy_2_01_Frame_Didn_t_find_what_you_were_looking_for_on_Robson__0_Layer0_0_MEMBER_6_FILL"/>
</g>

<g transform="matrix( 1, 0, 0, 0.999755859375, -1.2,-0.55) ">
<use xlink:href="#METSP16_IAB_480x320_psd_Asset_Group_1_copy_2_01_Frame_Didn_t_find_what_you_were_looking_for_on_Robson__0_Layer0_0_MEMBER_7_FILL"/>
</g>

<g transform="matrix( 1, 0, 0, 0.999755859375, -1.2,-0.55) ">
<use xlink:href="#METSP16_IAB_480x320_psd_Asset_Group_1_copy_2_01_Frame_Didn_t_find_what_you_were_looking_for_on_Robson__0_Layer0_0_MEMBER_8_FILL"/>
</g>

<g transform="matrix( 1, 0, 0, 0.999755859375, -1.2,-0.55) ">
<use xlink:href="#METSP16_IAB_480x320_psd_Asset_Group_1_copy_2_01_Frame_Didn_t_find_what_you_were_looking_for_on_Robson__0_Layer0_0_MEMBER_9_FILL"/>
</g>

<g transform="matrix( 1, 0, 0, 0.999755859375, -1.2,-0.55) ">
<use xlink:href="#METSP16_IAB_480x320_psd_Asset_Group_1_copy_2_01_Frame_Didn_t_find_what_you_were_looking_for_on_Robson__0_Layer0_0_MEMBER_10_FILL"/>
</g>

<g transform="matrix( 1, 0, 0, 0.999755859375, -1.2,-0.55) ">
<use xlink:href="#METSP16_IAB_480x320_psd_Asset_Group_1_copy_2_01_Frame_Didn_t_find_what_you_were_looking_for_on_Robson__0_Layer0_0_MEMBER_11_FILL"/>
</g>

<g transform="matrix( 1, 0, 0, 0.999755859375, -1.2,-0.55) ">
<use xlink:href="#METSP16_IAB_480x320_psd_Asset_Group_1_copy_2_01_Frame_Didn_t_find_what_you_were_looking_for_on_Robson__0_Layer0_0_MEMBER_12_FILL"/>
</g>

<g transform="matrix( 1, 0, 0, 0.999755859375, -1.2,-0.55) ">
<use xlink:href="#METSP16_IAB_480x320_psd_Asset_Group_1_copy_2_01_Frame_Didn_t_find_what_you_were_looking_for_on_Robson__0_Layer0_0_MEMBER_13_FILL"/>
</g>

<g transform="matrix( 1, 0, 0, 0.999755859375, -1.2,-0.55) ">
<use xlink:href="#METSP16_IAB_480x320_psd_Asset_Group_1_copy_2_01_Frame_Didn_t_find_what_you_were_looking_for_on_Robson__0_Layer0_0_MEMBER_14_FILL"/>
</g>

<g transform="matrix( 1, 0, 0, 0.999755859375, -1.2,-0.55) ">
<use xlink:href="#METSP16_IAB_480x320_psd_Asset_Group_1_copy_2_01_Frame_Didn_t_find_what_you_were_looking_for_on_Robson__0_Layer0_0_MEMBER_15_FILL"/>
</g>

<g transform="matrix( 1, 0, 0, 0.999755859375, -1.2,-0.55) ">
<use xlink:href="#METSP16_IAB_480x320_psd_Asset_Group_1_copy_2_01_Frame_Didn_t_find_what_you_were_looking_for_on_Robson__0_Layer0_0_MEMBER_16_FILL"/>
</g>

<g transform="matrix( 1, 0, 0, 0.999755859375, -1.2,-0.55) ">
<use xlink:href="#METSP16_IAB_480x320_psd_Asset_Group_1_copy_2_01_Frame_Didn_t_find_what_you_were_looking_for_on_Robson__0_Layer0_0_MEMBER_17_FILL"/>
</g>

<g transform="matrix( 1, 0, 0, 0.999755859375, -1.2,-0.55) ">
<use xlink:href="#METSP16_IAB_480x320_psd_Asset_Group_1_copy_2_01_Frame_Didn_t_find_what_you_were_looking_for_on_Robson__0_Layer0_0_MEMBER_18_FILL"/>
</g>

<g transform="matrix( 1, 0, 0, 0.999755859375, -1.2,-0.55) ">
<use xlink:href="#METSP16_IAB_480x320_psd_Asset_Group_1_copy_2_01_Frame_Didn_t_find_what_you_were_looking_for_on_Robson__0_Layer0_0_MEMBER_19_FILL"/>
</g>

<g transform="matrix( 1, 0, 0, 0.999755859375, -1.2,-0.55) ">
<use xlink:href="#METSP16_IAB_480x320_psd_Asset_Group_1_copy_2_01_Frame_Didn_t_find_what_you_were_looking_for_on_Robson__0_Layer0_0_MEMBER_20_FILL"/>
</g>

<g transform="matrix( 1, 0, 0, 0.999755859375, -1.2,-0.55) ">
<use xlink:href="#METSP16_IAB_480x320_psd_Asset_Group_1_copy_2_01_Frame_Didn_t_find_what_you_were_looking_for_on_Robson__0_Layer0_0_MEMBER_21_FILL"/>
</g>

<g transform="matrix( 1, 0, 0, 0.999755859375, -1.2,-0.55) ">
<use xlink:href="#METSP16_IAB_480x320_psd_Asset_Group_1_copy_2_01_Frame_Didn_t_find_what_you_were_looking_for_on_Robson__0_Layer0_0_MEMBER_22_FILL"/>
</g>

<g transform="matrix( 1, 0, 0, 0.999755859375, -1.2,-0.55) ">
<use xlink:href="#METSP16_IAB_480x320_psd_Asset_Group_1_copy_2_01_Frame_Didn_t_find_what_you_were_looking_for_on_Robson__0_Layer0_0_MEMBER_23_FILL"/>
</g>

<g transform="matrix( 1, 0, 0, 0.999755859375, -1.2,-0.55) ">
<use xlink:href="#METSP16_IAB_480x320_psd_Asset_Group_1_copy_2_01_Frame_Didn_t_find_what_you_were_looking_for_on_Robson__0_Layer0_0_MEMBER_24_FILL"/>
</g>

<g transform="matrix( 1, 0, 0, 0.999755859375, -1.2,-0.55) ">
<use xlink:href="#METSP16_IAB_480x320_psd_Asset_Group_1_copy_2_01_Frame_Didn_t_find_what_you_were_looking_for_on_Robson__0_Layer0_0_MEMBER_25_FILL"/>
</g>

<g transform="matrix( 1, 0, 0, 0.999755859375, -1.2,-0.55) ">
<use xlink:href="#METSP16_IAB_480x320_psd_Asset_Group_1_copy_2_01_Frame_Didn_t_find_what_you_were_looking_for_on_Robson__0_Layer0_0_MEMBER_26_FILL"/>
</g>

<g transform="matrix( 1, 0, 0, 0.999755859375, -1.2,-0.55) ">
<use xlink:href="#METSP16_IAB_480x320_psd_Asset_Group_1_copy_2_01_Frame_Didn_t_find_what_you_were_looking_for_on_Robson__0_Layer0_0_MEMBER_27_FILL"/>
</g>

<g transform="matrix( 1, 0, 0, 0.999755859375, -1.2,-0.55) ">
<use xlink:href="#METSP16_IAB_480x320_psd_Asset_Group_1_copy_2_01_Frame_Didn_t_find_what_you_were_looking_for_on_Robson__0_Layer0_0_MEMBER_28_FILL"/>
</g>

<g transform="matrix( 1, 0, 0, 0.999755859375, -1.2,-0.55) ">
<use xlink:href="#METSP16_IAB_480x320_psd_Asset_Group_1_copy_2_01_Frame_Didn_t_find_what_you_were_looking_for_on_Robson__0_Layer0_0_MEMBER_29_FILL"/>
</g>

<g transform="matrix( 1, 0, 0, 0.999755859375, -1.2,-0.55) ">
<use xlink:href="#METSP16_IAB_480x320_psd_Asset_Group_1_copy_2_01_Frame_Didn_t_find_what_you_were_looking_for_on_Robson__0_Layer0_0_MEMBER_30_FILL"/>
</g>

<g transform="matrix( 1, 0, 0, 0.999755859375, -1.2,-0.55) ">
<use xlink:href="#METSP16_IAB_480x320_psd_Asset_Group_1_copy_2_01_Frame_Didn_t_find_what_you_were_looking_for_on_Robson__0_Layer0_0_MEMBER_31_FILL"/>
</g>

<g transform="matrix( 1, 0, 0, 0.999755859375, -1.2,-0.55) ">
<use xlink:href="#METSP16_IAB_480x320_psd_Asset_Group_1_copy_2_01_Frame_Didn_t_find_what_you_were_looking_for_on_Robson__0_Layer0_0_MEMBER_32_FILL"/>
</g>

<g transform="matrix( 1, 0, 0, 0.999755859375, -1.2,-0.55) ">
<use xlink:href="#METSP16_IAB_480x320_psd_Asset_Group_1_copy_2_01_Frame_Didn_t_find_what_you_were_looking_for_on_Robson__0_Layer0_0_MEMBER_33_FILL"/>
</g>

<g transform="matrix( 1, 0, 0, 0.999755859375, -1.2,-0.55) ">
<use xlink:href="#METSP16_IAB_480x320_psd_Asset_Group_1_copy_2_01_Frame_Didn_t_find_what_you_were_looking_for_on_Robson__0_Layer0_0_MEMBER_34_FILL"/>
</g>

<g transform="matrix( 1, 0, 0, 0.999755859375, -1.2,-0.55) ">
<use xlink:href="#METSP16_IAB_480x320_psd_Asset_Group_1_copy_2_01_Frame_Didn_t_find_what_you_were_looking_for_on_Robson__0_Layer0_0_MEMBER_35_FILL"/>
</g>

<g transform="matrix( 1, 0, 0, 0.999755859375, -1.2,-0.55) ">
<use xlink:href="#METSP16_IAB_480x320_psd_Asset_Group_1_copy_2_01_Frame_Didn_t_find_what_you_were_looking_for_on_Robson__0_Layer0_0_MEMBER_36_FILL"/>
</g>

<g transform="matrix( 1, 0, 0, 0.999755859375, -1.2,-0.55) ">
<use xlink:href="#METSP16_IAB_480x320_psd_Asset_Group_1_copy_2_01_Frame_Didn_t_find_what_you_were_looking_for_on_Robson__0_Layer0_0_MEMBER_37_FILL"/>
</g>

<g transform="matrix( 1, 0, 0, 0.999755859375, -1.2,-0.55) ">
<use xlink:href="#METSP16_IAB_480x320_psd_Asset_Group_1_copy_2_01_Frame_Didn_t_find_what_you_were_looking_for_on_Robson__0_Layer0_0_MEMBER_38_FILL"/>
</g>
</g>
</g>
</svg>
