
<svg xmlns="http://www.w3.org/2000/svg" version="1.1" xmlns:xlink="http://www.w3.org/1999/xlink" preserveAspectRatio="none" x="0px" y="0px" width="320px" height="480px" viewBox="0 0 320 480">
<defs>
<g id="Mask_flash0_ai_Assets_Layer_1__Clip_Group__0_2_MASK_0_FILL">
<path fill="#FFFFFF" stroke="none" d="
M 0 0
L 0 219.9 295.9 219.9 295.9 0 0 0 Z"/>
</g>

<g id="flash0_ai_Assets_Layer_1__Clip_Group__0_Layer2_0_FILL">
<path fill="#FFFFFF" stroke="none" d="
M 118 156.75
Q 116.65 155.45 114.85 154.95 113.35 154.55 110.9 154.55
L 103.45 154.75
Q 100.95 154.75 98.95 154.55 99.25 160.35 99.25 166.9 99.25 175.4 98.85 185.55 100.85 185.25 101.95 185.25 102.3 185.25 105 185.55
L 104.8 170.8 105.9 170.8
Q 111.1 178.15 113.45 181.8
L 115.8 185.55
Q 117.85 185.25 119.45 185.25 120.95 185.25 123.45 185.55 119.6 180.7 115.85 175.35
L 112.2 170.15
Q 115.6 169.55 117.65 167.6 120.05 165.35 120.05 161.8 120.05 158.75 118 156.75
M 104.8 157
Q 105.5 156.95 108 156.75 110.65 156.75 112.2 157.9 114.1 159.25 114.1 162.6 114.1 165.1 112.7 166.8 111.05 168.8 107.9 168.8
L 104.8 168.7 104.8 157
M 62.25 157.65
Q 62 157.05 62 156 62 155.45 62.25 154.55 54.15 154.8 53.95 154.8 51.25 154.8 45.75 154.55 46.15 160.55 46.15 169.65
L 45.75 185.55
Q 50.1 185.25 54.2 185.25 58.45 185.25 62.5 185.55 62.3 184.9 62.3 183.9 62.3 182.95 62.5 182.4 55.75 182.75 51.7 182.75
L 51.7 170.5 58 170.6
Q 59.15 170.6 61.45 170.8 61.25 170.2 61.25 169.25 61.25 168.65 61.45 167.65 58.65 167.95 51.7 167.95
L 51.7 157.35
Q 56.3 157.35 58 157.45
L 62.25 157.65
M 75.5 157.55
L 77.8 157.55 77.9 175.2
Q 77.9 177.8 77.45 185.55 79.95 185.25 80.55 185.25
L 83.85 185.55
Q 83.5 182.5 83.5 179.35
L 83.6 157.55
Q 89.5 157.55 92.6 157.9 92.4 156.9 92.4 156.25 92.4 155.55 92.6 154.55 87.15 154.8 80.55 154.8 72.95 154.8 68.5 154.55 68.7 155.65 68.7 156.2 68.7 156.8 68.5 157.9 71.7 157.55 75.5 157.55
M 32.55 154.65
Q 31.9 154.65 31.55 154.55 25.95 165.75 20.7 174.95
L 19.05 177.9 16.6 173.55
Q 11.75 164.9 8.05 157.4
L 6.65 154.55 5.65 154.65
Q 5 154.65 4.65 154.55 4.2 158.7 2.7 169.2 1.1 180.1 0.3 184.15
L 0 185.55
Q 1.2 185.25 1.9 185.25 2.8 185.25 4 185.55 4.35 177.85 5.9 165.45 6.55 166.65 10.4 173.65 13.8 180.2 16.65 185.55
L 17.5 185.45 18.4 185.55
Q 22.15 177.05 29.15 165 29.3 166.9 30.6 178.1
L 31.15 185.55
Q 33.25 185.25 34.25 185.25 35.3 185.25 37.5 185.55 37.05 183.55 35.65 174 34.5 164.95 33.85 158.3
L 33.5 154.55
Q 33.2 154.65 32.55 154.65
M 235.9 160.4
Q 236.05 164.45 236.05 166.85
L 235.75 185.55
Q 240.7 185.25 244.35 185.25 246.1 185.25 253 185.55 252.75 184.8 252.75 184 252.75 183.05 253 182.2 250.35 182.6 242.5 182.6
L 241.7 182.6
Q 241.55 175.1 241.55 174 241.55 164.75 242 154.55 240.15 154.8 238.85 154.8 237.15 154.8 235.75 154.55
L 235.9 160.4
M 187 206.1
L 187 203.75 182.85 203.75 182.85 199.15 179.9 200.1 179.9 203.75 176.35 203.75 176.35 206.1 179.9 206.1 179.9 215.3
Q 179.9 219.9 184.8 219.9 185.8 219.9 187.25 219.45
L 187.25 216.95
Q 186.35 217.55 185.25 217.55 184.25 217.55 183.55 216.8 182.85 216.05 182.85 214.7
L 182.85 206.1 187 206.1
M 204.65 217.45
Q 206.9 215.05 206.9 211.6 206.9 208 204.7 205.7 202.45 203.35 198.9 203.35 195.3 203.35 193.05 205.7 190.85 208 190.85 211.6 190.85 215.1 193.1 217.45 195.35 219.9 198.9 219.9 202.35 219.9 204.65 217.45
M 203.8 211.6
Q 203.8 214 202.65 215.65 201.3 217.55 198.9 217.55 196.5 217.55 195.15 215.65 193.95 214 193.95 211.6 193.95 209.2 195.25 207.55 196.65 205.7 198.9 205.7 201.1 205.7 202.5 207.55 203.8 209.2 203.8 211.6
M 227.65 216.8
L 227.6 216.8 223.65 203.75 220.2 203.75 216.15 216.8 216.1 216.8 212.5 203.75 209.3 203.75 214.4 219.5 217.75 219.5 221.75 206.25 221.8 206.25 225.9 219.5 229.25 219.5 234.35 203.75 231.5 203.75 227.65 216.8
M 246.1 205.7
Q 247.95 205.8 248.75 207.2 249.45 208.5 249.45 211.35
L 249.45 219.5 252.35 219.5 252.35 210.15
Q 252.35 203.35 246.45 203.35 244.75 203.35 243.35 204.15 241.95 204.9 241.3 206.25
L 241.25 206.25 241.25 203.75 238.4 203.75 238.4 219.5 241.3 219.5 241.3 212.2
Q 241.3 209.2 242.45 207.5 243.7 205.7 246.1 205.7
M 53.55 206.75
Q 54.4 207.7 54.4 209.85 53.25 209.75 51.3 209.75 48.55 209.75 46.5 210.85 43.95 212.3 43.95 214.95 43.95 217.45 45.6 218.7 47.1 219.9 49.75 219.9 52.95 219.9 54.65 217.45
L 54.7 217.45 54.7 219.5 57.4 219.5
Q 57.3 218.6 57.3 216.4
L 57.3 209.9
Q 57.3 206.6 55.8 205 54.25 203.35 50.95 203.35 48.3 203.35 45.75 204.85
L 45.9 207.3
Q 47.9 205.7 50.5 205.7 52.6 205.7 53.55 206.75
M 48 216.9
Q 47.05 216.15 47.05 214.95 47.05 211.95 52.55 211.95
L 54.4 212 54.4 213.4
Q 54.4 215.25 53.3 216.35 52.1 217.55 50 217.55 48.9 217.55 48 216.9
M 71.2 206.1
L 71.2 203.75 67.05 203.75 67.05 199.15 64.15 200.1 64.15 203.75 60.6 203.75 60.6 206.1 64.15 206.1 64.15 215.3
Q 64.15 219.9 69 219.9 70 219.9 71.45 219.45
L 71.45 216.95
Q 70.65 217.55 69.5 217.55 68.45 217.55 67.75 216.8 67.05 216.05 67.05 214.7
L 67.05 206.1 71.2 206.1
M 101.6 205.7
Q 104.4 205.7 104.4 210.1
L 104.4 219.5 107.3 219.5 107.3 209.4
Q 107.3 203.35 101.85 203.35 100.55 203.35 99.25 204.05 97.7 204.85 96.95 206.4 95.7 203.35 92.45 203.35 89.05 203.35 87.45 206
L 87.4 206 87.4 203.75 84.7 203.75 84.7 219.5 87.6 219.5 87.6 211.55
Q 87.6 209.1 88.55 207.5 89.65 205.7 91.75 205.7 94.55 205.7 94.55 210.1
L 94.55 219.5 97.45 219.5 97.45 211.55
Q 97.45 209.1 98.4 207.5 99.55 205.7 101.6 205.7
M 125.55 218.85
L 125.55 215.95
Q 124.95 216.5 123.6 217 122 217.55 120.7 217.55 118.6 217.55 117.05 216.1 115.5 214.55 115.5 212.25
L 126.75 212.25
Q 126.75 203.35 119.8 203.35 116.5 203.35 114.45 205.6 112.4 207.8 112.4 211.35 112.4 215.35 114.4 217.55 116.45 219.9 120.55 219.9 122.2 219.9 123.6 219.55 123.95 219.45 125.55 218.85
M 122.65 207
Q 123.65 208.2 123.65 210.1
L 115.5 210.1
Q 115.7 208.3 116.65 207.15 117.75 205.7 119.7 205.7 121.55 205.7 122.65 207
M 140.25 206.1
L 140.25 203.75 136.1 203.75 136.1 199.15 133.2 200.1 133.2 203.75 129.6 203.75 129.6 206.1 133.2 206.1 133.2 215.3
Q 133.2 219.9 138.05 219.9 139.05 219.9 140.5 219.45
L 140.5 216.95
Q 139.7 217.55 138.55 217.55 137.5 217.55 136.8 216.8 136.1 216.05 136.1 214.7
L 136.1 206.1 140.25 206.1
M 157.45 211.6
Q 157.45 215.1 159.65 217.45 161.95 219.9 165.45 219.9 168.95 219.9 171.25 217.45 173.5 215.1 173.5 211.6 173.5 208 171.3 205.7 169 203.35 165.45 203.35 161.9 203.35 159.65 205.7 157.45 208 157.45 211.6
M 161.7 215.65
Q 160.5 213.95 160.5 211.6 160.5 209.25 161.8 207.55 163.2 205.7 165.45 205.7 167.7 205.7 169.1 207.55 170.4 209.25 170.4 211.6 170.4 214 169.2 215.65 167.85 217.55 165.45 217.55 163.05 217.55 161.7 215.65
M 153 205.9
Q 153.95 205.9 154.6 206.2
L 154.6 203.6
Q 153.5 203.35 152.65 203.35 151.45 203.35 150.3 204.15 149.15 204.95 148.55 206.2
L 148.5 206.2 148.5 203.75 145.75 203.75 145.75 219.5 148.7 219.5 148.7 212.35
Q 148.7 209.35 149.9 207.65 151.05 205.9 153 205.9
M 154.85 84.2
L 127.3 125.7 198.05 125.7 154.85 84.2
M 160.8 169.65
Q 160.8 162 155.6 157.85 151 154.15 144.05 154.15 136.7 154.15 132.15 158.15 127.1 162.55 127.1 170.7 127.1 177.9 132 182.15 136.65 186.15 143.95 186.15 151.5 186.15 156.15 181.65 160.8 177.15 160.8 169.65
M 152.25 160.55
Q 154.6 164.1 154.6 170.15 154.6 175.7 152.15 179.45 149.25 183.85 143.95 183.85 138.5 183.85 135.7 179.55 133.25 175.85 133.25 170.15 133.25 164.8 135.7 161 138.6 156.5 143.95 156.5 149.5 156.5 152.25 160.55
M 118.8 0.05
L 152.5 51.2 173.25 0.05 118.8 0.05
M 143 67.55
L 99.05 16.3 99.05 129.8 116.5 129.8 143 67.55
M 277.75 167.9
Q 279.05 169.8 282.25 171.2
L 286.9 173.1
Q 290.6 174.65 290.6 178.3 290.6 180.75 289 182.35 287.3 183.95 284.65 183.95 282.4 183.95 280.95 183.05 279.1 181.85 277.65 178.75
L 277.05 178.75
Q 276.7 181.6 276 183.85 280.6 186.15 284.45 186.15 290.15 186.15 293.25 182.95 295.9 180.2 295.9 176.25 295.9 172.7 293.7 170.3 292.8 169.3 291.45 168.6 290.55 168.15 287.55 167 284 165.6 282.95 164.8 281.3 163.5 281.3 161.25 281.3 159.15 282.6 157.85 284.05 156.4 286.6 156.4 288.8 156.4 290.4 157.4 292.05 158.45 292.55 160.3
L 293.15 160.3
Q 293.6 158.35 294.55 156.05 292.4 155.1 291.2 154.75 289.25 154.15 287.05 154.15 281.5 154.15 278.75 157.2 276.55 159.6 276.55 163.2 276.55 166.1 277.75 167.9
M 266.9 170.25
Q 266.9 157.9 267.4 154.55 264.8 154.8 264.2 154.8
L 261 154.55
Q 261.45 158.9 261.45 164.95 261.45 180.15 260.95 185.55 261.95 185.5 264.2 185.25 265.25 185.25 267.35 185.55 266.9 180.8 266.9 170.25
M 199.1 158.15
Q 194.05 162.55 194.05 170.7 194.05 177.9 198.95 182.15 203.6 186.15 210.9 186.15 218.45 186.15 223.1 181.65 227.75 177.15 227.75 169.65 227.75 162 222.55 157.85 218 154.15 211.05 154.15 203.7 154.15 199.1 158.15
M 202.65 161
Q 205.55 156.5 210.9 156.5 216.45 156.5 219.2 160.55 221.55 164.1 221.55 170.15 221.55 175.7 219.1 179.45 216.2 183.85 210.9 183.85 205.45 183.85 202.65 179.55 200.25 175.85 200.25 170.15 200.25 164.8 202.65 161
M 185.95 168.85
Q 188.35 166.4 188.35 162.6 188.35 158.45 185.25 156.25 182.95 154.55 178.65 154.55
L 172.5 154.75
Q 170.05 154.75 167.95 154.55
L 168.2 160.25
Q 168.3 162.1 168.3 167.95
L 168.2 179
Q 168.2 180.1 167.9 185.55 169.35 185.25 171 185.25 172.6 185.25 174.15 185.55 173.85 182.55 173.85 178.45
L 173.85 171.65
Q 175.95 171.85 176.95 171.85 182.95 171.85 185.95 168.85
M 173.85 156.95
Q 175.95 156.75 177 156.75 179.7 156.75 181.15 158.5 182.5 160.1 182.5 162.9 182.5 165.35 181.25 167.2 179.6 169.65 176.25 169.65 175.45 169.65 173.85 169.45
L 173.85 156.95
M 195.85 20.15
L 166 68.25 195.85 119.35 195.85 20.15 Z"/>
</g>

<g id="METSP16_IAB_320x480___CROPPED_psd_Asset_2_Group_1_copy_01_Frame_Brentwood_Catch_the_SkyTrain_east_and_shop_your_heart_out__0_Layer0_0_MEMBER_0_FILL">
<path fill="#FFFFFF" stroke="none" d="
M 18.95 3.7
Q 18.95 3.1 18.4 2.45 15.9 -0.1 11.6 -0.1 7.05 -0.1 4.15 2.75 1.2 5.7 1.2 10.4 1.2 15.15 4.15 18.1 7.05 20.95 11.6 20.95 13.5 20.95 15.25 20.35 17.15 19.65 18.4 18.35 18.95 17.7 18.95 17.1 18.95 16.35 18.5 15.9 18.05 15.4 17.3 15.4 16.7 15.4 16.05 15.8 13.9 17.5 11.6 17.5 8.65 17.5 6.8 15.45 4.95 13.5 4.95 10.4 4.95 7.35 6.8 5.35 8.65 3.35 11.6 3.35 13.95 3.35 16.05 5 16.65 5.45 17.3 5.45 18.05 5.45 18.5 4.95 18.95 4.45 18.95 3.7 Z"/>
</g>

<g id="METSP16_IAB_320x480___CROPPED_psd_Asset_2_Group_1_copy_01_Frame_Brentwood_Catch_the_SkyTrain_east_and_shop_your_heart_out__0_Layer0_0_MEMBER_1_FILL">
<path fill="#FFFFFF" stroke="none" d="
M 27.55 10.05
Q 29.3 10.05 30 10.75 30.65 11.4 30.65 13
L 30.65 13.95
Q 29.25 12.55 26.95 12.55 24.75 12.55 23.45 13.6 22.05 14.7 22.05 16.75 22.05 18.6 23.3 19.75 24.65 20.95 26.8 20.95 29.45 20.95 30.7 18.9
L 30.7 19
Q 30.7 19.75 31.25 20.3 31.75 20.8 32.5 20.8 33.3 20.8 33.8 20.3 34.3 19.75 34.3 19
L 34.3 12.75
Q 34.3 9.9 32.65 8.45 31 6.95 27.9 6.95 26.05 6.95 24.6 7.35 22.35 7.95 22.35 9.25 22.35 9.9 22.8 10.3 23.25 10.75 23.9 10.75 24.2 10.75 25.4 10.4 26.55 10.05 27.55 10.05
M 28.1 15
Q 29.2 15 29.9 15.5 30.65 16.05 30.65 16.75 30.65 17.5 29.9 18 29.2 18.5 28.1 18.5 27.05 18.5 26.35 18 25.65 17.55 25.65 16.75 25.65 15.95 26.3 15.5 27 15 28.1 15 Z"/>
</g>

<g id="METSP16_IAB_320x480___CROPPED_psd_Asset_2_Group_1_copy_01_Frame_Brentwood_Catch_the_SkyTrain_east_and_shop_your_heart_out__0_Layer0_0_MEMBER_2_FILL">
<path fill="#FFFFFF" stroke="none" d="
M 43.55 3.55
Q 43.55 2.8 43.05 2.25 42.5 1.7 41.75 1.7 41 1.7 40.45 2.25 39.9 2.8 39.9 3.55
L 39.9 7.3 37.85 7.3
Q 37.2 7.3 36.8 7.75 36.35 8.2 36.35 8.85 36.35 9.5 36.8 9.9 37.2 10.35 37.85 10.35
L 39.9 10.35 39.9 19
Q 39.9 19.75 40.45 20.3 41 20.8 41.75 20.8 42.5 20.8 43.05 20.3 43.55 19.75 43.55 19
L 43.55 10.35 45.95 10.35
Q 46.6 10.35 47 9.9 47.45 9.5 47.45 8.85 47.45 8.2 47 7.75 46.6 7.3 45.95 7.3
L 43.55 7.3 43.55 3.55 Z"/>
</g>

<g id="METSP16_IAB_320x480___CROPPED_psd_Asset_2_Group_1_copy_01_Frame_Brentwood_Catch_the_SkyTrain_east_and_shop_your_heart_out__0_Layer0_0_MEMBER_3_FILL">
<path fill="#FFFFFF" stroke="none" d="
M 60.35 8.75
Q 58.75 6.95 55.65 6.95 52.4 6.95 50.45 9 48.5 10.95 48.5 13.95 48.5 16.95 50.45 18.9 52.4 20.95 55.65 20.95 58.75 20.95 60.35 19.15 60.9 18.5 60.9 17.9 60.9 17.25 60.5 16.85 60.1 16.45 59.45 16.45 58.85 16.45 58.35 16.85 57 17.8 55.7 17.8 54 17.8 53.05 16.65 52.15 15.6 52.15 13.95 52.15 12.3 53.05 11.25 54 10.05 55.7 10.05 56.9 10.05 58.35 11.05 58.75 11.4 59.45 11.4 60.1 11.4 60.5 11 60.9 10.65 60.9 10 60.9 9.3 60.35 8.75 Z"/>
</g>

<g id="METSP16_IAB_320x480___CROPPED_psd_Asset_2_Group_1_copy_01_Frame_Brentwood_Catch_the_SkyTrain_east_and_shop_your_heart_out__0_Layer0_0_MEMBER_4_FILL">
<path fill="#FFFFFF" stroke="none" d="
M 75.7 8.75
Q 74.25 6.95 71.75 6.95 69.05 6.95 67.8 9.2
L 67.8 1.85
Q 67.8 1.1 67.3 0.55 66.75 0 66 0 65.25 0 64.7 0.55 64.15 1.1 64.15 1.85
L 64.15 19
Q 64.15 19.75 64.7 20.3 65.25 20.8 66 20.8 66.75 20.8 67.3 20.3 67.8 19.75 67.8 19
L 67.8 13.4
Q 67.8 12.1 68.5 11.25 69.25 10.25 70.7 10.25 72.05 10.25 72.75 11.15 73.45 12 73.45 13.4
L 73.45 19
Q 73.45 19.75 74 20.3 74.55 20.8 75.3 20.8 76.05 20.8 76.6 20.3 77.1 19.75 77.1 19
L 77.1 13.25
Q 77.1 10.45 75.7 8.75 Z"/>
</g>

<g id="METSP16_IAB_320x480___CROPPED_psd_Asset_2_Group_1_copy_01_Frame_Brentwood_Catch_the_SkyTrain_east_and_shop_your_heart_out__0_Layer0_0_MEMBER_5_FILL">
<path fill="#FFFFFF" stroke="none" d="
M 92.35 2.25
Q 91.8 2.8 91.8 3.55
L 91.8 7.3 89.75 7.3
Q 89.1 7.3 88.7 7.75 88.25 8.2 88.25 8.85 88.25 9.5 88.7 9.9 89.1 10.35 89.75 10.35
L 91.8 10.35 91.8 19
Q 91.8 19.75 92.35 20.3 92.85 20.8 93.65 20.8 94.4 20.8 94.95 20.3 95.45 19.75 95.45 19
L 95.45 10.35 97.85 10.35
Q 98.5 10.35 98.9 9.9 99.35 9.5 99.35 8.85 99.35 8.2 98.9 7.75 98.5 7.3 97.85 7.3
L 95.45 7.3 95.45 3.55
Q 95.45 2.8 94.95 2.25 94.4 1.7 93.65 1.7 92.85 1.7 92.35 2.25 Z"/>
</g>

<g id="METSP16_IAB_320x480___CROPPED_psd_Asset_2_Group_1_copy_01_Frame_Brentwood_Catch_the_SkyTrain_east_and_shop_your_heart_out__0_Layer0_0_MEMBER_6_FILL">
<path fill="#FFFFFF" stroke="none" d="
M 109.25 6.95
Q 106.55 6.95 105.3 9.2
L 105.3 1.85
Q 105.3 1.1 104.8 0.55 104.25 0 103.5 0 102.7 0 102.2 0.55 101.65 1.1 101.65 1.85
L 101.65 19
Q 101.65 19.75 102.2 20.3 102.7 20.8 103.5 20.8 104.25 20.8 104.8 20.3 105.3 19.75 105.3 19
L 105.3 13.4
Q 105.3 12.1 106 11.25 106.75 10.25 108.2 10.25 109.55 10.25 110.25 11.15 110.95 12 110.95 13.4
L 110.95 19
Q 110.95 19.75 111.5 20.3 112.05 20.8 112.8 20.8 113.55 20.8 114.1 20.3 114.6 19.75 114.6 19
L 114.6 13.25
Q 114.6 10.45 113.2 8.75 111.75 6.95 109.25 6.95 Z"/>
</g>

<g id="METSP16_IAB_320x480___CROPPED_psd_Asset_2_Group_1_copy_01_Frame_Brentwood_Catch_the_SkyTrain_east_and_shop_your_heart_out__0_Layer0_0_MEMBER_7_FILL">
<path fill="#FFFFFF" stroke="none" d="
M 129.3 8.95
Q 127.5 6.95 124.7 6.95 121.7 6.95 119.75 8.95 117.8 10.9 117.8 13.95 117.8 16.95 119.55 18.9 121.45 20.95 124.75 20.95 127.25 20.95 129.25 19.7 130.55 18.85 130.55 17.9 130.55 16.55 129.05 16.55 128.45 16.55 127.75 17.15 126.6 18.05 124.95 18.05 123.45 18.05 122.55 17.2 121.75 16.4 121.65 15.15
L 129.75 15.15
Q 131.05 15.15 131.05 13.95 131.05 10.9 129.3 8.95
M 124.7 9.9
Q 125.85 9.9 126.65 10.7 127.35 11.4 127.6 12.55
L 121.7 12.55
Q 121.85 11.35 122.65 10.65 123.5 9.9 124.7 9.9 Z"/>
</g>

<g id="METSP16_IAB_320x480___CROPPED_psd_Asset_2_Group_1_copy_01_Frame_Brentwood_Catch_the_SkyTrain_east_and_shop_your_heart_out__0_Layer0_0_MEMBER_8_FILL">
<path fill="#FFFFFF" stroke="none" d="
M 17 32.95
Q 17 31.35 13.85 30.45 12.05 29.9 9.95 29.9 6.25 29.9 4.1 31.35 1.9 32.85 1.9 35.6 1.9 37.95 3.4 39.35 5 40.8 9.05 41.9 11.8 42.6 12.85 43.3 13.9 44 13.9 45.1 13.9 47.65 9.8 47.65 7.9 47.65 6.55 47.05 5.95 46.8 4.2 45.7 3.6 45.45 3.25 45.45 2.55 45.45 2.1 45.9 1.7 46.35 1.7 47.05 1.7 47.95 2.7 48.8 4.05 49.8 6 50.4 7.9 50.95 9.75 50.95 13.55 50.95 15.65 49.25 17.65 47.65 17.65 44.9 17.65 42.25 15.65 40.75 14.2 39.65 10.5 38.6 7.55 37.7 6.7 37.2 5.6 36.55 5.6 35.5 5.6 33.2 9.95 33.2 12.05 33.2 14.75 34.45 15 34.6 15.5 34.6 16.25 34.6 16.65 34.1 17 33.6 17 32.95 Z"/>
</g>

<g id="METSP16_IAB_320x480___CROPPED_psd_Asset_2_Group_1_copy_01_Frame_Brentwood_Catch_the_SkyTrain_east_and_shop_your_heart_out__0_Layer0_0_MEMBER_9_FILL">
<path fill="#FFFFFF" stroke="none" d="
M 21.7 30.55
Q 21.15 31.1 21.15 31.85
L 21.15 49
Q 21.15 49.75 21.7 50.3 22.25 50.8 23 50.8 23.75 50.8 24.3 50.3 24.85 49.75 24.85 49
L 24.85 45.9 26.4 44.7 30.4 50.1
Q 30.85 50.8 31.65 50.8 32.45 50.8 32.9 50.3 33.35 49.8 33.35 49.05 33.35 48.45 33.05 48.15
L 29 42.65 32.4 40
Q 33.2 39.4 33.2 38.8 33.2 38.1 32.7 37.6 32.25 37.1 31.45 37.1 30.8 37.1 30.4 37.45
L 24.85 41.75 24.85 31.85
Q 24.85 31.1 24.3 30.55 23.75 30 23 30 22.25 30 21.7 30.55 Z"/>
</g>

<g id="METSP16_IAB_320x480___CROPPED_psd_Asset_2_Group_1_copy_01_Frame_Brentwood_Catch_the_SkyTrain_east_and_shop_your_heart_out__0_Layer0_0_MEMBER_10_FILL">
<path fill="#FFFFFF" stroke="none" d="
M 44.85 38.05
L 42 46.85 38.55 38.05
Q 38.15 37.1 37.05 37.1 36.3 37.1 35.85 37.6 35.4 38.05 35.4 38.75 35.4 39.1 35.55 39.45
L 39.9 50.2
Q 39.2 51.9 37.2 53.5 36.3 54.2 36.3 55 36.3 55.6 36.8 56.05 37.3 56.5 37.95 56.5 38.5 56.5 38.75 56.3 42.2 54.25 44.45 48.7 46.4 43.9 47.85 39.45 48 39 48 38.75 48 38.05 47.55 37.6 47.1 37.1 46.35 37.1 45.15 37.1 44.85 38.05 Z"/>
</g>

<g id="METSP16_IAB_320x480___CROPPED_psd_Asset_2_Group_1_copy_01_Frame_Brentwood_Catch_the_SkyTrain_east_and_shop_your_heart_out__0_Layer0_0_MEMBER_11_FILL">
<path fill="#FFFFFF" stroke="none" d="
M 60.15 48.9
L 60.15 33.75 65.35 33.75
Q 66.1 33.75 66.6 33.25 67.1 32.7 67.1 32 67.1 31.3 66.6 30.75 66.05 30.25 65.35 30.25
L 51.15 30.25
Q 50.4 30.25 49.9 30.75 49.4 31.3 49.4 32 49.4 32.7 49.9 33.25 50.45 33.75 51.15 33.75
L 56.4 33.75 56.4 48.9
Q 56.4 49.7 56.95 50.25 57.45 50.8 58.25 50.8 59 50.8 59.6 50.25 60.15 49.7 60.15 48.9 Z"/>
</g>

<g id="METSP16_IAB_320x480___CROPPED_psd_Asset_2_Group_1_copy_01_Frame_Brentwood_Catch_the_SkyTrain_east_and_shop_your_heart_out__0_Layer0_0_MEMBER_12_FILL">
<path fill="#FFFFFF" stroke="none" d="
M 70.05 49
L 70.05 44.2
Q 70.05 42.35 71 41.3 72 40.25 73.6 40.25 74.35 40.25 74.8 39.8 75.25 39.3 75.25 38.6 75.25 37.9 74.85 37.45 74.4 36.95 73.6 36.95 71.05 36.95 70.05 39.3
L 70.05 38.95
Q 70.05 38.2 69.5 37.65 68.95 37.1 68.2 37.1 67.4 37.1 66.85 37.6 66.35 38.15 66.35 38.95
L 66.35 49
Q 66.35 49.75 66.9 50.3 67.45 50.8 68.2 50.8 68.95 50.8 69.5 50.3 70.05 49.75 70.05 49 Z"/>
</g>

<g id="METSP16_IAB_320x480___CROPPED_psd_Asset_2_Group_1_copy_01_Frame_Brentwood_Catch_the_SkyTrain_east_and_shop_your_heart_out__0_Layer0_0_MEMBER_13_FILL">
<path fill="#FFFFFF" stroke="none" d="
M 89.3 42.75
Q 89.3 39.95 87.65 38.45 86 36.95 82.9 36.95 81.05 36.95 79.6 37.35 77.35 37.95 77.35 39.25 77.35 39.9 77.8 40.3 78.25 40.75 78.9 40.75 79.2 40.75 80.4 40.45 81.55 40.1 82.55 40.1 84.3 40.1 85 40.8 85.65 41.4 85.65 43
L 85.65 44
Q 84.4 42.6 81.95 42.6 79.75 42.6 78.45 43.65 77.05 44.75 77.05 46.75 77.05 48.6 78.3 49.75 79.65 50.95 81.8 50.95 84.45 50.95 85.7 48.9
L 85.7 49
Q 85.7 49.75 86.25 50.3 86.75 50.8 87.5 50.8 88.3 50.8 88.8 50.3 89.3 49.75 89.3 49
L 89.3 42.75
M 84.9 45.5
Q 85.65 46.05 85.65 46.75 85.65 47.5 84.9 48 84.2 48.5 83.1 48.5 82.05 48.5 81.35 48 80.65 47.55 80.65 46.75 80.65 45.95 81.3 45.5 82 45 83.1 45 84.2 45 84.9 45.5 Z"/>
</g>

<g id="METSP16_IAB_320x480___CROPPED_psd_Asset_2_Group_1_copy_01_Frame_Brentwood_Catch_the_SkyTrain_east_and_shop_your_heart_out__0_Layer0_0_MEMBER_14_FILL">
<path fill="#FFFFFF" stroke="none" d="
M 93.3 38.9
L 93.3 49
Q 93.3 49.75 93.85 50.3 94.35 50.8 95.1 50.8 95.9 50.8 96.4 50.3 96.95 49.75 96.95 49
L 96.95 38.9
Q 96.95 38.15 96.4 37.65 95.9 37.1 95.1 37.1 94.35 37.1 93.85 37.65 93.3 38.15 93.3 38.9
M 93.65 31.6
Q 93.05 32.25 93.05 33.1 93.05 33.95 93.65 34.55 94.25 35.15 95.1 35.15 96 35.15 96.6 34.55 97.2 33.95 97.2 33.1 97.2 32.25 96.6 31.6 96 31 95.1 31 94.25 31 93.65 31.6 Z"/>
</g>

<g id="METSP16_IAB_320x480___CROPPED_psd_Asset_2_Group_1_copy_01_Frame_Brentwood_Catch_the_SkyTrain_east_and_shop_your_heart_out__0_Layer0_0_MEMBER_15_FILL">
<path fill="#FFFFFF" stroke="none" d="
M 101.2 38.95
L 101.2 49
Q 101.2 49.75 101.75 50.3 102.3 50.8 103.05 50.8 103.8 50.8 104.35 50.3 104.9 49.75 104.9 49
L 104.9 43.45
Q 104.9 42.1 105.55 41.25 106.3 40.25 107.75 40.25 109.1 40.25 109.85 41.2 110.55 42.05 110.55 43.45
L 110.55 49
Q 110.55 49.75 111.1 50.3 111.6 50.8 112.35 50.8 113.1 50.8 113.65 50.3 114.2 49.75 114.2 49
L 114.2 43.25
Q 114.2 40.45 112.8 38.75 111.35 36.95 108.8 36.95 106.05 36.95 104.9 39.2
L 104.9 38.95
Q 104.9 38.1 104.35 37.6 103.85 37.1 103.05 37.1 102.25 37.1 101.75 37.6 101.2 38.1 101.2 38.95 Z"/>
</g>

<g id="METSP16_IAB_320x480___CROPPED_psd_Asset_2_Group_1_copy_01_Frame_Brentwood_Catch_the_SkyTrain_east_and_shop_your_heart_out__0_Layer0_0_MEMBER_16_FILL">
<path fill="#FFFFFF" stroke="none" d="
M 14.45 73.95
Q 14.45 70.9 12.7 68.95 10.95 66.95 8.1 66.95 5.1 66.95 3.15 68.95 1.2 70.95 1.2 73.95 1.2 76.95 2.95 78.9 4.85 80.95 8.15 80.95 10.65 80.95 12.65 79.7 13.95 78.95 13.95 77.9 13.95 77.3 13.55 76.95 13.15 76.55 12.5 76.55 11.85 76.55 11.15 77.15 10 78.05 8.35 78.05 6.8 78.05 5.95 77.2 5.15 76.45 5.05 75.15
L 13.15 75.15
Q 14.45 75.15 14.45 73.95
M 8.1 69.9
Q 10.45 69.9 11 72.55
L 5.1 72.55
Q 5.25 71.35 6.05 70.65 6.9 69.9 8.1 69.9 Z"/>
</g>

<g id="METSP16_IAB_320x480___CROPPED_psd_Asset_2_Group_1_copy_01_Frame_Brentwood_Catch_the_SkyTrain_east_and_shop_your_heart_out__0_Layer0_0_MEMBER_17_FILL">
<path fill="#FFFFFF" stroke="none" d="
M 26.05 74
Q 24.75 72.6 22.35 72.6 20.15 72.6 18.85 73.65 17.4 74.75 17.4 76.75 17.4 78.6 18.7 79.75 20.05 80.95 22.2 80.95 24.85 80.95 26.1 78.95
L 26.1 79
Q 26.1 79.75 26.65 80.3 27.15 80.8 27.9 80.8 28.7 80.8 29.2 80.3 29.7 79.75 29.7 79
L 29.7 72.75
Q 29.7 69.95 28.05 68.45 26.4 66.95 23.3 66.95 21.5 66.95 20 67.35 17.75 68 17.75 69.25 17.75 69.9 18.2 70.3 18.65 70.75 19.3 70.75 19.6 70.75 20.8 70.45 21.95 70.1 22.95 70.1 24.7 70.1 25.4 70.8 26.05 71.45 26.05 73
L 26.05 74
M 23.5 75
Q 24.55 75 25.3 75.5 26.05 76.05 26.05 76.75 26.05 77.5 25.3 78 24.55 78.5 23.5 78.5 22.45 78.5 21.75 78.05 21.05 77.55 21.05 76.75 21.05 75.95 21.7 75.5 22.4 75 23.5 75 Z"/>
</g>

<g id="METSP16_IAB_320x480___CROPPED_psd_Asset_2_Group_1_copy_01_Frame_Brentwood_Catch_the_SkyTrain_east_and_shop_your_heart_out__0_Layer0_0_MEMBER_18_FILL">
<path fill="#FFFFFF" stroke="none" d="
M 36.8 70.9
Q 36.8 69.9 38.7 69.9 39.8 69.9 40.95 70.4 42.25 70.95 42.6 70.95 44 70.95 44 69.65 44 68.55 42.15 67.65 40.5 66.95 38.8 66.95 36.2 66.95 34.75 68.1 33.35 69.2 33.35 70.95 33.35 72.65 34.4 73.7 35.55 74.9 38.35 75.65 39.75 76 40.3 76.3 40.85 76.65 40.85 77.15 40.85 78.25 38.95 78.25 37.45 78.25 36 77.35 35.2 76.8 34.55 76.8 34 76.8 33.6 77.15 33.2 77.5 33.2 78 33.2 78.95 34 79.55 35.9 80.95 38.85 80.95 41.4 80.95 42.85 79.8 44.3 78.7 44.3 76.85 44.3 75 42.9 73.95 41.85 73.15 39.35 72.45 37.85 72.05 37.35 71.75 36.8 71.45 36.8 70.9 Z"/>
</g>

<g id="METSP16_IAB_320x480___CROPPED_psd_Asset_2_Group_1_copy_01_Frame_Brentwood_Catch_the_SkyTrain_east_and_shop_your_heart_out__0_Layer0_0_MEMBER_19_FILL">
<path fill="#FFFFFF" stroke="none" d="
M 47.25 70.4
L 49.3 70.4 49.3 79
Q 49.3 79.75 49.85 80.3 50.35 80.8 51.15 80.8 51.9 80.8 52.45 80.3 52.95 79.75 52.95 79
L 52.95 70.4 55.35 70.4
Q 56 70.4 56.4 69.95 56.85 69.5 56.85 68.85 56.85 68.2 56.4 67.8 56 67.35 55.35 67.35
L 52.95 67.35 52.95 63.55
Q 52.95 62.8 52.45 62.3 51.9 61.75 51.15 61.75 50.35 61.75 49.85 62.3 49.3 62.8 49.3 63.55
L 49.3 67.35 47.25 67.35
Q 46.6 67.35 46.2 67.8 45.75 68.2 45.75 68.85 45.75 69.5 46.2 69.95 46.6 70.4 47.25 70.4 Z"/>
</g>

<g id="METSP16_IAB_320x480___CROPPED_psd_Asset_2_Group_1_copy_01_Frame_Brentwood_Catch_the_SkyTrain_east_and_shop_your_heart_out__0_Layer0_0_MEMBER_20_FILL">
<path fill="#FFFFFF" stroke="none" d="
M 70.1 67.35
Q 67.9 68 67.9 69.25 67.9 69.9 68.35 70.3 68.8 70.75 69.45 70.75 69.75 70.75 70.9 70.45 72.1 70.1 73.05 70.1 74.8 70.1 75.5 70.8 76.15 71.4 76.15 73
L 76.15 74
Q 74.9 72.6 72.5 72.6 70.3 72.6 69 73.65 67.55 74.75 67.55 76.75 67.55 78.6 68.8 79.75 70.15 80.95 72.3 80.95 75 80.95 76.25 78.95
L 76.25 79
Q 76.25 79.75 76.75 80.3 77.25 80.8 78.05 80.8 78.85 80.8 79.35 80.3 79.85 79.75 79.85 79
L 79.85 72.75
Q 79.85 69.95 78.2 68.45 76.5 66.95 73.4 66.95 71.6 66.95 70.1 67.35
M 73.6 75
Q 74.7 75 75.4 75.5 76.15 76.05 76.15 76.75 76.15 77.5 75.4 78 74.7 78.5 73.6 78.5 72.55 78.5 71.85 78.05 71.15 77.55 71.15 76.75 71.15 75.95 71.8 75.5 72.5 75 73.6 75 Z"/>
</g>

<g id="METSP16_IAB_320x480___CROPPED_psd_Asset_2_Group_1_copy_01_Frame_Brentwood_Catch_the_SkyTrain_east_and_shop_your_heart_out__0_Layer0_0_MEMBER_21_FILL">
<path fill="#FFFFFF" stroke="none" d="
M 88.15 71.25
Q 88.9 70.25 90.35 70.25 91.7 70.25 92.4 71.2 93.1 72.05 93.1 73.45
L 93.1 79
Q 93.1 79.75 93.65 80.3 94.2 80.8 94.95 80.8 95.7 80.8 96.25 80.3 96.75 79.75 96.75 79
L 96.75 73.25
Q 96.75 70.45 95.35 68.75 93.9 66.95 91.4 66.95 88.7 66.95 87.45 69.2
L 87.45 68.95
Q 87.45 68.1 86.95 67.6 86.4 67.1 85.65 67.1 84.85 67.1 84.35 67.6 83.8 68.1 83.8 68.95
L 83.8 79
Q 83.8 79.75 84.35 80.3 84.9 80.8 85.65 80.8 86.4 80.8 86.95 80.3 87.45 79.75 87.45 79
L 87.45 73.45
Q 87.45 72.1 88.15 71.25 Z"/>
</g>

<g id="METSP16_IAB_320x480___CROPPED_psd_Asset_2_Group_1_copy_01_Frame_Brentwood_Catch_the_SkyTrain_east_and_shop_your_heart_out__0_Layer0_0_MEMBER_22_FILL">
<path fill="#FFFFFF" stroke="none" d="
M 113.35 60.55
Q 112.8 60 112.05 60 111.3 60 110.75 60.55 110.2 61.1 110.2 61.85
L 110.2 69.15
Q 108.9 66.95 106.15 66.95 103.3 66.95 101.55 69.1 99.95 71.1 99.95 73.95 99.95 76.85 101.55 78.8 103.25 80.95 106.15 80.95 108.85 80.95 110.35 78.8
L 110.35 78.95
Q 110.35 79.7 110.85 80.25 111.35 80.8 112.1 80.8 112.9 80.8 113.4 80.3 113.9 79.75 113.9 79
L 113.9 61.85
Q 113.9 61.1 113.35 60.55
M 109.35 71.25
Q 110.2 72.35 110.2 73.95 110.2 75.6 109.35 76.65 108.45 77.85 106.95 77.85 105.4 77.85 104.5 76.7 103.65 75.6 103.65 73.95 103.65 72.3 104.5 71.2 105.4 70.1 106.95 70.1 108.45 70.1 109.35 71.25 Z"/>
</g>

<g id="METSP16_IAB_320x480___CROPPED_psd_Asset_2_Group_1_copy_01_Frame_Brentwood_Catch_the_SkyTrain_east_and_shop_your_heart_out__0_Layer0_0_MEMBER_23_FILL">
<path fill="#FFFFFF" stroke="none" d="
M 7.25 97
Q 4.65 97 3.2 98.15 1.8 99.2 1.8 100.95 1.8 102.65 2.85 103.7 4.05 104.9 6.8 105.65 8.25 106.05 8.75 106.35 9.3 106.65 9.3 107.15 9.3 108.25 7.4 108.25 5.9 108.25 4.45 107.35 3.65 106.85 3 106.85 2.45 106.85 2.1 107.15 1.7 107.5 1.7 108 1.7 109 2.45 109.6 4.35 110.95 7.3 110.95 9.85 110.95 11.35 109.8 12.8 108.7 12.8 106.85 12.8 105 11.4 103.95 10.35 103.15 7.8 102.45 6.3 102.05 5.8 101.8 5.3 101.5 5.3 100.9 5.3 99.9 7.15 99.9 8.25 99.9 9.45 100.4 10.75 101 11.05 101 12.45 101 12.45 99.65 12.45 98.5 10.6 97.7 9.15 97 7.25 97 Z"/>
</g>

<g id="METSP16_IAB_320x480___CROPPED_psd_Asset_2_Group_1_copy_01_Frame_Brentwood_Catch_the_SkyTrain_east_and_shop_your_heart_out__0_Layer0_0_MEMBER_24_FILL">
<path fill="#FFFFFF" stroke="none" d="
M 27.7 98.75
Q 26.25 97 23.75 97 21 97 19.8 99.2
L 19.8 91.85
Q 19.8 91.1 19.25 90.55 18.7 90 17.95 90 17.2 90 16.7 90.55 16.15 91.1 16.15 91.85
L 16.15 109
Q 16.15 109.75 16.7 110.3 17.2 110.85 17.95 110.85 18.7 110.85 19.25 110.3 19.8 109.75 19.8 109
L 19.8 103.45
Q 19.8 102.1 20.45 101.25 21.2 100.25 22.65 100.25 24 100.25 24.75 101.2 25.45 102.05 25.45 103.45
L 25.45 109
Q 25.45 109.75 26 110.3 26.5 110.85 27.25 110.85 28.05 110.85 28.55 110.3 29.1 109.75 29.1 109
L 29.1 103.25
Q 29.1 100.45 27.7 98.75 Z"/>
</g>

<g id="METSP16_IAB_320x480___CROPPED_psd_Asset_2_Group_1_copy_01_Frame_Brentwood_Catch_the_SkyTrain_east_and_shop_your_heart_out__0_Layer0_0_MEMBER_25_FILL">
<path fill="#FFFFFF" stroke="none" d="
M 44.4 108.9
Q 46.35 106.9 46.35 103.95 46.35 101.05 44.4 99.05 42.4 97 39.35 97 36.3 97 34.3 99.05 32.35 101.05 32.35 103.95 32.35 106.9 34.3 108.9 36.3 110.95 39.35 110.95 42.4 110.95 44.4 108.9
M 41.85 101.3
Q 42.75 102.35 42.75 103.95 42.75 105.55 41.85 106.65 40.9 107.8 39.35 107.8 37.85 107.8 36.85 106.65 35.95 105.55 35.95 103.95 35.95 102.35 36.85 101.3 37.8 100.15 39.35 100.15 40.9 100.15 41.85 101.3 Z"/>
</g>

<g id="METSP16_IAB_320x480___CROPPED_psd_Asset_2_Group_1_copy_01_Frame_Brentwood_Catch_the_SkyTrain_east_and_shop_your_heart_out__0_Layer0_0_MEMBER_26_FILL">
<path fill="#FFFFFF" stroke="none" d="
M 50.25 97.65
Q 49.75 98.15 49.75 98.95
L 49.75 114.7
Q 49.75 115.45 50.3 116 50.85 116.55 51.6 116.55 52.35 116.55 52.9 116 53.4 115.45 53.4 114.7
L 53.4 108.8
Q 54.75 110.95 57.45 110.95 60.35 110.95 62.05 108.8 63.65 106.85 63.65 103.95 63.65 101.05 62.1 99.15 60.4 97 57.45 97 54.75 97 53.3 99.15
L 53.3 98.95
Q 53.3 98.2 52.8 97.65 52.3 97.1 51.55 97.1 50.75 97.1 50.25 97.65
M 56.7 100.1
Q 58.2 100.1 59.15 101.25 60 102.3 60 103.95 60 105.6 59.15 106.7 58.25 107.85 56.7 107.85 55.2 107.85 54.25 106.65 53.4 105.55 53.4 103.95 53.4 102.35 54.25 101.25 55.2 100.1 56.7 100.1 Z"/>
</g>

<g id="METSP16_IAB_320x480___CROPPED_psd_Asset_2_Group_1_copy_01_Frame_Brentwood_Catch_the_SkyTrain_east_and_shop_your_heart_out__0_Layer0_0_MEMBER_27_FILL">
<path fill="#FFFFFF" stroke="none" d="
M 85 97.1
Q 83.8 97.1 83.5 98.1
L 80.65 106.85 77.2 98.1
Q 76.8 97.1 75.7 97.1 74.95 97.1 74.5 97.6 74.05 98.05 74.05 98.8 74.05 99.15 74.2 99.45
L 78.55 110.2
Q 77.85 111.9 75.85 113.5 74.95 114.2 74.95 115 74.95 115.65 75.45 116.1 75.95 116.55 76.6 116.55 77.05 116.55 77.45 116.3 80.8 114.3 83.1 108.7 85.05 103.9 86.5 99.45 86.65 99.25 86.65 98.8 86.65 98.05 86.2 97.6 85.75 97.1 85 97.1 Z"/>
</g>

<g id="METSP16_IAB_320x480___CROPPED_psd_Asset_2_Group_1_copy_01_Frame_Brentwood_Catch_the_SkyTrain_east_and_shop_your_heart_out__0_Layer0_0_MEMBER_28_FILL">
<path fill="#FFFFFF" stroke="none" d="
M 95.45 110.95
Q 98.5 110.95 100.5 108.9 102.45 106.9 102.45 103.95 102.45 101.05 100.5 99.05 98.5 97 95.45 97 92.4 97 90.4 99.05 88.45 101.05 88.45 103.95 88.45 106.9 90.4 108.9 92.4 110.95 95.45 110.95
M 97.95 101.3
Q 98.85 102.35 98.85 103.95 98.85 105.55 97.95 106.65 97 107.8 95.45 107.8 93.95 107.8 92.95 106.65 92.05 105.55 92.05 103.95 92.05 102.35 92.95 101.3 93.9 100.15 95.45 100.15 97 100.15 97.95 101.3 Z"/>
</g>

<g id="METSP16_IAB_320x480___CROPPED_psd_Asset_2_Group_1_copy_01_Frame_Brentwood_Catch_the_SkyTrain_east_and_shop_your_heart_out__0_Layer0_0_MEMBER_29_FILL">
<path fill="#FFFFFF" stroke="none" d="
M 115.5 97.65
Q 114.95 98.15 114.95 98.95
L 114.95 104.5
Q 114.95 105.85 114.3 106.7 113.55 107.65 112.1 107.65 110.75 107.65 110 106.75 109.3 105.9 109.3 104.5
L 109.3 98.95
Q 109.3 98.15 108.8 97.65 108.25 97.1 107.5 97.1 106.7 97.1 106.2 97.65 105.65 98.15 105.65 98.95
L 105.65 104.65
Q 105.65 107.5 107.05 109.2 108.5 110.95 111 110.95 113.7 110.95 114.95 108.7
L 114.95 108.95
Q 114.95 109.85 115.5 110.35 116 110.85 116.8 110.85 117.6 110.85 118.1 110.35 118.6 109.85 118.6 108.95
L 118.6 98.95
Q 118.6 98.15 118.1 97.65 117.55 97.1 116.8 97.1 116 97.1 115.5 97.65 Z"/>
</g>

<g id="METSP16_IAB_320x480___CROPPED_psd_Asset_2_Group_1_copy_01_Frame_Brentwood_Catch_the_SkyTrain_east_and_shop_your_heart_out__0_Layer0_0_MEMBER_30_FILL">
<path fill="#FFFFFF" stroke="none" d="
M 123.4 97.6
Q 122.9 98.15 122.9 98.95
L 122.9 109
Q 122.9 109.75 123.45 110.3 124 110.85 124.75 110.85 125.5 110.85 126.05 110.3 126.55 109.75 126.55 109
L 126.55 104.25
Q 126.55 102.4 127.55 101.3 128.5 100.25 130.15 100.25 130.85 100.25 131.35 99.8 131.8 99.35 131.8 98.65 131.8 97.9 131.35 97.45 130.9 97 130.15 97 127.6 97 126.55 99.3
L 126.55 98.95
Q 126.55 98.2 126.05 97.65 125.5 97.1 124.75 97.1 123.95 97.1 123.4 97.6 Z"/>
</g>

<g id="METSP16_IAB_320x480___CROPPED_psd_Asset_2_Group_1_copy_01_Frame_Brentwood_Catch_the_SkyTrain_east_and_shop_your_heart_out__0_Layer0_0_MEMBER_31_FILL">
<path fill="#FFFFFF" stroke="none" d="
M 5.8 121.85
Q 5.8 121.1 5.25 120.6 4.7 120.05 3.95 120.05 3.2 120.05 2.7 120.6 2.15 121.1 2.15 121.85
L 2.15 139
Q 2.15 139.75 2.7 140.3 3.2 140.85 3.95 140.85 4.7 140.85 5.25 140.3 5.8 139.75 5.8 139
L 5.8 133.45
Q 5.8 132.1 6.45 131.3 7.2 130.3 8.65 130.3 10 130.3 10.75 131.2 11.45 132.05 11.45 133.45
L 11.45 139
Q 11.45 139.75 12 140.3 12.5 140.85 13.25 140.85 14.05 140.85 14.55 140.3 15.1 139.75 15.1 139
L 15.1 133.25
Q 15.1 130.45 13.7 128.75 12.25 127 9.75 127 7 127 5.8 129.2
L 5.8 121.85 Z"/>
</g>

<g id="METSP16_IAB_320x480___CROPPED_psd_Asset_2_Group_1_copy_01_Frame_Brentwood_Catch_the_SkyTrain_east_and_shop_your_heart_out__0_Layer0_0_MEMBER_32_FILL">
<path fill="#FFFFFF" stroke="none" d="
M 18.3 133.95
Q 18.3 136.95 20.05 138.9 21.95 140.95 25.25 140.95 27.85 140.95 29.7 139.75 31 138.95 31 137.9 31 137.3 30.6 136.95 30.2 136.55 29.55 136.55 29.1 136.55 28.2 137.15 27.05 138.05 25.4 138.05 22.45 138.05 22.1 135.15
L 30.25 135.15
Q 31.55 135.15 31.55 133.95 31.55 130.95 29.8 129 28 127 25.2 127 22.2 127 20.25 129 18.3 130.95 18.3 133.95
M 27.15 130.7
Q 27.85 131.45 28.05 132.55
L 22.2 132.55
Q 22.3 131.35 23.1 130.65 23.95 129.9 25.2 129.9 26.35 129.9 27.15 130.7 Z"/>
</g>

<g id="METSP16_IAB_320x480___CROPPED_psd_Asset_2_Group_1_copy_01_Frame_Brentwood_Catch_the_SkyTrain_east_and_shop_your_heart_out__0_Layer0_0_MEMBER_33_FILL">
<path fill="#FFFFFF" stroke="none" d="
M 43.15 133.05
L 43.15 134
Q 41.85 132.6 39.45 132.6 37.25 132.6 35.95 133.65 34.5 134.8 34.5 136.8 34.5 138.65 35.8 139.8 37.1 140.95 39.25 140.95 41.95 140.95 43.2 138.95
L 43.2 139
Q 43.2 139.75 43.7 140.3 44.25 140.85 45 140.85 45.8 140.85 46.3 140.3 46.8 139.75 46.8 139
L 46.8 132.8
Q 46.8 129.95 45.15 128.5 43.5 127 40.35 127 38.55 127 37.1 127.4 34.85 128 34.85 129.25 34.85 129.9 35.3 130.35 35.7 130.75 36.4 130.75 36.7 130.75 37.85 130.45 39.05 130.1 40 130.1 41.75 130.1 42.5 130.8 43.15 131.45 43.15 133.05
M 40.55 135.05
Q 41.65 135.05 42.4 135.55 43.15 136.1 43.15 136.8 43.15 137.5 42.4 138 41.65 138.5 40.55 138.5 39.5 138.5 38.85 138.05 38.15 137.6 38.15 136.8 38.15 136 38.8 135.5 39.45 135.05 40.55 135.05 Z"/>
</g>

<g id="METSP16_IAB_320x480___CROPPED_psd_Asset_2_Group_1_copy_01_Frame_Brentwood_Catch_the_SkyTrain_east_and_shop_your_heart_out__0_Layer0_0_MEMBER_34_FILL">
<path fill="#FFFFFF" stroke="none" d="
M 59.2 129.8
Q 59.65 129.35 59.65 128.65 59.65 127 58 127 55.5 127 54.45 129.3
L 54.45 128.95
Q 54.45 128.2 53.9 127.65 53.4 127.1 52.6 127.1 51.8 127.1 51.3 127.6 50.75 128.15 50.75 128.95
L 50.75 139
Q 50.75 139.75 51.3 140.3 51.85 140.85 52.6 140.85 53.4 140.85 53.9 140.3 54.45 139.75 54.45 139
L 54.45 134.25
Q 54.45 132.4 55.4 131.35 56.4 130.3 58 130.3 58.75 130.3 59.2 129.8 Z"/>
</g>

<g id="METSP16_IAB_320x480___CROPPED_psd_Asset_2_Group_1_copy_01_Frame_Brentwood_Catch_the_SkyTrain_east_and_shop_your_heart_out__0_Layer0_0_MEMBER_35_FILL">
<path fill="#FFFFFF" stroke="none" d="
M 64.45 122.3
Q 63.9 122.8 63.9 123.55
L 63.9 127.35 61.85 127.35
Q 61.2 127.35 60.8 127.8 60.35 128.25 60.35 128.9 60.35 129.55 60.8 129.95 61.2 130.4 61.85 130.4
L 63.9 130.4 63.9 139
Q 63.9 139.75 64.45 140.3 65 140.85 65.75 140.85 66.5 140.85 67.05 140.3 67.55 139.75 67.55 139
L 67.55 130.4 69.95 130.4
Q 70.6 130.4 71.05 129.95 71.5 129.55 71.5 128.9 71.5 128.25 71.05 127.8 70.6 127.35 69.95 127.35
L 67.55 127.35 67.55 123.55
Q 67.55 122.8 67.05 122.3 66.5 121.75 65.75 121.75 65 121.75 64.45 122.3 Z"/>
</g>

<g id="METSP16_IAB_320x480___CROPPED_psd_Asset_2_Group_1_copy_01_Frame_Brentwood_Catch_the_SkyTrain_east_and_shop_your_heart_out__0_Layer0_0_MEMBER_36_FILL">
<path fill="#FFFFFF" stroke="none" d="
M 95.75 133.95
Q 95.75 131.05 93.8 129.05 91.8 127 88.75 127 85.7 127 83.7 129.05 81.75 131.05 81.75 133.95 81.75 136.9 83.7 138.9 85.7 140.95 88.75 140.95 91.8 140.95 93.8 138.9 95.75 136.9 95.75 133.95
M 91.25 131.3
Q 92.15 132.4 92.15 133.95 92.15 135.55 91.25 136.65 90.3 137.8 88.75 137.8 87.25 137.8 86.25 136.65 85.35 135.55 85.35 133.95 85.35 132.4 86.25 131.3 87.25 130.15 88.75 130.15 90.25 130.15 91.25 131.3 Z"/>
</g>

<g id="METSP16_IAB_320x480___CROPPED_psd_Asset_2_Group_1_copy_01_Frame_Brentwood_Catch_the_SkyTrain_east_and_shop_your_heart_out__0_Layer0_0_MEMBER_37_FILL">
<path fill="#FFFFFF" stroke="none" d="
M 100.75 127.1
Q 100 127.1 99.5 127.65 98.95 128.2 98.95 128.95
L 98.95 134.65
Q 98.95 137.5 100.35 139.2 101.8 140.95 104.3 140.95 107 140.95 108.25 138.75
L 108.25 138.95
Q 108.25 139.85 108.8 140.35 109.3 140.85 110.05 140.85 110.85 140.85 111.35 140.35 111.9 139.85 111.9 138.95
L 111.9 128.95
Q 111.9 128.2 111.35 127.65 110.8 127.1 110.05 127.1 109.3 127.1 108.8 127.65 108.25 128.2 108.25 128.95
L 108.25 134.5
Q 108.25 135.8 107.55 136.7 106.8 137.65 105.35 137.65 104 137.65 103.3 136.75 102.6 135.9 102.6 134.5
L 102.6 128.95
Q 102.6 128.2 102.05 127.65 101.5 127.1 100.75 127.1 Z"/>
</g>

<g id="METSP16_IAB_320x480___CROPPED_psd_Asset_2_Group_1_copy_01_Frame_Brentwood_Catch_the_SkyTrain_east_and_shop_your_heart_out__0_Layer0_0_MEMBER_38_FILL">
<path fill="#FFFFFF" stroke="none" d="
M 121.55 127.35
L 121.55 123.55
Q 121.55 122.8 121 122.3 120.45 121.75 119.7 121.75 118.95 121.75 118.45 122.3 117.9 122.8 117.9 123.55
L 117.9 127.35 115.85 127.35
Q 115.2 127.35 114.8 127.8 114.35 128.25 114.35 128.9 114.35 129.55 114.8 129.95 115.2 130.4 115.85 130.4
L 117.9 130.4 117.9 139
Q 117.9 139.75 118.45 140.3 118.95 140.85 119.7 140.85 120.45 140.85 121 140.3 121.55 139.75 121.55 139
L 121.55 130.4 123.9 130.4
Q 124.55 130.4 125 129.95 125.45 129.55 125.45 128.9 125.45 128.25 125 127.8 124.55 127.35 123.9 127.35
L 121.55 127.35 Z"/>
</g>

<g id="METSP16_IAB_320x480___CROPPED_psd_Asset_2_Group_1_copy_01_Frame_Brentwood_Catch_the_SkyTrain_east_and_shop_your_heart_out__0_Layer0_0_MEMBER_39_FILL">
<path fill="#FFFFFF" stroke="none" d="
M 129.5 140.2
Q 130.1 139.55 130.1 138.7 130.1 137.85 129.5 137.25 128.85 136.65 128 136.65 127.1 136.65 126.5 137.25 125.9 137.85 125.9 138.7 125.9 139.55 126.5 140.2 127.1 140.8 128 140.8 128.85 140.8 129.5 140.2 Z"/>
</g>
</defs>

<g transform="matrix( 1, 0, 0, 1, -99,-31) ">
<g transform="matrix( 1, 0, 0, 1, 36,25) ">
<g transform="matrix( 0.2884521484375, 0, 0, 0.2884521484375, 80.65,406.05) ">
<mask id="Mask_Mask_1">
<g transform="matrix( 1, 0, 0, 1, 0,0) ">
<use xlink:href="#Mask_flash0_ai_Assets_Layer_1__Clip_Group__0_2_MASK_0_FILL"/>
</g>
</mask>

<g mask="url(#Mask_Mask_1)">
<g transform="matrix( 1, 0, 0, 1, 0,0) ">
<use xlink:href="#flash0_ai_Assets_Layer_1__Clip_Group__0_Layer2_0_FILL"/>
</g>
</g>
</g>
</g>
</g>

<g transform="matrix( 1, 0, 0, 1, -99,-31) ">
<g transform="matrix( 1, 0, 0, 1, 36,25) ">
<g transform="matrix( 1, 0, 0, 1, 82,40) ">
<g transform="matrix( 1, 0, 0, 1, 0,0) ">
<g transform="matrix( 1, 0, 0, 1.0003814697265625, -1.2,0.45) ">
<use xlink:href="#METSP16_IAB_320x480___CROPPED_psd_Asset_2_Group_1_copy_01_Frame_Brentwood_Catch_the_SkyTrain_east_and_shop_your_heart_out__0_Layer0_0_MEMBER_0_FILL"/>
</g>

<g transform="matrix( 1, 0, 0, 1.0003814697265625, -1.2,0.45) ">
<use xlink:href="#METSP16_IAB_320x480___CROPPED_psd_Asset_2_Group_1_copy_01_Frame_Brentwood_Catch_the_SkyTrain_east_and_shop_your_heart_out__0_Layer0_0_MEMBER_1_FILL"/>
</g>

<g transform="matrix( 1, 0, 0, 1.0003814697265625, -1.2,0.45) ">
<use xlink:href="#METSP16_IAB_320x480___CROPPED_psd_Asset_2_Group_1_copy_01_Frame_Brentwood_Catch_the_SkyTrain_east_and_shop_your_heart_out__0_Layer0_0_MEMBER_2_FILL"/>
</g>

<g transform="matrix( 1, 0, 0, 1.0003814697265625, -1.2,0.45) ">
<use xlink:href="#METSP16_IAB_320x480___CROPPED_psd_Asset_2_Group_1_copy_01_Frame_Brentwood_Catch_the_SkyTrain_east_and_shop_your_heart_out__0_Layer0_0_MEMBER_3_FILL"/>
</g>

<g transform="matrix( 1, 0, 0, 1.0003814697265625, -1.2,0.45) ">
<use xlink:href="#METSP16_IAB_320x480___CROPPED_psd_Asset_2_Group_1_copy_01_Frame_Brentwood_Catch_the_SkyTrain_east_and_shop_your_heart_out__0_Layer0_0_MEMBER_4_FILL"/>
</g>

<g transform="matrix( 1, 0, 0, 1.0003814697265625, -1.2,0.45) ">
<use xlink:href="#METSP16_IAB_320x480___CROPPED_psd_Asset_2_Group_1_copy_01_Frame_Brentwood_Catch_the_SkyTrain_east_and_shop_your_heart_out__0_Layer0_0_MEMBER_5_FILL"/>
</g>

<g transform="matrix( 1, 0, 0, 1.0003814697265625, -1.2,0.45) ">
<use xlink:href="#METSP16_IAB_320x480___CROPPED_psd_Asset_2_Group_1_copy_01_Frame_Brentwood_Catch_the_SkyTrain_east_and_shop_your_heart_out__0_Layer0_0_MEMBER_6_FILL"/>
</g>

<g transform="matrix( 1, 0, 0, 1.0003814697265625, -1.2,0.45) ">
<use xlink:href="#METSP16_IAB_320x480___CROPPED_psd_Asset_2_Group_1_copy_01_Frame_Brentwood_Catch_the_SkyTrain_east_and_shop_your_heart_out__0_Layer0_0_MEMBER_7_FILL"/>
</g>

<g transform="matrix( 1, 0, 0, 1.0003814697265625, -1.2,0.45) ">
<use xlink:href="#METSP16_IAB_320x480___CROPPED_psd_Asset_2_Group_1_copy_01_Frame_Brentwood_Catch_the_SkyTrain_east_and_shop_your_heart_out__0_Layer0_0_MEMBER_8_FILL"/>
</g>

<g transform="matrix( 1, 0, 0, 1.0003814697265625, -1.2,0.45) ">
<use xlink:href="#METSP16_IAB_320x480___CROPPED_psd_Asset_2_Group_1_copy_01_Frame_Brentwood_Catch_the_SkyTrain_east_and_shop_your_heart_out__0_Layer0_0_MEMBER_9_FILL"/>
</g>

<g transform="matrix( 1, 0, 0, 1.0003814697265625, -1.2,0.45) ">
<use xlink:href="#METSP16_IAB_320x480___CROPPED_psd_Asset_2_Group_1_copy_01_Frame_Brentwood_Catch_the_SkyTrain_east_and_shop_your_heart_out__0_Layer0_0_MEMBER_10_FILL"/>
</g>

<g transform="matrix( 1, 0, 0, 1.0003814697265625, -1.2,0.45) ">
<use xlink:href="#METSP16_IAB_320x480___CROPPED_psd_Asset_2_Group_1_copy_01_Frame_Brentwood_Catch_the_SkyTrain_east_and_shop_your_heart_out__0_Layer0_0_MEMBER_11_FILL"/>
</g>

<g transform="matrix( 1, 0, 0, 1.0003814697265625, -1.2,0.45) ">
<use xlink:href="#METSP16_IAB_320x480___CROPPED_psd_Asset_2_Group_1_copy_01_Frame_Brentwood_Catch_the_SkyTrain_east_and_shop_your_heart_out__0_Layer0_0_MEMBER_12_FILL"/>
</g>

<g transform="matrix( 1, 0, 0, 1.0003814697265625, -1.2,0.45) ">
<use xlink:href="#METSP16_IAB_320x480___CROPPED_psd_Asset_2_Group_1_copy_01_Frame_Brentwood_Catch_the_SkyTrain_east_and_shop_your_heart_out__0_Layer0_0_MEMBER_13_FILL"/>
</g>

<g transform="matrix( 1, 0, 0, 1.0003814697265625, -1.2,0.45) ">
<use xlink:href="#METSP16_IAB_320x480___CROPPED_psd_Asset_2_Group_1_copy_01_Frame_Brentwood_Catch_the_SkyTrain_east_and_shop_your_heart_out__0_Layer0_0_MEMBER_14_FILL"/>
</g>

<g transform="matrix( 1, 0, 0, 1.0003814697265625, -1.2,0.45) ">
<use xlink:href="#METSP16_IAB_320x480___CROPPED_psd_Asset_2_Group_1_copy_01_Frame_Brentwood_Catch_the_SkyTrain_east_and_shop_your_heart_out__0_Layer0_0_MEMBER_15_FILL"/>
</g>

<g transform="matrix( 1, 0, 0, 1.0003814697265625, -1.2,0.45) ">
<use xlink:href="#METSP16_IAB_320x480___CROPPED_psd_Asset_2_Group_1_copy_01_Frame_Brentwood_Catch_the_SkyTrain_east_and_shop_your_heart_out__0_Layer0_0_MEMBER_16_FILL"/>
</g>

<g transform="matrix( 1, 0, 0, 1.0003814697265625, -1.2,0.45) ">
<use xlink:href="#METSP16_IAB_320x480___CROPPED_psd_Asset_2_Group_1_copy_01_Frame_Brentwood_Catch_the_SkyTrain_east_and_shop_your_heart_out__0_Layer0_0_MEMBER_17_FILL"/>
</g>

<g transform="matrix( 1, 0, 0, 1.0003814697265625, -1.2,0.45) ">
<use xlink:href="#METSP16_IAB_320x480___CROPPED_psd_Asset_2_Group_1_copy_01_Frame_Brentwood_Catch_the_SkyTrain_east_and_shop_your_heart_out__0_Layer0_0_MEMBER_18_FILL"/>
</g>

<g transform="matrix( 1, 0, 0, 1.0003814697265625, -1.2,0.45) ">
<use xlink:href="#METSP16_IAB_320x480___CROPPED_psd_Asset_2_Group_1_copy_01_Frame_Brentwood_Catch_the_SkyTrain_east_and_shop_your_heart_out__0_Layer0_0_MEMBER_19_FILL"/>
</g>

<g transform="matrix( 1, 0, 0, 1.0003814697265625, -1.2,0.45) ">
<use xlink:href="#METSP16_IAB_320x480___CROPPED_psd_Asset_2_Group_1_copy_01_Frame_Brentwood_Catch_the_SkyTrain_east_and_shop_your_heart_out__0_Layer0_0_MEMBER_20_FILL"/>
</g>

<g transform="matrix( 1, 0, 0, 1.0003814697265625, -1.2,0.45) ">
<use xlink:href="#METSP16_IAB_320x480___CROPPED_psd_Asset_2_Group_1_copy_01_Frame_Brentwood_Catch_the_SkyTrain_east_and_shop_your_heart_out__0_Layer0_0_MEMBER_21_FILL"/>
</g>

<g transform="matrix( 1, 0, 0, 1.0003814697265625, -1.2,0.45) ">
<use xlink:href="#METSP16_IAB_320x480___CROPPED_psd_Asset_2_Group_1_copy_01_Frame_Brentwood_Catch_the_SkyTrain_east_and_shop_your_heart_out__0_Layer0_0_MEMBER_22_FILL"/>
</g>

<g transform="matrix( 1, 0, 0, 1.0003814697265625, -1.2,0.45) ">
<use xlink:href="#METSP16_IAB_320x480___CROPPED_psd_Asset_2_Group_1_copy_01_Frame_Brentwood_Catch_the_SkyTrain_east_and_shop_your_heart_out__0_Layer0_0_MEMBER_23_FILL"/>
</g>

<g transform="matrix( 1, 0, 0, 1.0003814697265625, -1.2,0.45) ">
<use xlink:href="#METSP16_IAB_320x480___CROPPED_psd_Asset_2_Group_1_copy_01_Frame_Brentwood_Catch_the_SkyTrain_east_and_shop_your_heart_out__0_Layer0_0_MEMBER_24_FILL"/>
</g>

<g transform="matrix( 1, 0, 0, 1.0003814697265625, -1.2,0.45) ">
<use xlink:href="#METSP16_IAB_320x480___CROPPED_psd_Asset_2_Group_1_copy_01_Frame_Brentwood_Catch_the_SkyTrain_east_and_shop_your_heart_out__0_Layer0_0_MEMBER_25_FILL"/>
</g>

<g transform="matrix( 1, 0, 0, 1.0003814697265625, -1.2,0.45) ">
<use xlink:href="#METSP16_IAB_320x480___CROPPED_psd_Asset_2_Group_1_copy_01_Frame_Brentwood_Catch_the_SkyTrain_east_and_shop_your_heart_out__0_Layer0_0_MEMBER_26_FILL"/>
</g>

<g transform="matrix( 1, 0, 0, 1.0003814697265625, -1.2,0.45) ">
<use xlink:href="#METSP16_IAB_320x480___CROPPED_psd_Asset_2_Group_1_copy_01_Frame_Brentwood_Catch_the_SkyTrain_east_and_shop_your_heart_out__0_Layer0_0_MEMBER_27_FILL"/>
</g>

<g transform="matrix( 1, 0, 0, 1.0003814697265625, -1.2,0.45) ">
<use xlink:href="#METSP16_IAB_320x480___CROPPED_psd_Asset_2_Group_1_copy_01_Frame_Brentwood_Catch_the_SkyTrain_east_and_shop_your_heart_out__0_Layer0_0_MEMBER_28_FILL"/>
</g>

<g transform="matrix( 1, 0, 0, 1.0003814697265625, -1.2,0.45) ">
<use xlink:href="#METSP16_IAB_320x480___CROPPED_psd_Asset_2_Group_1_copy_01_Frame_Brentwood_Catch_the_SkyTrain_east_and_shop_your_heart_out__0_Layer0_0_MEMBER_29_FILL"/>
</g>

<g transform="matrix( 1, 0, 0, 1.0003814697265625, -1.2,0.45) ">
<use xlink:href="#METSP16_IAB_320x480___CROPPED_psd_Asset_2_Group_1_copy_01_Frame_Brentwood_Catch_the_SkyTrain_east_and_shop_your_heart_out__0_Layer0_0_MEMBER_30_FILL"/>
</g>

<g transform="matrix( 1, 0, 0, 1.0003814697265625, -1.2,0.45) ">
<use xlink:href="#METSP16_IAB_320x480___CROPPED_psd_Asset_2_Group_1_copy_01_Frame_Brentwood_Catch_the_SkyTrain_east_and_shop_your_heart_out__0_Layer0_0_MEMBER_31_FILL"/>
</g>

<g transform="matrix( 1, 0, 0, 1.0003814697265625, -1.2,0.45) ">
<use xlink:href="#METSP16_IAB_320x480___CROPPED_psd_Asset_2_Group_1_copy_01_Frame_Brentwood_Catch_the_SkyTrain_east_and_shop_your_heart_out__0_Layer0_0_MEMBER_32_FILL"/>
</g>

<g transform="matrix( 1, 0, 0, 1.0003814697265625, -1.2,0.45) ">
<use xlink:href="#METSP16_IAB_320x480___CROPPED_psd_Asset_2_Group_1_copy_01_Frame_Brentwood_Catch_the_SkyTrain_east_and_shop_your_heart_out__0_Layer0_0_MEMBER_33_FILL"/>
</g>

<g transform="matrix( 1, 0, 0, 1.0003814697265625, -1.2,0.45) ">
<use xlink:href="#METSP16_IAB_320x480___CROPPED_psd_Asset_2_Group_1_copy_01_Frame_Brentwood_Catch_the_SkyTrain_east_and_shop_your_heart_out__0_Layer0_0_MEMBER_34_FILL"/>
</g>

<g transform="matrix( 1, 0, 0, 1.0003814697265625, -1.2,0.45) ">
<use xlink:href="#METSP16_IAB_320x480___CROPPED_psd_Asset_2_Group_1_copy_01_Frame_Brentwood_Catch_the_SkyTrain_east_and_shop_your_heart_out__0_Layer0_0_MEMBER_35_FILL"/>
</g>

<g transform="matrix( 1, 0, 0, 1.0003814697265625, -1.2,0.45) ">
<use xlink:href="#METSP16_IAB_320x480___CROPPED_psd_Asset_2_Group_1_copy_01_Frame_Brentwood_Catch_the_SkyTrain_east_and_shop_your_heart_out__0_Layer0_0_MEMBER_36_FILL"/>
</g>

<g transform="matrix( 1, 0, 0, 1.0003814697265625, -1.2,0.45) ">
<use xlink:href="#METSP16_IAB_320x480___CROPPED_psd_Asset_2_Group_1_copy_01_Frame_Brentwood_Catch_the_SkyTrain_east_and_shop_your_heart_out__0_Layer0_0_MEMBER_37_FILL"/>
</g>

<g transform="matrix( 1, 0, 0, 1.0003814697265625, -1.2,0.45) ">
<use xlink:href="#METSP16_IAB_320x480___CROPPED_psd_Asset_2_Group_1_copy_01_Frame_Brentwood_Catch_the_SkyTrain_east_and_shop_your_heart_out__0_Layer0_0_MEMBER_38_FILL"/>
</g>

<g transform="matrix( 1, 0, 0, 1.0003814697265625, -1.2,0.45) ">
<use xlink:href="#METSP16_IAB_320x480___CROPPED_psd_Asset_2_Group_1_copy_01_Frame_Brentwood_Catch_the_SkyTrain_east_and_shop_your_heart_out__0_Layer0_0_MEMBER_39_FILL"/>
</g>
</g>
</g>
</g>
</g>
</svg>
